{
    "_id": "vTdWEBzJzltMM6r4",
    "data": {
        "attributes": {
            "ac": {
                "value": 12
            },
            "hardness": 0,
            "hasHealth": true,
            "hp": {
                "details": "",
                "max": 9,
                "temp": 0,
                "tempmax": 0,
                "value": 9
            },
            "stealth": {
                "details": "",
                "value": 2
            }
        },
        "creatureType": "",
        "details": {
            "description": "This human-sized purple mushroom emits a piercing shriek when disturbed.",
            "disable": "DC 18 Survival to carefully approach and cut the mushroom's air sac without triggering the shrieker",
            "isComplex": false,
            "level": -1,
            "reset": "1 minute",
            "routine": ""
        },
        "flavourText": "",
        "nethysUrl": "",
        "recallKnowledgeText": "",
        "saves": {
            "fortitude": {
                "rank": 0,
                "saveDetail": "",
                "value": 8
            },
            "reflex": {
                "rank": 0,
                "saveDetail": "",
                "value": 2
            },
            "will": {
                "rank": 0,
                "saveDetail": "",
                "value": 0
            }
        },
        "schema": {
            "version": {
                "value": ""
            }
        },
        "sidebarText": "",
        "source": {
            "value": ""
        },
        "statusEffects": [],
        "traits": {
            "ci": [],
            "di": {
                "custom": "",
                "selected": {},
                "value": [
                    "critical-hits",
                    "object-immunities",
                    "precision"
                ]
            },
            "dr": [],
            "dv": [],
            "traits": {
                "custom": "",
                "value": [
                    "environmental",
                    "fungus"
                ]
            }
        }
    },
    "effects": [],
    "flags": {},
    "img": "systems/pf2e/icons/default-icons/hazard.svg",
    "items": [
        {
            "_id": "sBSa8YzXeDYM0ODl",
            "data": {
                "actionCategory": {
                    "value": ""
                },
                "actionType": {
                    "value": "reaction"
                },
                "actions": {
                    "value": ""
                },
                "description": {
                    "chat": "",
                    "unidentified": "",
                    "value": "<p><strong>Trigger</strong> A creature or light source approaches within 10 feet of the shrieker or the shrieker takes damage.<br /><strong>Effect</strong> The shrieker emits a deafening screech that deals 1d6 sonic damage to creatures within 30 feet (DC 16 basic Fortitude save; creatures that critically fail this saving throw are deafened for 1 minute).</p>"
                },
                "rarity": {
                    "value": "common"
                },
                "requirements": {
                    "value": ""
                },
                "rules": [],
                "source": {
                    "value": ""
                },
                "traits": {
                    "custom": "",
                    "rarity": {
                        "value": "common"
                    },
                    "value": []
                },
                "trigger": {
                    "value": ""
                },
                "usage": {
                    "value": "held-in-one-hand"
                },
                "weapon": {
                    "value": ""
                }
            },
            "effects": [],
            "flags": {},
            "img": "systems/pf2e/icons/actions/Reaction.png",
            "name": "Shriek",
            "type": "action"
        }
    ],
    "name": "Shrieker",
    "permission": {
        "default": 0
    },
    "token": {
        "actorData": {},
        "actorId": "vTdWEBzJzltMM6r4",
        "actorLink": false,
        "bar1": {},
        "bar2": {},
        "brightLight": 0,
        "brightSight": 0,
        "dimLight": 0,
        "dimSight": 0,
        "displayBars": 0,
        "displayName": 0,
        "disposition": -1,
        "flags": {},
        "height": 1,
        "img": "systems/pf2e/icons/default-icons/hazard.svg",
        "lightAlpha": 1,
        "lightAngle": 360,
        "lockRotation": false,
        "name": "Shrieker",
        "randomImg": false,
        "rotation": 0,
        "scale": 1,
        "sightAngle": 360,
        "tint": null,
        "vision": false,
        "width": 1
    },
    "type": "hazard"
}
