{
    "_id": "VA4VL3kVUxBYbwRf",
    "data": {
        "attributes": {
            "ac": {
                "value": 16
            },
            "hardness": 0,
            "hasHealth": true,
            "hp": {
                "details": "",
                "max": 8,
                "temp": 0,
                "tempmax": 0,
                "value": 8
            },
            "stealth": {
                "details": "(trained)",
                "value": 6
            }
        },
        "creatureType": "",
        "details": {
            "description": "Loose snow and ice have built up on a high surface, such as a tree branch or a rooftop. Its grip on the surface is tenuous, and it is likely to fall if the surface moves. ",
            "disable": "DC 19 Survival (trained) to safely dislodge the snow, or deal any amount of fire damage to destroy the hazard without triggering it",
            "isComplex": false,
            "level": 0,
            "reset": "",
            "routine": ""
        },
        "flavourText": "",
        "nethysUrl": "",
        "recallKnowledgeText": "",
        "saves": {
            "fortitude": {
                "rank": 0,
                "saveDetail": "",
                "value": 10
            },
            "reflex": {
                "rank": 0,
                "saveDetail": "",
                "value": 8
            },
            "will": {
                "rank": 0,
                "saveDetail": "",
                "value": 0
            }
        },
        "schema": {
            "version": {
                "value": ""
            }
        },
        "sidebarText": "",
        "source": {
            "value": ""
        },
        "statusEffects": [],
        "traits": {
            "ci": [],
            "di": {
                "custom": "",
                "selected": {},
                "value": [
                    "critical-hits",
                    "object-immunities",
                    "precision"
                ]
            },
            "dr": [],
            "dv": [],
            "traits": {
                "custom": "",
                "value": [
                    "environmental"
                ]
            }
        }
    },
    "effects": [],
    "flags": {},
    "img": "systems/pf2e/icons/default-icons/hazard.svg",
    "items": [
        {
            "_id": "hoSnbd89PgLy85mP",
            "data": {
                "actionCategory": {
                    "value": ""
                },
                "actionType": {
                    "value": "reaction"
                },
                "actions": {
                    "value": ""
                },
                "description": {
                    "chat": "",
                    "unidentified": "",
                    "value": "<p><strong>Trigger</strong> A creature moves beneath where the snowfall is resting.<br /><strong>Effect</strong> Ice and snow fall on the triggering creature, dealing 2d6+3 bludgeoning damage (DC 18 basic Reflex save) and soaking their clothing. Until they change into fresh clothing or spend at least an hour in an area of normal or higher temperature, they treat cold environments as one step colder (for example, mild cold as severe cold).</p>"
                },
                "rarity": {
                    "value": "common"
                },
                "requirements": {
                    "value": ""
                },
                "rules": [],
                "source": {
                    "value": ""
                },
                "traits": {
                    "custom": "",
                    "rarity": {
                        "value": "common"
                    },
                    "value": []
                },
                "trigger": {
                    "value": ""
                },
                "usage": {
                    "value": "held-in-one-hand"
                },
                "weapon": {
                    "value": ""
                }
            },
            "effects": [],
            "flags": {},
            "img": "systems/pf2e/icons/actions/Reaction.png",
            "name": "Snowdrop",
            "type": "action"
        }
    ],
    "name": "Snowfall",
    "permission": {
        "default": 0
    },
    "token": {
        "actorData": {},
        "actorId": "VA4VL3kVUxBYbwRf",
        "actorLink": false,
        "bar1": {},
        "bar2": {},
        "brightLight": 0,
        "brightSight": 0,
        "dimLight": 0,
        "dimSight": 0,
        "displayBars": 0,
        "displayName": 0,
        "disposition": -1,
        "flags": {},
        "height": 1,
        "img": "systems/pf2e/icons/default-icons/hazard.svg",
        "lightAlpha": 1,
        "lightAngle": 360,
        "lockRotation": false,
        "name": "Snowfall",
        "randomImg": false,
        "rotation": 0,
        "scale": 1,
        "sightAngle": 360,
        "tint": null,
        "vision": false,
        "width": 1
    },
    "type": "hazard"
}
