{
    "_id": "Z5E6UrUkiVW2UQRO",
    "data": {
        "attributes": {
            "ac": {
                "value": 33
            },
            "hardness": 21,
            "hasHealth": true,
            "hp": {
                "details": "",
                "max": 84,
                "temp": 0,
                "tempmax": 0,
                "value": 84
            },
            "stealth": {
                "details": "(expert)",
                "value": 30
            }
        },
        "creatureType": "",
        "details": {
            "description": "Wiring keeping the furniture together unravels, causing the spring-loaded pieces of furniture and wire to shoot outward.",
            "disable": "DC 34 Thievery (expert) to identify and harmlessly cut the taut wiring",
            "isComplex": false,
            "level": 12,
            "reset": "",
            "routine": ""
        },
        "flavourText": "",
        "nethysUrl": "",
        "recallKnowledgeText": "",
        "saves": {
            "fortitude": {
                "rank": 0,
                "saveDetail": "",
                "value": 25
            },
            "reflex": {
                "rank": 0,
                "saveDetail": "",
                "value": 19
            },
            "will": {
                "rank": 0,
                "saveDetail": "",
                "value": null
            }
        },
        "schema": {
            "version": {
                "value": ""
            }
        },
        "sidebarText": "",
        "source": {
            "value": ""
        },
        "statusEffects": [],
        "traits": {
            "ci": [],
            "di": {
                "custom": "",
                "selected": {},
                "value": [
                    "critical-hits",
                    "object-immunities",
                    "precision"
                ]
            },
            "dr": [],
            "dv": [],
            "traits": {
                "custom": "",
                "value": [
                    "mechanical"
                ]
            }
        }
    },
    "effects": [],
    "flags": {},
    "items": [
        {
            "_id": "Eoo8nFMnqyYVA8S9",
            "data": {
                "actionCategory": {
                    "value": ""
                },
                "actionType": {
                    "value": "reaction"
                },
                "actions": {
                    "value": ""
                },
                "description": {
                    "chat": "",
                    "unidentified": "",
                    "value": "<p><strong>Trigger</strong> A creature moves within 5 feet of the pile of broken furniture;</p>\n<p><strong>Effect</strong> The pile of furniture and entangling wires explodes outward. The trap deals 6d10+27 slashing damage (DC 32 basic Reflex save). On a failed save, the target takes a -10-foot penalty to all its Speeds for 1 round (1 minute on a critical failure).</p>"
                },
                "rarity": {
                    "value": "common"
                },
                "requirements": {
                    "value": ""
                },
                "rules": [],
                "source": {
                    "value": ""
                },
                "traits": {
                    "custom": "",
                    "rarity": {
                        "value": "common"
                    },
                    "value": []
                },
                "trigger": {
                    "value": ""
                },
                "usage": {
                    "value": "held-in-one-hand"
                },
                "weapon": {
                    "value": ""
                }
            },
            "effects": [],
            "flags": {},
            "img": "systems/pf2e/icons/actions/Reaction.png",
            "name": "Unsprung Wires",
            "sort": 100000,
            "type": "action"
        }
    ],
    "name": "Explosive Furniture Trap",
    "permission": {
        "default": 0
    },
    "token": {
        "actorId": "Z5E6UrUkiVW2UQRO",
        "actorLink": false,
        "bar1": {
            "attribute": "attributes.hp"
        },
        "bar2": {},
        "brightLight": 0,
        "brightSight": 0,
        "dimLight": 0,
        "dimSight": 0,
        "displayBars": 20,
        "displayName": 20,
        "disposition": -1,
        "flags": {},
        "height": 1,
        "img": "icons/svg/mystery-man.svg",
        "lightAlpha": 1,
        "lightAngle": 360,
        "lightAnimation": {
            "intensity": 5,
            "speed": 5
        },
        "lockRotation": false,
        "name": "Explosive Furniture Trap",
        "randomImg": false,
        "rotation": 0,
        "scale": 1,
        "sightAngle": 360,
        "tint": null,
        "vision": false,
        "width": 1
    },
    "type": "hazard"
}
