{
    "_id": "HNp0uNsIx3BNBcr5",
    "data": {
        "boosts": {
            "0": {
                "value": [
                    "str",
                    "wis"
                ]
            },
            "1": {
                "value": [
                    "cha",
                    "con",
                    "dex",
                    "int",
                    "str",
                    "wis"
                ]
            }
        },
        "description": {
            "chat": "",
            "unidentified": "",
            "value": "<p>You have a long history of working with large circus animals for the Celestial Menagerie, such as performing in an animal act, jostling animals back into their cages, or even sweeping dung out of squalid pens. Mistress Dusklight's ongoing mistreatment of her animals compelled you to quit, and you now strive to ensure animals aren't abused.</p>\n<p>Choose two ability boosts. One must be to <strong>Strength</strong> or <strong>Wisdom</strong>, and one is a free ability boost.</p>\n<p>You're trained in the Athletics skill and a Lore skill related to a particular kind of common animal (such as Equine Lore, Feline Lore, or Pachyderm Lore). You gain the @Compendium[pf2e.feats-srd.Titan Wrestler]{Titan Wrestler} skill feat.</p>"
        },
        "items": {
            "9oyzm": {
                "id": "KxaYlC50zzHysJj8",
                "img": "systems/pf2e/icons/features/feats/feats.jpg",
                "level": "1",
                "name": "Titan Wrestler",
                "pack": "pf2e.feats-srd"
            }
        },
        "rarity": {
            "value": "common"
        },
        "rules": [],
        "source": {
            "value": ""
        },
        "trainedLore": "<Common Animal> Lore",
        "trainedSkills": {
            "value": [
                "ath"
            ]
        },
        "traits": {
            "custom": "",
            "rarity": {
                "value": "common"
            },
            "value": []
        }
    },
    "effects": [],
    "flags": {},
    "img": "icons/svg/mystery-man.svg",
    "name": "Animal Wrangler (Athletics)",
    "permission": {
        "default": 0
    },
    "type": "background"
}
