{
    "_id": "tsMvqxJhl6xgcDaU",
    "data": {
        "boosts": {
            "0": {
                "value": [
                    "cha",
                    "dex"
                ]
            },
            "1": {
                "value": [
                    "cha",
                    "con",
                    "dex",
                    "int",
                    "str",
                    "wis"
                ]
            }
        },
        "description": {
            "chat": "",
            "unidentified": "",
            "value": "<p>You never expected to join a circus, but you were looking for a good place to lie low for reasons of your own. The Circus of Wayward Wonders came together with several different workers and performers a few months ago. Many came from a circus in Escadar called the Celestial Menagerie, but not all of them. It was easy to slip in among the roustabouts. Although you'd planned to move on quickly, the circus folk have adopted you as one of their own, and they don't ask questions about your past.</p>\n<p>Choose two ability boosts. One must be to <strong>Dexterity</strong> or <strong>Charisma</strong>, and one is a free ability boost.</p>\n<p>You're trained in the Deception skill and the Underworld Lore skill. You gain the @Compendium[pf2e.feats-srd.Lengthy Diversion]{Lengthy Diversion} skill feat.</p>"
        },
        "items": {
            "mwqaf": {
                "id": "HEBXaS656MZTiWFu",
                "img": "systems/pf2e/icons/features/feats/feats.jpg",
                "level": "1",
                "name": "Lengthy Diversion",
                "pack": "pf2e.feats-srd"
            }
        },
        "rarity": {
            "value": "common"
        },
        "rules": [],
        "source": {
            "value": ""
        },
        "trainedLore": "Underworld Lore",
        "trainedSkills": {
            "value": [
                "dec"
            ]
        },
        "traits": {
            "custom": "",
            "rarity": {
                "value": "common"
            },
            "value": []
        }
    },
    "effects": [],
    "flags": {},
    "img": "icons/svg/mystery-man.svg",
    "name": "Blow-In (Deception)",
    "permission": {
        "default": 0
    },
    "type": "background"
}
