{
    "_id": "fuTLDmihr9Z9e5wa",
    "data": {
        "boosts": {
            "0": {
                "value": [
                    "cha",
                    "int"
                ]
            },
            "1": {
                "value": [
                    "cha",
                    "con",
                    "dex",
                    "int",
                    "str",
                    "wis"
                ]
            }
        },
        "description": {
            "chat": "",
            "unidentified": "",
            "value": "<p>You were (or still are) a member of a cult whose rites may involve sacred dances to ensure a strong harvest or dire rituals that call upon dark powers. You might have taken up adventuring to further your cult's aims, to initiate yourself into the world's grander mysteries, or to flee unsavory practices or strictures.</p>\n<p>Choose two ability boosts. One must be to <strong>Intelligence</strong> or <strong>Charisma</strong>, and one is a free ability boost.</p>\n<p>You're trained in the Occultism skill and the Lore skill related to your deity or cult. You gain the @Compendium[pf2e.feats-srd.Schooled In Secrets]{Schooled In Secrets} skill feat.</p>"
        },
        "items": {
            "hvaw7": {
                "id": "lEgYzFHransLkSvI",
                "img": "systems/pf2e/icons/features/feats/feats.jpg",
                "level": "1",
                "name": "Schooled In Secrets",
                "pack": "pf2e.feats-srd"
            }
        },
        "rarity": {
            "value": "common"
        },
        "rules": [],
        "source": {
            "value": ""
        },
        "trainedLore": "<Deity> or <Cult> Lore",
        "trainedSkills": {
            "value": [
                "occ"
            ]
        },
        "traits": {
            "custom": "",
            "rarity": {
                "value": "common"
            },
            "value": []
        },
        "usage": {
            "value": "held-in-one-hand"
        }
    },
    "effects": [],
    "flags": {},
    "img": "icons/svg/mystery-man.svg",
    "name": "Cultist",
    "permission": {
        "default": 0
    },
    "type": "background"
}
