{
    "_id": "Q2brdDtEoI3cmpuD",
    "data": {
        "boosts": {
            "0": {
                "value": [
                    "con",
                    "dex",
                    "str"
                ]
            },
            "1": {
                "value": []
            }
        },
        "description": {
            "chat": "",
            "unidentified": "",
            "value": "<p>You spent your youth in the wilderness, living close to or perhaps raised by animals. You have a close, mystical connection with these animals and gained certain abilities from them, though this limited your well-roundedness in mental pursuits.</p>\n<p>Choose one ability boost. It must be <strong>Strength</strong>, <strong>Dexterity</strong>, or <strong>Constitution</strong>.</p>\n<p>You are trained in Nature and Survival. You gain@Compendium[pf2e.ancestryfeatures.Low-Light Vision]{Low-Light Vision} (or @Compendium[pf2e.ancestryfeatures.Darkvision]{Darkvision} if you already had Low-Light Vision), imprecise scent with a range of 30 feet, and the @Compendium[pf2e.feats-srd.Forager]{Forager} skill feat.</p>"
        },
        "items": {
            "fx8l1": {
                "id": "8qebBeOJsyRIchcu",
                "img": "systems/pf2e/icons/features/feats/feats.jpg",
                "level": "1",
                "name": "Forager",
                "pack": "pf2e.feats-srd"
            }
        },
        "rarity": {
            "value": "common"
        },
        "rules": [],
        "source": {
            "value": ""
        },
        "trainedLore": "",
        "trainedSkills": {
            "value": [
                "nat",
                "sur"
            ]
        },
        "traits": {
            "custom": "",
            "rarity": {
                "value": "rare"
            },
            "value": []
        },
        "usage": {
            "value": "held-in-one-hand"
        }
    },
    "effects": [],
    "flags": {},
    "img": "icons/svg/mystery-man.svg",
    "name": "Feral Child",
    "permission": {
        "default": 0
    },
    "type": "background"
}
