{
    "_id": "tcsSxwkl4wCsfO3k",
    "data": {
        "boosts": {
            "0": {
                "value": [
                    "int",
                    "wis"
                ]
            },
            "1": {
                "value": [
                    "cha",
                    "con",
                    "dex",
                    "int",
                    "str",
                    "wis"
                ]
            }
        },
        "description": {
            "chat": "",
            "unidentified": "",
            "value": "<p><strong>Prerequisite</strong>: Region - Absalom and Starstone Isle</p>\n<hr />\n<p>Your experience as a ledger-keeper for one of Absalom's trade guilds has made you a canny investor and shrewd entrepreneur.</p>\n<p>Choose two ability boosts. One must be to <strong>Intelligence</strong> or <strong>Wisdom</strong>, and one is a free ability boost.</p>\n<p>You're trained in the Society skill and the Business Lore skill. You gain the @Compendium[pf2e.feats-srd.Experienced Professional]{Experienced Professional} skill feat.</p>"
        },
        "items": {
            "o2re4": {
                "id": "sMm0UfYxEPpq2Yzd",
                "img": "systems/pf2e/icons/features/feats/feats.jpg",
                "level": "1",
                "name": "Experienced Professional",
                "pack": "pf2e.feats-srd"
            }
        },
        "rarity": {
            "value": "common"
        },
        "rules": [],
        "source": {
            "value": ""
        },
        "trainedLore": "Business Lore",
        "trainedSkills": {
            "value": [
                "soc"
            ]
        },
        "traits": {
            "custom": "",
            "rarity": {
                "value": "common"
            },
            "value": []
        }
    },
    "effects": [],
    "flags": {},
    "img": "icons/svg/mystery-man.svg",
    "name": "Trade Consortium Underling",
    "permission": {
        "default": 0
    },
    "type": "background"
}
