{
    "_id": "qZUo5SmGxp5BlqFN",
    "data": {
        "baseItem": null,
        "brokenThreshold": {
            "value": 0
        },
        "bulkCapacity": {
            "value": ""
        },
        "collapsed": {
            "value": false
        },
        "containerId": {
            "value": ""
        },
        "description": {
            "chat": "",
            "unidentified": "",
            "value": "<p>Viciously sharp spiked chains wrap around this @Compendium[pf2e.equipment-srd.Studded Leather Armor]{Studded Leather Armor} that can be used to magically harm the wearer and channel supernatural abilities without somehow tearing at the leather itself.</p>\n<p>The barbed vest doesn't fuse to you in the usual way. It can be removed and discarded, but 1 day after doing so, you feel driven to recollect the vest at any cost until the curse is removed with a @Compendium[pf2e.spells-srd.Remove Curse]{Remove Curse} spell.</p>\n<p>Anytime you activate the barbed vest, its chains tighten around you, dealing 1d6 persistent piercing damage. You can remove this persistent damage as normal, but only after deactivating the item's magic as a single action.</p>\n<p><strong>Activate</strong> <span class=\"pf2-icon\">2</span> Interact;</p>\n<p><strong>Frequency</strong> Once per day;</p>\n<p><strong>Effect</strong> The barbed vest casts @Compendium[pf2e.spells-srd.Spiritual Weapon]{Spiritual Weapon}, summoning a @Compendium[pf2e.equipment-srd.Spiked Chain]{Spiked Chain} to fight for you.</p>"
        },
        "equipped": {
            "value": false
        },
        "equippedBulk": {
            "value": "1"
        },
        "hardness": {
            "value": 0
        },
        "hp": {
            "value": 0
        },
        "identification": {
            "status": "identified"
        },
        "identified": {
            "value": true
        },
        "invested": {
            "value": false
        },
        "level": {
            "value": "10"
        },
        "maxHp": {
            "value": 0
        },
        "negateBulk": {
            "value": "0"
        },
        "originalName": "",
        "preciousMaterial": {
            "value": ""
        },
        "preciousMaterialGrade": {
            "value": ""
        },
        "price": {
            "value": "-"
        },
        "quantity": {
            "value": "1"
        },
        "rarity": {
            "value": "common"
        },
        "rules": [],
        "size": {
            "value": "med"
        },
        "source": {
            "value": ""
        },
        "stackGroup": {
            "value": ""
        },
        "traits": {
            "custom": "",
            "rarity": {
                "value": "rare"
            },
            "usage": {
                "value": "held-in-one-hand"
            },
            "value": [
                "cursed",
                "invested",
                "magical",
                "necromancy"
            ]
        },
        "usage": {
            "value": "held-in-one-hand"
        },
        "weight": {
            "value": "2"
        }
    },
    "effects": [],
    "flags": {},
    "img": "systems/pf2e/icons/equipment/cursed-items/barbed-vest.jpg",
    "name": "Barbed Vest",
    "permission": {
        "default": 0
    },
    "type": "equipment"
}
