{
    "_id": "nPGrNslTdc6VBuCB",
    "data": {
        "description": {
            "chat": "",
            "unidentified": "",
            "value": "<div><strong>Armor</strong> leather armor</div>\n<div><strong>Weapons</strong> dagger, rapier</div>\n<div><strong>Gear</strong> adventurer's pack, climbing kit</div>\n<div><strong>Options</strong> @Compendium[pf2e.equipment-srd.Thieves' Tools]{thieves' tools} (3 gp)</div>"
        },
        "equippedBulk": {
            "value": ""
        },
        "items": {
            "5xujm": {
                "id": "4tIVTg9wj56RrveA",
                "img": "systems/pf2e/icons/equipment/armor/leather-armor.jpg",
                "isContainer": false,
                "items": {},
                "name": "Leather Armor",
                "pack": "pf2e.equipment-srd",
                "quantity": 1
            },
            "fvcr2": {
                "id": "9UJbMaglf35GVzaZ",
                "img": "systems/pf2e/icons/equipment/adventuring-gear/climbing-kit.jpg",
                "isContainer": false,
                "items": {},
                "name": "Climbing Kit",
                "pack": "pf2e.equipment-srd",
                "quantity": 1
            },
            "gps": {
                "id": "B6B7tBWJSqOBz5zz",
                "img": "systems/pf2e/icons/equipment/treasure/currency/gold-pieces.jpg",
                "isContainer": false,
                "items": {},
                "name": "Gold Pieces",
                "pack": "pf2e.equipment-srd",
                "quantity": 8
            },
            "mkr9z": {
                "id": "2req0jGaxz8hScdB",
                "img": "systems/pf2e/icons/equipment/adventuring-gear/adventurers-pack.jpg",
                "isContainer": true,
                "items": {},
                "name": "Adventurer's Pack",
                "pack": "pf2e.equipment-srd",
                "quantity": 1
            },
            "okxnd": {
                "id": "tH5GirEy7YB3ZgCk",
                "img": "systems/pf2e/icons/equipment/weapons/rapier.jpg",
                "isContainer": false,
                "items": {},
                "name": "Rapier",
                "pack": "pf2e.equipment-srd",
                "quantity": 1
            },
            "r1unh": {
                "id": "rQWaJhI5Bko5x14Z",
                "img": "systems/pf2e/icons/equipment/weapons/dagger.png",
                "isContainer": false,
                "items": {},
                "name": "Dagger",
                "pack": "pf2e.equipment-srd",
                "quantity": 1
            },
            "sps": {
                "id": "5Ew82vBF9YfaiY9f",
                "img": "systems/pf2e/icons/equipment/treasure/currency/silver-pieces.jpg",
                "isContainer": false,
                "items": {},
                "name": "Silver Pieces",
                "pack": "pf2e.equipment-srd",
                "quantity": 8
            }
        },
        "price": {
            "value": "6 gp, 2 sp"
        },
        "rarity": {
            "value": "common"
        },
        "rules": [],
        "source": {
            "value": ""
        },
        "traits": {
            "custom": "",
            "rarity": {
                "value": "common"
            },
            "value": [
                "rogue"
            ]
        },
        "weight": {
            "value": "-"
        }
    },
    "effects": [],
    "flags": {},
    "img": "systems/pf2e/icons/equipment/adventuring-gear/classkit-rogue.jpg",
    "name": "Class Kit (Rogue)",
    "permission": {
        "default": 0
    },
    "type": "kit"
}
