{
    "_id": "KZUhivCDF890BK7k",
    "data": {
        "baseItem": null,
        "brokenThreshold": {
            "value": 0
        },
        "bulkCapacity": {
            "value": ""
        },
        "collapsed": {
            "value": false
        },
        "containerId": {
            "value": ""
        },
        "description": {
            "value": "<p>While wearing this silver religious symbol of Erastil, you can cast the @Compendium[pf2e.spells-srd.Disrupt Undead]{Disrupt Undead} cantrip as an innate divine spell.</p>\n<hr />\n<p><strong>Activate</strong> <span class=\"pf2-icon\">3</span> command, Interact;</p>\n<p><strong>Frequency</strong> once per day;</p>\n<p><strong>Effect</strong> By touching a weapon you wield to the symbol and uttering a plea for Erastil’s steadying hand, you grant that weapon the deadly d12 trait. Against undead, the weapon instead gains the fatal d12 trait. This blessing lasts for 1 minute, until you score a critical hit with the weapon, or until you aren’t wielding the weapon.</p>"
        },
        "equipped": {
            "value": false
        },
        "equippedBulk": {
            "value": ""
        },
        "hardness": {
            "value": 0
        },
        "hp": {
            "value": 0
        },
        "identification": {
            "status": "identified"
        },
        "identified": {
            "value": true
        },
        "invested": {
            "value": false
        },
        "level": {
            "value": "4"
        },
        "maxHp": {
            "value": 0
        },
        "negateBulk": {
            "value": "0"
        },
        "preciousMaterial": {
            "value": ""
        },
        "preciousMaterialGrade": {
            "value": ""
        },
        "price": {
            "value": "80 gp"
        },
        "quantity": {
            "value": "1"
        },
        "rarity": {
            "value": "common"
        },
        "rules": [],
        "size": {
            "value": "med"
        },
        "source": {
            "value": ""
        },
        "stackGroup": {
            "value": ""
        },
        "traits": {
            "custom": "",
            "rarity": {
                "value": "unique"
            },
            "usage": {
                "value": "worn"
            },
            "value": [
                "divine",
                "invested",
                "positive",
                "transmutation"
            ]
        },
        "usage": {
            "value": ""
        },
        "weight": {
            "value": "L"
        }
    },
    "effects": [],
    "flags": {},
    "img": "systems/pf2e/icons/default-icons/equipment.svg",
    "name": "Hunter's Brooch",
    "permission": {
        "default": 0
    },
    "type": "equipment"
}
