{
    "_id": "9cK0QVSjNd8tQtiQ",
    "data": {
        "baseItem": null,
        "brokenThreshold": {
            "value": 0
        },
        "bulkCapacity": {
            "value": "50"
        },
        "capacity": {
            "type": "weight",
            "value": 0,
            "weightless": false
        },
        "collapsed": {
            "value": false
        },
        "containerId": {
            "value": ""
        },
        "currency": {
            "cp": 0,
            "ep": 0,
            "gp": 0,
            "pp": 0,
            "sp": 0
        },
        "description": {
            "chat": "",
            "unidentified": "",
            "value": "<p>This sturdy leather satchel contains five compartments fastened with large clasps. The first compartment is lined in blue satin and contains an extradimensional space equivalent to a @Compendium[pf2e.equipment-srd.Bag of Holding (Type II)]{Bag of Holding (Type II)}.</p>\n<p>The second compartment has no lining. You can pull forth cookware and cooking utensils from it. Once they have been used to prepare a meal, the items transform into plates and silverware, and they evaporate once the meal has been eaten, taking any leftovers with them. The cookware reappears cleaned in the compartment 1 hour later. The compartment provides only kitchenware, not any food.</p>\n<p>The third compartment is lined with plush purple velvet and contains berry tarts wrapped in parchment paper. A creature can unwrap and eat one tart with an Interact action to regain [[/r 4d8+8]] Hit Points. The knapsack produces four tarts per day, which appear at breakfast time. Any tarts not eaten by the end of the day evaporate.</p>\n<p>The fourth compartment is lined in golden velvet. Once per day, you can draw a lucky magic sling bullet from this compartment. If you attack with this sling bullet, you roll twice and use the better result on your attack roll and your damage roll. This is a fortune effect. The stone becomes non-magical if not hurled by the end of your turn. Once activated, this compartment stitches itself shut until the next day.</p>\n<p>The bag's fifth compartment is lined in black wool. Once per day, you can unfold this compartment into a 5-foot-diameter portal on the ground. The first person to Step into the portal from an adjacent square is teleported away. This has the same effect as an 5th-level @Compendium[pf2e.spells-srd.Dimension Door]{Dimension Door} spell, except the affected creature takes the knapsack with them. When the portal is used, or at the start of your next turn if it hasn't been used, the compartment closes automatically and can't be unfolded until the next day.</p>"
        },
        "equipped": {
            "value": false
        },
        "equippedBulk": {
            "value": ""
        },
        "hardness": {
            "value": 0
        },
        "hp": {
            "value": 0
        },
        "identification": {
            "status": "identified"
        },
        "identified": {
            "value": true
        },
        "invested": {
            "value": false
        },
        "level": {
            "value": "13"
        },
        "maxHp": {
            "value": 0
        },
        "negateBulk": {
            "value": "50"
        },
        "preciousMaterial": {
            "value": ""
        },
        "preciousMaterialGrade": {
            "value": ""
        },
        "price": {
            "value": "2,850 gp"
        },
        "quantity": {
            "value": "1"
        },
        "rarity": {
            "value": "common"
        },
        "rules": [],
        "size": {
            "value": "med"
        },
        "source": {
            "value": ""
        },
        "stackGroup": {
            "value": ""
        },
        "traits": {
            "custom": "",
            "rarity": {
                "value": "uncommon"
            },
            "value": [
                "conjuration",
                "extradimensional",
                "healing",
                "invested",
                "magical"
            ]
        },
        "usage": {
            "value": "wornbackpack"
        },
        "weight": {
            "value": "L"
        }
    },
    "effects": [],
    "flags": {},
    "img": "systems/pf2e/icons/equipment/worn-items/other-worn-items/knapsack-of-halflingkind.jpg",
    "name": "Knapsack of Halflingkind (Greater)",
    "permission": {
        "default": 0
    },
    "type": "backpack"
}
