{
    "_id": "bAfyWCvgsYDyw3ff",
    "data": {
        "baseItem": null,
        "brokenThreshold": {
            "value": 0
        },
        "bulkCapacity": {
            "value": ""
        },
        "collapsed": {
            "value": false
        },
        "containerId": {
            "value": ""
        },
        "description": {
            "chat": "",
            "unidentified": "",
            "value": "<p>A maestro's instrument can be crafted in the form of any variety of handheld musical instrument. A maestro's instrument grants you a +1 item bonus to Performance checks while playing music with the instrument.</p>\n<p><strong>Activate</strong> <span style=\"font-family: 'Pathfinder2eActions'; font-size: 1.8em; display: inline;\">D</span> Interact</p>\n<p><strong>Frequency</strong> once per day</p>\n<p><strong>Effect</strong> You play the instrument, causing it to cast a DC 17 @Compendium[pf2e.spells-srd.Charm]{Charm} spell.</p>\n<hr />\n<p><strong>Craft Requirements</strong>&nbsp;You must supply a casting of&nbsp;<em>charm</em>&nbsp;of the appropriate level.</p>\n<p>Automatically applied effects:</p>\n<ul>\n<li>+1 item bonus to Performance checks while playing music with the instrument</li>\n</ul>"
        },
        "equipped": {
            "value": false
        },
        "equippedBulk": {
            "value": ""
        },
        "hardness": {
            "value": 0
        },
        "hp": {
            "value": 0
        },
        "identification": {
            "status": "identified"
        },
        "identified": {
            "value": true
        },
        "invested": {
            "value": false
        },
        "level": {
            "value": "3"
        },
        "maxHp": {
            "value": 0
        },
        "negateBulk": {
            "value": "0"
        },
        "preciousMaterial": {
            "value": ""
        },
        "preciousMaterialGrade": {
            "value": ""
        },
        "price": {
            "value": "60 gp"
        },
        "quantity": {
            "value": "1"
        },
        "rarity": {
            "value": "common"
        },
        "rules": [
            {
                "key": "PF2E.RuleElement.FlatModifier",
                "label": "Maestro's Instrument (playing it)",
                "predicate": {
                    "all": [
                        "playing"
                    ]
                },
                "selector": "performance",
                "type": "item",
                "value": 1
            }
        ],
        "size": {
            "value": "med"
        },
        "source": {
            "value": ""
        },
        "stackGroup": {
            "value": ""
        },
        "traits": {
            "custom": "",
            "rarity": {
                "value": "common"
            },
            "usage": {
                "value": "held-in-two-hands"
            },
            "value": [
                "enchantment",
                "magical"
            ]
        },
        "usage": {
            "value": "held-in-one-hand"
        },
        "weight": {
            "value": "1"
        }
    },
    "effects": [],
    "flags": {},
    "img": "systems/pf2e/icons/equipment/held-items/maestros-instrument.jpg",
    "name": "Maestro's Instrument (Lesser)",
    "permission": {
        "default": 0
    },
    "type": "equipment"
}
