{
    "_id": "YMQr577asquZIP65",
    "data": {
        "armor": {
            "value": 3
        },
        "armorType": {
            "value": "medium"
        },
        "baseItem": null,
        "brokenThreshold": {
            "value": null
        },
        "bulkCapacity": {
            "value": ""
        },
        "check": {
            "value": "-2"
        },
        "collapsed": {
            "value": false
        },
        "containerId": {
            "value": ""
        },
        "description": {
            "chat": "",
            "unidentified": "",
            "value": "<p>Scale mail consists of many metal scales sewn onto a reinforced leather backing, often in the form of a long shirt that protects the torso, arms, and legs.</p>"
        },
        "dex": {
            "value": "2"
        },
        "equipped": {
            "value": false
        },
        "equippedBulk": {
            "value": "2"
        },
        "group": {
            "value": "composite"
        },
        "hardness": {
            "value": null
        },
        "hp": {
            "value": null
        },
        "identification": {
            "status": "identified"
        },
        "identified": {
            "value": true
        },
        "invested": {
            "value": false
        },
        "level": {
            "value": 0
        },
        "maxHp": {
            "value": null
        },
        "negateBulk": {
            "value": "0"
        },
        "potency": {},
        "potencyRune": {
            "value": ""
        },
        "preciousMaterial": {
            "value": ""
        },
        "preciousMaterialGrade": {
            "value": ""
        },
        "price": {
            "value": "4 gp"
        },
        "propertyRune1": {
            "value": ""
        },
        "propertyRune2": {
            "value": ""
        },
        "propertyRune3": {
            "value": ""
        },
        "propertyRune4": {
            "value": ""
        },
        "quantity": {
            "value": 1
        },
        "rarity": {
            "value": "common"
        },
        "resiliencyRune": {
            "value": ""
        },
        "resilient": {},
        "rules": [
            {
                "key": "PF2E.RuleElement.FlatModifier",
                "predicate": {
                    "not": [
                        "unburdened-iron"
                    ]
                },
                "roll-options": [
                    "all"
                ],
                "selector": "speed",
                "type": "untyped",
                "value": {
                    "brackets": [
                        {
                            "end": 13,
                            "value": -5
                        }
                    ],
                    "field": "actor|data.abilities.str.value"
                }
            }
        ],
        "size": {
            "value": "med"
        },
        "source": {
            "value": ""
        },
        "speed": {
            "value": "-5 ft"
        },
        "stackGroup": {
            "value": ""
        },
        "strength": {
            "value": "14"
        },
        "traits": {
            "custom": "",
            "rarity": {
                "value": "common"
            },
            "value": []
        },
        "usage": {
            "value": "wornarmor"
        },
        "weight": {
            "value": "3"
        }
    },
    "effects": [],
    "flags": {},
    "img": "systems/pf2e/icons/equipment/armor/scale-mail.jpg",
    "name": "Scale Mail",
    "permission": {
        "default": 0
    },
    "type": "armor"
}
