{
    "_id": "n8nmqJdfHrDfuG1J",
    "data": {
        "baseItem": null,
        "brokenThreshold": {
            "value": 0
        },
        "bulkCapacity": {
            "value": ""
        },
        "collapsed": {
            "value": false
        },
        "containerId": {
            "value": ""
        },
        "description": {
            "chat": "",
            "unidentified": "",
            "value": "<p><strong>Activate</strong> 1 minute (Interact)</p>\n<hr />\n<p>Astrolabes can be used for navigation in unfamiliar or featureless locations.</p>\n<p>To use an astrolabe, the holder must be trained in Survival.</p>\n<p>By spending 1 minute to measure the height of the stars and planets, a holder who knows the time and date can determine the latitude, and a holder who knows their latitude can determine the date and time.</p>\n<p>An astrolabe also grants a +1 item bonus on checks to identify celestial bodies.</p>\n<p>A standard astrolabe only functions on steady ground.</p>\n<hr />\n<p>Automatically applied effects:</p>\n<ul>\n<li>+1 item bonus on checks to identify celestial bodies.</li>\n</ul>\n<p>&nbsp;</p>"
        },
        "equipped": {
            "value": false
        },
        "equippedBulk": {
            "value": ""
        },
        "hardness": {
            "value": 0
        },
        "hp": {
            "value": 0
        },
        "identification": {
            "status": "identified"
        },
        "identified": {
            "value": true
        },
        "invested": {
            "value": false
        },
        "level": {
            "value": "2"
        },
        "maxHp": {
            "value": 0
        },
        "negateBulk": {
            "value": "0"
        },
        "originalName": "",
        "preciousMaterial": {
            "value": ""
        },
        "preciousMaterialGrade": {
            "value": ""
        },
        "price": {
            "value": "30 gp"
        },
        "quantity": {
            "value": "1"
        },
        "rarity": {
            "value": "common"
        },
        "rules": [
            {
                "key": "PF2E.RuleElement.FlatModifier",
                "label": "Astrolabe (identify celestial bodies)",
                "predicate": {
                    "all": [
                        "action:recall-knowledge",
                        "identify"
                    ],
                    "any": [
                        "celestial-body"
                    ]
                },
                "selector": "skill-check",
                "type": "item",
                "value": 1
            }
        ],
        "size": {
            "value": "med"
        },
        "source": {
            "value": ""
        },
        "stackGroup": {
            "value": ""
        },
        "traits": {
            "custom": "",
            "rarity": {
                "value": "uncommon"
            },
            "usage": {
                "value": "held-in-two-hands"
            },
            "value": []
        },
        "usage": {
            "value": "held-in-one-hand"
        },
        "weight": {
            "value": "L"
        }
    },
    "effects": [],
    "flags": {},
    "img": "systems/pf2e/icons/equipment/adventuring-gear/astrolabe.jpg",
    "name": "Standard Astrolabe",
    "permission": {
        "default": 0
    },
    "type": "equipment"
}
