{
    "_id": "RnpzfRWsOW6zmAgN",
    "data": {
        "baseItem": null,
        "brokenThreshold": {
            "value": 0
        },
        "bulkCapacity": {
            "value": ""
        },
        "collapsed": {
            "value": false
        },
        "containerId": {
            "value": ""
        },
        "description": {
            "chat": "",
            "unidentified": "",
            "value": "<p>This sinister-looking black statuette resembles a horse rearing up on its hind legs.</p>\n<p>When activated, this figurine becomes a @Compendium[pf2e.pathfinder-bestiary.Nightmare]{Nightmare}.</p>\n<p>It can be called upon once per week for up to 24 hours, though it won't use @Compendium[pf2e.spells-srd.Plane Shift]{Plane Shift} or its other abilities on behalf of its rider.</p>\n<p>Although evil, it allows itself to be ridden by creatures of any alignment, although if a good creature mounts it, the rider must attempt a DC 3 flat check. On a failure, the nightmare uses @Compendium[pf2e.spells-srd.Plane Shift]{Plane Shift}&nbsp;to take the rider to a random location in the Abyss, where it promptly returns to statue form, stranding its rider in that nightmarish place.</p>"
        },
        "equipped": {
            "value": false
        },
        "equippedBulk": {
            "value": ""
        },
        "hardness": {
            "value": 0
        },
        "hp": {
            "value": 0
        },
        "identification": {
            "status": "identified"
        },
        "identified": {
            "value": true
        },
        "invested": {
            "value": false
        },
        "level": {
            "value": "15"
        },
        "maxHp": {
            "value": 0
        },
        "negateBulk": {
            "value": "0"
        },
        "originalName": "",
        "preciousMaterial": {
            "value": ""
        },
        "preciousMaterialGrade": {
            "value": ""
        },
        "price": {
            "value": "6,000 gp"
        },
        "quantity": {
            "value": "1"
        },
        "rarity": {
            "value": "common"
        },
        "rules": [],
        "size": {
            "value": "med"
        },
        "source": {
            "value": ""
        },
        "stackGroup": {
            "value": ""
        },
        "traits": {
            "custom": "",
            "rarity": {
                "value": "common"
            },
            "usage": {
                "value": "held-in-one-hand"
            },
            "value": [
                "conjuration",
                "magical"
            ]
        },
        "usage": {
            "value": "held-in-one-hand"
        },
        "weight": {
            "value": "L"
        }
    },
    "effects": [],
    "flags": {},
    "img": "systems/pf2e/icons/equipment/held-items/wondrous-figurine-obsidian-steed.jpg",
    "name": "Wondrous Figurine (Obsidian Steed)",
    "permission": {
        "default": 0
    },
    "type": "equipment"
}
