{
    "_id": "3d3NAcPfvn07mcGN",
    "data": {
        "abilities": {
            "cha": {
                "min": 3,
                "mod": 4,
                "value": 18
            },
            "con": {
                "min": 3,
                "mod": 3,
                "value": 16
            },
            "dex": {
                "min": 3,
                "mod": 5,
                "value": 20
            },
            "int": {
                "min": 3,
                "mod": -2,
                "value": 6
            },
            "str": {
                "min": 3,
                "mod": 5,
                "value": 20
            },
            "wis": {
                "min": 3,
                "mod": 3,
                "value": 16
            }
        },
        "attributes": {
            "ac": {
                "base": 28,
                "breakdown": "Base Armor Class 10, Base Modifier +13, Dexterity +5, Weak -2",
                "check": 0,
                "details": "",
                "dex": 0,
                "item": 0,
                "min": 0,
                "name": "ac",
                "totalModifier": 16,
                "value": 26
            },
            "allSaves": {
                "value": ""
            },
            "ancestryhp": 0,
            "bonusEncumbranceBulk": 0,
            "bonusLimitBulk": 0,
            "classDC": {
                "ability": "str",
                "breakdown": "",
                "item": 0,
                "rank": 0,
                "value": 0
            },
            "classhp": 0,
            "flatbonushp": 0,
            "flatbonussp": 0,
            "hp": {
                "details": "",
                "max": 152,
                "min": 0,
                "temp": 0,
                "value": 152
            },
            "init": {
                "bonus": 0,
                "value": 0
            },
            "initiative": {
                "ability": "",
                "circumstance": 0,
                "status": 0
            },
            "levelbonushp": 0,
            "levelbonussp": 0,
            "perception": {
                "ability": "wis",
                "base": 16,
                "breakdown": "Base Modifier +13, Wisdom +3, Weak -2",
                "item": 0,
                "name": "perception",
                "rank": 0,
                "totalModifier": 14,
                "value": 14
            },
            "resolve": {
                "value": 0
            },
            "shield": {
                "ac": 0,
                "brokenThreshold": 0,
                "hardness": 0,
                "max": 0,
                "min": 0,
                "value": 0
            },
            "sp": {
                "details": "",
                "max": 0,
                "min": 0,
                "value": 0
            },
            "speed": {
                "breakdown": "Base Land Speed 0",
                "name": "Land Speed",
                "otherSpeeds": [],
                "total": 0,
                "totalModifier": 0,
                "type": "land",
                "value": ""
            }
        },
        "currency": {
            "cp": {
                "value": 0
            },
            "gp": {
                "value": 0
            },
            "pp": {
                "value": 0
            },
            "sp": {
                "value": 0
            }
        },
        "customModifiers": {
            "all": []
        },
        "damageDice": {},
        "details": {
            "alignment": {
                "value": "CE"
            },
            "ancestry": {
                "value": "Fleshwarp"
            },
            "biography": {
                "public": "",
                "value": ""
            },
            "class": {
                "value": ""
            },
            "creatureType": "Aberration",
            "deity": {
                "image": "systems/pf2e/assets/sheet/deity.png",
                "value": ""
            },
            "flavorText": "Irnakurse are surface elves who drow have subjected to particularly cruel and humiliating fleshwarping practices, as drow take special delight in the torment of their surface-dwelling kin. The process of crafting an irnakurse involves twisting an unfortunate elf into a deformed mass of misplaced limbs, loose flesh, and bony protrusions-parts that should be internal are often left on full display to the world. Irnakurse are subject to mental conditioning that causes them to hate their prior forms, and these creatures prefer to attack surface elves over all other targets.<br /><br />",
            "flavourText": "",
            "heritage": {
                "value": ""
            },
            "keyability": {
                "value": "str"
            },
            "level": {
                "min": 1,
                "value": 9
            },
            "nethysUrl": "https://2e.aonprd.com/Monsters.aspx?ID=670",
            "recallKnowledgeText": "Recall Knowledge - Aberration : DC 26",
            "sidebarText": "<h3 class=\"title\"><img alt=\"Sidebar - Additional Lore\" title=\"Sidebar - Additional Lore\" style=\"height:20px; padding:2px 10px 0px 2px\" src=\"Images\\Icons\\Sidebar_2_AdditionalLore.png\"> Irnakurse Mockeries</h3>When drow capture a particularly hated surface elf, or one with a large following, they inflict even greater pain upon them during the fleshwarping process than most other victims. The resulting irnakurse are known as &#x201C;mockeries,&#x201D; and always have elite adjustments. Rather than using them, drow keep them close at hand as living &#x201C;art&#x201D; akin to a pet or trophy.",
            "source": {
                "value": "Bestiary 2 pg. 118"
            }
        },
        "martial": {
            "advanced": {
                "breakdown": "",
                "rank": 0,
                "value": 0
            },
            "heavy": {
                "breakdown": "",
                "rank": 0,
                "value": 0
            },
            "light": {
                "breakdown": "",
                "rank": 0,
                "value": 0
            },
            "martial": {
                "breakdown": "",
                "rank": 0,
                "value": 0
            },
            "medium": {
                "breakdown": "",
                "rank": 0,
                "value": 0
            },
            "simple": {
                "breakdown": "",
                "rank": 0,
                "value": 0
            },
            "unarmed": {
                "breakdown": "",
                "rank": 0,
                "value": 0
            },
            "unarmored": {
                "breakdown": "",
                "rank": 0,
                "value": 0
            }
        },
        "saves": {
            "fortitude": {
                "ability": "con",
                "base": 18,
                "breakdown": "Base Modifier +15, Constitution +3, Weak -2",
                "item": 0,
                "name": "fortitude",
                "rank": 0,
                "saveDetail": "",
                "totalModifier": 16,
                "value": 16
            },
            "reflex": {
                "ability": "dex",
                "base": 16,
                "breakdown": "Base Modifier +11, Dexterity +5, Weak -2",
                "item": 0,
                "name": "reflex",
                "rank": 0,
                "saveDetail": "",
                "totalModifier": 14,
                "value": 14
            },
            "will": {
                "ability": "wis",
                "base": 14,
                "breakdown": "Base Modifier +11, Wisdom +3, Weak -2",
                "item": 0,
                "name": "will",
                "rank": 0,
                "saveDetail": "",
                "totalModifier": 12,
                "value": 12
            }
        },
        "schema": {
            "version": {
                "value": ""
            }
        },
        "skills": {
            "acr": {
                "ability": "dex",
                "armor": 1,
                "base": 20,
                "breakdown": "Base Modifier +15, Dexterity +5, Weak -2",
                "expanded": "acrobatics",
                "item": 0,
                "itemID": "SVAyaWNQdLEB8T8O",
                "label": "Acrobatics",
                "lore": false,
                "mod": 0,
                "name": "Acrobatics",
                "rank": 1,
                "totalModifier": 18,
                "value": 18,
                "visible": true
            },
            "arc": {
                "ability": "int",
                "breakdown": "Base Modifier +0, Intelligence -2, Weak -2",
                "expanded": "arcana",
                "item": 0,
                "label": "Arcana",
                "lore": false,
                "mod": 0,
                "name": "Arcana",
                "rank": 0,
                "totalModifier": -4,
                "value": -4,
                "visible": false
            },
            "ath": {
                "ability": "str",
                "armor": 1,
                "base": 20,
                "breakdown": "Base Modifier +15, Strength +5, Weak -2",
                "expanded": "athletics",
                "item": 0,
                "itemID": "SKVDodNz8cPMHoc8",
                "label": "Athletics",
                "lore": false,
                "mod": 0,
                "name": "Athletics",
                "rank": 1,
                "totalModifier": 18,
                "value": 18,
                "visible": true
            },
            "cra": {
                "ability": "int",
                "breakdown": "Base Modifier +0, Intelligence -2, Weak -2",
                "expanded": "crafting",
                "item": 0,
                "label": "Crafting",
                "lore": false,
                "mod": 0,
                "name": "Crafting",
                "rank": 0,
                "totalModifier": -4,
                "value": -4,
                "visible": false
            },
            "dec": {
                "ability": "cha",
                "breakdown": "Base Modifier +0, Charisma +4, Weak -2",
                "expanded": "deception",
                "item": 0,
                "label": "Deception",
                "lore": false,
                "mod": 0,
                "name": "Deception",
                "rank": 0,
                "totalModifier": 2,
                "value": 2,
                "visible": false
            },
            "dip": {
                "ability": "cha",
                "breakdown": "Base Modifier +0, Charisma +4, Weak -2",
                "expanded": "diplomacy",
                "item": 0,
                "label": "Diplomacy",
                "lore": false,
                "mod": 0,
                "name": "Diplomacy",
                "rank": 0,
                "totalModifier": 2,
                "value": 2,
                "visible": false
            },
            "itm": {
                "ability": "cha",
                "breakdown": "Base Modifier +0, Charisma +4, Weak -2",
                "expanded": "intimidation",
                "item": 0,
                "label": "Intimidation",
                "lore": false,
                "mod": 0,
                "name": "Intimidation",
                "rank": 0,
                "totalModifier": 2,
                "value": 2,
                "visible": false
            },
            "med": {
                "ability": "wis",
                "breakdown": "Base Modifier +0, Wisdom +3, Weak -2",
                "expanded": "medicine",
                "item": 0,
                "label": "Medicine",
                "lore": false,
                "mod": 0,
                "name": "Medicine",
                "rank": 0,
                "totalModifier": 1,
                "value": 1,
                "visible": false
            },
            "nat": {
                "ability": "wis",
                "breakdown": "Base Modifier +0, Wisdom +3, Weak -2",
                "expanded": "nature",
                "item": 0,
                "label": "Nature",
                "lore": false,
                "mod": 0,
                "name": "Nature",
                "rank": 0,
                "totalModifier": 1,
                "value": 1,
                "visible": false
            },
            "occ": {
                "ability": "int",
                "breakdown": "Base Modifier +0, Intelligence -2, Weak -2",
                "expanded": "occultism",
                "item": 0,
                "label": "Occultism",
                "lore": false,
                "mod": 0,
                "name": "Occultism",
                "rank": 0,
                "totalModifier": -4,
                "value": -4,
                "visible": false
            },
            "prf": {
                "ability": "cha",
                "breakdown": "Base Modifier +0, Charisma +4, Weak -2",
                "expanded": "performance",
                "item": 0,
                "label": "Performance",
                "lore": false,
                "mod": 0,
                "name": "Performance",
                "rank": 0,
                "totalModifier": 2,
                "value": 2,
                "visible": false
            },
            "rel": {
                "ability": "wis",
                "breakdown": "Base Modifier +0, Wisdom +3, Weak -2",
                "expanded": "religion",
                "item": 0,
                "label": "Religion",
                "lore": false,
                "mod": 0,
                "name": "Religion",
                "rank": 0,
                "totalModifier": 1,
                "value": 1,
                "visible": false
            },
            "soc": {
                "ability": "int",
                "breakdown": "Base Modifier +0, Intelligence -2, Weak -2",
                "expanded": "society",
                "item": 0,
                "label": "Society",
                "lore": false,
                "mod": 0,
                "name": "Society",
                "rank": 0,
                "totalModifier": -4,
                "value": -4,
                "visible": false
            },
            "ste": {
                "ability": "dex",
                "armor": 1,
                "base": 20,
                "breakdown": "Base Modifier +15, Dexterity +5, Weak -2",
                "expanded": "stealth",
                "item": 0,
                "itemID": "5pLdy4qjWpi4yWh8",
                "label": "Stealth",
                "lore": false,
                "mod": 0,
                "name": "Stealth",
                "rank": 1,
                "totalModifier": 18,
                "value": 18,
                "visible": true
            },
            "sur": {
                "ability": "wis",
                "breakdown": "Base Modifier +0, Wisdom +3, Weak -2",
                "expanded": "survival",
                "item": 0,
                "label": "Survival",
                "lore": false,
                "mod": 0,
                "name": "Survival",
                "rank": 0,
                "totalModifier": 1,
                "value": 1,
                "visible": false
            },
            "thi": {
                "ability": "dex",
                "armor": 1,
                "breakdown": "Base Modifier +0, Dexterity +5, Weak -2",
                "expanded": "thievery",
                "item": 0,
                "label": "Thievery",
                "lore": false,
                "mod": 0,
                "name": "Thievery",
                "rank": 0,
                "totalModifier": 3,
                "value": 3,
                "visible": false
            }
        },
        "spells": {
            "spell0": {
                "max": 0
            },
            "spell1": {
                "max": 0
            },
            "spell10": {
                "max": 0
            },
            "spell11": {
                "max": 0
            },
            "spell2": {
                "max": 0
            },
            "spell3": {
                "max": 0
            },
            "spell4": {
                "max": 0
            },
            "spell5": {
                "max": 0
            },
            "spell6": {
                "max": 0
            },
            "spell7": {
                "max": 0
            },
            "spell8": {
                "max": 0
            },
            "spell9": {
                "max": 0
            }
        },
        "statusEffects": [],
        "toggles": {
            "actions": [
                {
                    "checked": false,
                    "inputName": "flags.pf2e.rollOptions.all.target:flatFooted",
                    "label": "PF2E.TargetFlatFootedLabel"
                }
            ]
        },
        "traits": {
            "attitude": {
                "value": "hostile"
            },
            "ci": [],
            "di": {
                "custom": "",
                "value": []
            },
            "dr": [],
            "dv": [],
            "languages": {
                "custom": "can't speak any language",
                "selected": [],
                "value": [
                    "abyssal",
                    "elven",
                    "undercommon",
                    "custom"
                ]
            },
            "rarity": {
                "value": "common"
            },
            "senses": {
                "value": "darkvision"
            },
            "size": {
                "value": "lg"
            },
            "traits": {
                "custom": "",
                "value": [
                    "aberration"
                ]
            }
        }
    },
    "effects": [],
    "flags": {},
    "img": "systems/pf2e/icons/default-icons/npc.svg",
    "items": [
        {
            "_id": "gH06P6rp2bswuGya",
            "data": {
                "attack": {
                    "value": ""
                },
                "attackEffects": {
                    "value": []
                },
                "bonus": {
                    "total": 20,
                    "value": 18
                },
                "brokenThreshold": {
                    "value": 0
                },
                "bulkCapacity": {
                    "value": ""
                },
                "collapsed": {
                    "value": false
                },
                "containerId": {
                    "value": ""
                },
                "damage": {
                    "damageType": "piercing",
                    "die": "2d12+11"
                },
                "damageRolls": {
                    "0": {
                        "damage": "2d12+11",
                        "damageType": "piercing"
                    }
                },
                "description": {
                    "chat": "",
                    "unidentified": "",
                    "value": ""
                },
                "equipped": {
                    "value": false
                },
                "equippedBulk": {
                    "value": ""
                },
                "hardness": {
                    "value": 0
                },
                "hp": {
                    "value": 0
                },
                "identification": {
                    "status": "identified"
                },
                "identified": {
                    "value": false
                },
                "invested": {
                    "value": false
                },
                "maxHp": {
                    "value": 0
                },
                "negateBulk": {
                    "value": "0"
                },
                "preciousMaterial": {
                    "value": ""
                },
                "preciousMaterialGrade": {
                    "value": ""
                },
                "price": {
                    "value": 0
                },
                "property1": {
                    "critDamage": "",
                    "critDamageType": "",
                    "critDice": 0,
                    "critDie": "",
                    "damageType": "",
                    "dice": 0,
                    "die": "",
                    "value": ""
                },
                "property2": {
                    "critDamage": "",
                    "critDamageType": "",
                    "critDice": 0,
                    "critDie": "",
                    "damageType": "",
                    "dice": 0,
                    "die": "",
                    "value": ""
                },
                "property3": {
                    "critDamage": "",
                    "critDamageType": "",
                    "critDice": 0,
                    "critDie": "",
                    "damageType": "",
                    "dice": 0,
                    "die": "",
                    "value": ""
                },
                "quantity": {
                    "value": 1
                },
                "rarity": {
                    "value": "common"
                },
                "rules": [],
                "size": {
                    "value": "med"
                },
                "slug": null,
                "source": {
                    "value": ""
                },
                "stackGroup": {
                    "value": ""
                },
                "traits": {
                    "custom": "",
                    "rarity": {
                        "value": "common"
                    },
                    "value": [
                        "reach-10"
                    ]
                },
                "usage": {
                    "value": "held-in-one-hand"
                },
                "weight": {
                    "value": 0
                }
            },
            "effects": [],
            "flags": {},
            "img": "icons/svg/mystery-man.svg",
            "name": "Jaws",
            "sort": 100000,
            "type": "melee"
        },
        {
            "_id": "kJAxB9HM1zsPkPDC",
            "data": {
                "attack": {
                    "value": ""
                },
                "attackEffects": {
                    "value": [
                        "mind lash"
                    ]
                },
                "bonus": {
                    "total": 20,
                    "value": 18
                },
                "brokenThreshold": {
                    "value": 0
                },
                "bulkCapacity": {
                    "value": ""
                },
                "collapsed": {
                    "value": false
                },
                "containerId": {
                    "value": ""
                },
                "damage": {
                    "damageType": "slashing",
                    "die": "2d8+11"
                },
                "damageRolls": {
                    "0": {
                        "damage": "2d8+11",
                        "damageType": "slashing"
                    }
                },
                "description": {
                    "chat": "",
                    "unidentified": "",
                    "value": ""
                },
                "equipped": {
                    "value": false
                },
                "equippedBulk": {
                    "value": ""
                },
                "hardness": {
                    "value": 0
                },
                "hp": {
                    "value": 0
                },
                "identification": {
                    "status": "identified"
                },
                "identified": {
                    "value": false
                },
                "invested": {
                    "value": false
                },
                "maxHp": {
                    "value": 0
                },
                "negateBulk": {
                    "value": "0"
                },
                "preciousMaterial": {
                    "value": ""
                },
                "preciousMaterialGrade": {
                    "value": ""
                },
                "price": {
                    "value": 0
                },
                "property1": {
                    "critDamage": "",
                    "critDamageType": "",
                    "critDice": 0,
                    "critDie": "",
                    "damageType": "",
                    "dice": 0,
                    "die": "",
                    "value": ""
                },
                "property2": {
                    "critDamage": "",
                    "critDamageType": "",
                    "critDice": 0,
                    "critDie": "",
                    "damageType": "",
                    "dice": 0,
                    "die": "",
                    "value": ""
                },
                "property3": {
                    "critDamage": "",
                    "critDamageType": "",
                    "critDice": 0,
                    "critDie": "",
                    "damageType": "",
                    "dice": 0,
                    "die": "",
                    "value": ""
                },
                "quantity": {
                    "value": 1
                },
                "rarity": {
                    "value": "common"
                },
                "rules": [],
                "size": {
                    "value": "med"
                },
                "slug": null,
                "source": {
                    "value": ""
                },
                "stackGroup": {
                    "value": ""
                },
                "traits": {
                    "custom": "",
                    "rarity": {
                        "value": "common"
                    },
                    "value": [
                        "agile",
                        "reach-20"
                    ]
                },
                "usage": {
                    "value": "held-in-one-hand"
                },
                "weight": {
                    "value": 0
                }
            },
            "effects": [],
            "flags": {},
            "img": "icons/svg/mystery-man.svg",
            "name": "Tentacle",
            "sort": 200000,
            "type": "melee"
        },
        {
            "_id": "fAJKDhrroX62Lb0s",
            "data": {
                "actionCategory": {
                    "value": "defensive"
                },
                "actionType": {
                    "value": "passive"
                },
                "actions": {
                    "value": ""
                },
                "description": {
                    "chat": "",
                    "unidentified": "",
                    "value": "<p>[reaction]<br /><strong>Trigger</strong> A creature within the monster's reach uses a manipulate action or a move action, makes a ranged attack, or leaves a square during a move action it's using. <strong>Effect</strong> The monster attempts a melee Strike against the triggering creature. If the attack is a critical hit and the trigger was a manipulate action, the monster disrupts that action. This Strike doesn't count toward the monster's multiple attack penalty, and its multiple attack penalty doesn't apply to this Strike.</p>"
                },
                "rarity": {
                    "value": "common"
                },
                "requirements": {
                    "value": ""
                },
                "rules": [],
                "slug": null,
                "source": {
                    "value": ""
                },
                "traits": {
                    "custom": "",
                    "rarity": {
                        "value": "common"
                    },
                    "value": []
                },
                "trigger": {
                    "value": ""
                },
                "usage": {
                    "value": "held-in-one-hand"
                },
                "weapon": {
                    "value": ""
                }
            },
            "effects": [],
            "flags": {},
            "img": "icons/svg/mystery-man.svg",
            "name": "Attack of Opportunity",
            "sort": 300000,
            "type": "action"
        },
        {
            "_id": "o40ddeHAtx8cJ0uY",
            "data": {
                "actionCategory": {
                    "value": "offensive"
                },
                "actionType": {
                    "value": "passive"
                },
                "actions": {
                    "value": ""
                },
                "description": {
                    "chat": "",
                    "unidentified": "",
                    "value": "<p>A non-evil creature hit by an irnakurse's tentacle is overwhelmed with corrupted images of a ruined life and must succeed at a DC 28 Will save or be @Compendium[pf2e.conditionitems.Stunned]{Stunned} 2 (or stunned 4 on a critical failure). After attempting this save, a creature is temporarily immune to Mind Lash for 24 hours.</p>"
                },
                "rarity": {
                    "value": "common"
                },
                "requirements": {
                    "value": ""
                },
                "rules": [],
                "slug": null,
                "source": {
                    "value": ""
                },
                "traits": {
                    "custom": "",
                    "rarity": {
                        "value": "common"
                    },
                    "value": [
                        "emotion",
                        "enchantment",
                        "mental",
                        "occult"
                    ]
                },
                "trigger": {
                    "value": ""
                },
                "usage": {
                    "value": "held-in-one-hand"
                },
                "weapon": {
                    "value": ""
                }
            },
            "effects": [],
            "flags": {},
            "img": "icons/svg/mystery-man.svg",
            "name": "Mind Lash",
            "sort": 400000,
            "type": "action"
        },
        {
            "_id": "iXYfQDvrwhjEKpeu",
            "data": {
                "actionCategory": {
                    "value": "offensive"
                },
                "actionType": {
                    "value": "action"
                },
                "actions": {
                    "value": 1
                },
                "description": {
                    "chat": "",
                    "unidentified": "",
                    "value": "<p>tentacle<br />A Rend entry lists a Strike the monster has. <strong>Requirements</strong> The monster hit the same enemy with two consecutive Strikes of the listed type in the same round. <strong>Effect</strong> The monster automatically deals that Strike's damage again to the enemy.</p>"
                },
                "rarity": {
                    "value": "common"
                },
                "requirements": {
                    "value": ""
                },
                "rules": [],
                "slug": null,
                "source": {
                    "value": ""
                },
                "traits": {
                    "custom": "",
                    "rarity": {
                        "value": "common"
                    },
                    "value": []
                },
                "trigger": {
                    "value": ""
                },
                "usage": {
                    "value": "held-in-one-hand"
                },
                "weapon": {
                    "value": ""
                }
            },
            "effects": [],
            "flags": {},
            "img": "icons/svg/mystery-man.svg",
            "name": "Rend",
            "sort": 500000,
            "type": "action"
        },
        {
            "_id": "jr6lRjG0ZeZgW116",
            "data": {
                "actionCategory": {
                    "value": "offensive"
                },
                "actionType": {
                    "value": "action"
                },
                "actions": {
                    "value": 2
                },
                "description": {
                    "chat": "",
                    "unidentified": "",
                    "value": "<p><strong>Frequency</strong> once per day; <strong>Effect</strong> The irnakurse unleashes an alien shriek of nightmarish horror and pain. All non-evil creatures within a 10-foot emanation must attempt a DC 28 Will save. The irnakurse can Sustain Soul Scream for up to 6 rounds; each time it does, it repeats the effect. <br /><strong>Critical Success</strong> The creature is unaffected, and is temporarily immune to Soul Scream for 24 hours. <br /><strong>Success</strong> The creature is @Compendium[pf2e.conditionitems.Stupefied]{Stupefied} 1 for 1 round. <br /><strong>Failure</strong> The creature is stupefied 1. Further failed saves against Soul Scream increase the condition value by 1, to a maximum of stupefied 4. Each time the character gets a full night's rest, the stupefied condition gained from Soul Scream decreases by 1. <br /><strong>Critical Failure</strong> As failure, except the stupefied value increases by 2 instead of by 1.</p>"
                },
                "rarity": {
                    "value": "common"
                },
                "requirements": {
                    "value": ""
                },
                "rules": [],
                "slug": null,
                "source": {
                    "value": ""
                },
                "traits": {
                    "custom": "",
                    "rarity": {
                        "value": "common"
                    },
                    "value": [
                        "auditory",
                        "concentrate",
                        "emotion",
                        "enchantment",
                        "mental",
                        "occult"
                    ]
                },
                "trigger": {
                    "value": ""
                },
                "usage": {
                    "value": "held-in-one-hand"
                },
                "weapon": {
                    "value": ""
                }
            },
            "effects": [],
            "flags": {},
            "img": "icons/svg/mystery-man.svg",
            "name": "Soul Scream",
            "sort": 600000,
            "type": "action"
        },
        {
            "_id": "ml69ZMPwkVsbCTC7",
            "data": {
                "actionCategory": {
                    "value": "offensive"
                },
                "actionType": {
                    "value": "action"
                },
                "actions": {
                    "value": 2
                },
                "description": {
                    "chat": "",
                    "unidentified": "",
                    "value": "<p>The irnakurse makes up to four tentacle Strikes, each against a different target. These attacks count toward the irnakurse's multiple attack penalty, but the multiple attack penalty doesn't increase until after it makes all of its attacks.</p>"
                },
                "rarity": {
                    "value": "common"
                },
                "requirements": {
                    "value": ""
                },
                "rules": [],
                "slug": null,
                "source": {
                    "value": ""
                },
                "traits": {
                    "custom": "",
                    "rarity": {
                        "value": "common"
                    },
                    "value": []
                },
                "trigger": {
                    "value": ""
                },
                "usage": {
                    "value": "held-in-one-hand"
                },
                "weapon": {
                    "value": ""
                }
            },
            "effects": [],
            "flags": {},
            "img": "icons/svg/mystery-man.svg",
            "name": "Storm of Tentacles",
            "sort": 700000,
            "type": "action"
        },
        {
            "_id": "SVAyaWNQdLEB8T8O",
            "data": {
                "description": {
                    "chat": "",
                    "unidentified": "",
                    "value": ""
                },
                "item": {
                    "value": 0
                },
                "mod": {
                    "value": 18
                },
                "proficient": {
                    "value": 0
                },
                "rarity": {
                    "value": "common"
                },
                "rules": [],
                "slug": null,
                "source": {
                    "value": ""
                },
                "traits": {
                    "custom": "",
                    "rarity": {
                        "value": "common"
                    },
                    "value": []
                },
                "usage": {
                    "value": "held-in-one-hand"
                }
            },
            "effects": [],
            "flags": {},
            "img": "icons/svg/mystery-man.svg",
            "name": "Acrobatics",
            "sort": 800000,
            "type": "lore"
        },
        {
            "_id": "SKVDodNz8cPMHoc8",
            "data": {
                "description": {
                    "chat": "",
                    "unidentified": "",
                    "value": ""
                },
                "item": {
                    "value": 0
                },
                "mod": {
                    "value": 18
                },
                "proficient": {
                    "value": 0
                },
                "rarity": {
                    "value": "common"
                },
                "rules": [],
                "slug": null,
                "source": {
                    "value": ""
                },
                "traits": {
                    "custom": "",
                    "rarity": {
                        "value": "common"
                    },
                    "value": []
                },
                "usage": {
                    "value": "held-in-one-hand"
                }
            },
            "effects": [],
            "flags": {},
            "img": "icons/svg/mystery-man.svg",
            "name": "Athletics",
            "sort": 900000,
            "type": "lore"
        },
        {
            "_id": "5pLdy4qjWpi4yWh8",
            "data": {
                "description": {
                    "chat": "",
                    "unidentified": "",
                    "value": ""
                },
                "item": {
                    "value": 0
                },
                "mod": {
                    "value": 18
                },
                "proficient": {
                    "value": 0
                },
                "rarity": {
                    "value": "common"
                },
                "rules": [],
                "slug": null,
                "source": {
                    "value": ""
                },
                "traits": {
                    "custom": "",
                    "rarity": {
                        "value": "common"
                    },
                    "value": []
                },
                "usage": {
                    "value": "held-in-one-hand"
                }
            },
            "effects": [],
            "flags": {},
            "img": "icons/svg/mystery-man.svg",
            "name": "Stealth",
            "sort": 1000000,
            "type": "lore"
        },
        {
            "_id": "8VEmyLzY1O8sVo9w",
            "data": {
                "actionCategory": {
                    "value": ""
                },
                "actionType": {
                    "value": "passive"
                },
                "actions": {
                    "value": ""
                },
                "description": {
                    "value": "<p>The irnakurse is permanently frightened 2, which lowers its effective level by 1.</p>"
                },
                "rarity": {
                    "value": "common"
                },
                "requirements": {
                    "value": ""
                },
                "rules": [],
                "slug": null,
                "source": {
                    "value": ""
                },
                "traits": {
                    "custom": "",
                    "rarity": {
                        "value": "common"
                    },
                    "value": []
                },
                "trigger": {
                    "value": ""
                },
                "weapon": {
                    "value": ""
                }
            },
            "effects": [],
            "flags": {},
            "img": "icons/svg/mystery-man.svg",
            "name": "Fearful Curse",
            "sort": 1100000,
            "type": "action"
        }
    ],
    "name": "Afflicted Irnakurse",
    "permission": {
        "default": 0
    },
    "token": {
        "actorId": "3d3NAcPfvn07mcGN",
        "actorLink": false,
        "bar1": {
            "attribute": "attributes.hp"
        },
        "bar2": {},
        "brightLight": 0,
        "brightSight": 0,
        "dimLight": 0,
        "dimSight": 0,
        "displayBars": 20,
        "displayName": 20,
        "disposition": -1,
        "flags": {},
        "height": 2,
        "img": "systems/pf2e/icons/default-icons/npc.svg",
        "lightAlpha": 1,
        "lightAngle": 360,
        "lightAnimation": {
            "intensity": 5,
            "speed": 5
        },
        "lockRotation": false,
        "name": "Afflicted Irnakurse",
        "randomImg": false,
        "rotation": 0,
        "scale": 1,
        "sightAngle": 360,
        "tint": null,
        "vision": false,
        "width": 2
    },
    "type": "npc"
}
