{
    "_id": "6NijRSpkIuQpSxUp",
    "data": {
        "attributes": {
            "ac": {
                "value": 16
            },
            "hardness": 3,
            "hasHealth": true,
            "hp": {
                "details": "",
                "max": 16,
                "temp": 0,
                "tempmax": 0,
                "value": 16
            },
            "stealth": {
                "details": "<p>DC 19</p>",
                "value": 9
            }
        },
        "creatureType": "",
        "details": {
            "description": "<p>A jagged spike of metal shoots from a hidden launcher.</p>",
            "disable": "<p>DC 16 Thievery to disable one of the four launchers or DC 12 Acrobatics to step over a trip line (this doesn't disarm the trap, but avoids triggering it)</p>",
            "isComplex": false,
            "level": 0,
            "reset": "",
            "routine": ""
        },
        "flavourText": "",
        "nethysUrl": "",
        "recallKnowledgeText": "",
        "saves": {
            "fortitude": {
                "rank": 0,
                "saveDetail": "",
                "value": 9
            },
            "reflex": {
                "rank": 0,
                "saveDetail": "",
                "value": 3
            },
            "will": {
                "rank": 0,
                "saveDetail": "",
                "value": null
            }
        },
        "schema": {
            "version": {
                "value": ""
            }
        },
        "sidebarText": "",
        "source": {
            "value": ""
        },
        "statusEffects": [],
        "traits": {
            "ci": [],
            "di": {
                "custom": "",
                "selected": {},
                "value": [
                    "critical-hits",
                    "object-immunities",
                    "precision-damage"
                ]
            },
            "dr": [],
            "dv": [],
            "traits": {
                "custom": "",
                "value": [
                    "mechanical"
                ]
            }
        }
    },
    "effects": [],
    "flags": {},
    "img": "systems/pf2e/icons/default-icons/hazard.svg",
    "items": [
        {
            "_id": "gZDMpjUjAgRTjrcL",
            "data": {
                "attack": {
                    "value": ""
                },
                "attackEffects": {
                    "value": []
                },
                "bonus": {
                    "value": "11"
                },
                "brokenThreshold": {
                    "value": 0
                },
                "bulkCapacity": {
                    "value": ""
                },
                "collapsed": {
                    "value": false
                },
                "containerId": {
                    "value": ""
                },
                "damageRolls": {
                    "ertmrnxysgdmkf7t5oymu": {
                        "damage": "2d6+3",
                        "damageType": "piercing"
                    }
                },
                "description": {
                    "value": ""
                },
                "equipped": {
                    "value": false
                },
                "equippedBulk": {
                    "value": ""
                },
                "hardness": {
                    "value": 0
                },
                "hp": {
                    "value": 0
                },
                "identification": {
                    "status": "identified"
                },
                "identified": {
                    "value": true
                },
                "invested": {
                    "value": false
                },
                "maxHp": {
                    "value": 0
                },
                "negateBulk": {
                    "value": "0"
                },
                "preciousMaterial": {
                    "value": ""
                },
                "preciousMaterialGrade": {
                    "value": ""
                },
                "price": {
                    "value": 0
                },
                "quantity": {
                    "value": 1
                },
                "rarity": {
                    "value": "common"
                },
                "rules": [],
                "size": {
                    "value": "med"
                },
                "slug": null,
                "source": {
                    "value": ""
                },
                "stackGroup": {
                    "value": ""
                },
                "traits": {
                    "custom": "",
                    "rarity": {
                        "value": "common"
                    },
                    "value": [
                        "range-increment-20"
                    ]
                },
                "weaponType": {
                    "value": "ranged"
                },
                "weight": {
                    "value": 0
                }
            },
            "effects": [],
            "flags": {},
            "img": "icons/svg/mystery-man.svg",
            "name": "Spike",
            "sort": 100000,
            "type": "melee"
        },
        {
            "_id": "BFiMEADLB2Qw0lL1",
            "data": {
                "actionCategory": {
                    "value": ""
                },
                "actionType": {
                    "value": "reaction"
                },
                "actions": {
                    "value": ""
                },
                "description": {
                    "value": "<p><strong>Trigger</strong> A creature crosses one of the trip lines;</p>\n<p><strong>Effect</strong> A spike launches along the trip line's path against the triggering creature, making a ranged Strike.</p>"
                },
                "rarity": {
                    "value": "common"
                },
                "requirements": {
                    "value": ""
                },
                "rules": [],
                "slug": null,
                "source": {
                    "value": ""
                },
                "traits": {
                    "custom": "",
                    "rarity": {
                        "value": "common"
                    },
                    "value": []
                },
                "trigger": {
                    "value": ""
                },
                "weapon": {
                    "value": ""
                }
            },
            "effects": [],
            "flags": {},
            "img": "systems/pf2e/icons/actions/Reaction.png",
            "name": "Spike",
            "sort": 200000,
            "type": "action"
        }
    ],
    "name": "Spike Launcher",
    "permission": {
        "default": 0
    },
    "token": {
        "actorId": "6NijRSpkIuQpSxUp",
        "actorLink": false,
        "bar1": {
            "attribute": "attributes.hp"
        },
        "bar2": {},
        "brightLight": 0,
        "brightSight": 0,
        "dimLight": 0,
        "dimSight": 0,
        "displayBars": 20,
        "displayName": 20,
        "disposition": 0,
        "flags": {},
        "height": 1,
        "img": "systems/pf2e/icons/default-icons/hazard.svg",
        "lightAlpha": 1,
        "lightAngle": 360,
        "lightAnimation": {
            "intensity": 5,
            "speed": 5
        },
        "lockRotation": false,
        "name": "Spike Launcher",
        "randomImg": false,
        "rotation": 0,
        "scale": 1,
        "sightAngle": 360,
        "tint": null,
        "vision": false,
        "width": 1
    },
    "type": "hazard"
}
