{
    "_id": "dCuvfq3r2K9wXY9g",
    "data": {
        "actionCategory": {
            "value": "offensive"
        },
        "actionType": {
            "value": "action"
        },
        "actions": {
            "value": "1"
        },
        "description": {
            "chat": "",
            "unidentified": "",
            "value": "<p>You make a graceful, deadly attack. Make a @Compendium[pf2e.actionspf2e.Strike]{Strike}; if you hit and your weapon qualifies for @Compendium[pf2e.classfeatures.Precise Strike]{Precise Strike}, you deal the full <a class=\"inline-roll roll\" title=\"1d6\" data-mode=\"roll\" data-flavor=\"\" data-formula=\"1d6\"> 1d6</a> damage from precise strike.</p>"
        },
        "rarity": {
            "value": "common"
        },
        "requirements": {
            "value": ""
        },
        "rules": [],
        "source": {
            "value": ""
        },
        "traits": {
            "custom": "finisher",
            "rarity": {
                "value": "common"
            },
            "value": [
                "swashbuckler",
                "custom"
            ]
        },
        "trigger": {
            "value": ""
        },
        "weapon": {
            "value": ""
        }
    },
    "effects": [],
    "flags": {},
    "img": "systems/pf2e/icons/actions/OneAction.png",
    "name": "Basic Finisher",
    "permission": {
        "default": 0
    },
    "type": "action"
}
