{
    "_id": "3f5DMFu8fPiqHpRg",
    "data": {
        "actionCategory": {
            "value": ""
        },
        "actionType": {
            "label": "Action Type",
            "type": "String",
            "value": "action"
        },
        "actions": {
            "label": "Number of Actions",
            "type": "String",
            "value": "1"
        },
        "description": {
            "chat": "",
            "label": "Description",
            "type": "String",
            "unidentified": "",
            "value": "<p><strong>Requirements</strong> You have at least one spell active with a sustained duration, and you are not @Compendium[pf2e.conditionitems.Fatigued]{Fatigued}</p>\n<hr />\n<p>Choose one spell with a sustained duration you have in effect. The duration of that spell continues until the end of your next turn. Some spells might have slightly different or expanded effects if you sustain them. Sustaining a Spell for more than 10 minutes (100 rounds) ends the spell and makes you fatigued unless the spell lists a different maximum duration (such as \"sustained up to 1 minute\" or \"sustained up to 1 hour\").<br /><br />If your Sustain a Spell action is disrupted, the spell immediately ends.</p>"
        },
        "rarity": {
            "value": "common"
        },
        "requirements": {
            "label": "Requirements",
            "type": "String",
            "value": ""
        },
        "rules": [],
        "source": {
            "label": "Source",
            "type": "String",
            "value": ""
        },
        "traits": {
            "custom": "",
            "label": "Traits",
            "rarity": {
                "value": "common"
            },
            "type": "String",
            "value": [
                "concentrate"
            ]
        },
        "trigger": {
            "label": "Trigger",
            "type": "String",
            "value": ""
        },
        "weapon": {
            "label": "Associated Weapon",
            "type": "String",
            "value": ""
        }
    },
    "effects": [],
    "flags": {},
    "img": "systems/pf2e/icons/actions/OneAction.png",
    "name": "Sustain a Spell",
    "permission": {
        "default": 0
    },
    "type": "action"
}
