{
    "_id": "PeiuJ951kkBPTCSM",
    "data": {
        "description": {
            "chat": "",
            "unidentified": "",
            "value": "<p>Granted by @Compendium[pf2e.equipment-srd.Bracers of Missile Deflection]{Bracers of Missile Deflection}</p>\n<p>Automatically applied effects:</p>\n<ul>\n<li>+2 circumstance bonus to AC</li>\n</ul>\n<p>&nbsp;</p>"
        },
        "duration": {
            "expiry": "turn-start",
            "sustained": false,
            "unit": "rounds",
            "value": 0
        },
        "level": {
            "value": 3
        },
        "rarity": {
            "value": "common"
        },
        "rules": [
            {
                "key": "PF2E.RuleElement.FlatModifier",
                "selector": "ac",
                "type": "circumstance",
                "value": 2
            },
            {
                "key": "PF2E.RuleElement.TokenEffectIcon"
            }
        ],
        "source": {
            "value": ""
        },
        "start": {
            "initiative": null,
            "value": 0
        },
        "traits": {
            "custom": "",
            "rarity": {
                "value": "common"
            },
            "value": []
        }
    },
    "effects": [],
    "flags": {},
    "img": "systems/pf2e/icons/equipment/worn-items/other-worn-items/bracers-of-missile-deflection.jpg",
    "name": "Effect: Bracers of Missile Deflection",
    "permission": {
        "default": 0
    },
    "type": "effect"
}
