{
    "_id": "C16JgmeJJG249WXz",
    "data": {
        "description": {
            "chat": "",
            "unidentified": "",
            "value": "<p>When in mask form, your familiar can hide its obvious supernatural qualities to pass as a simple, unassuming mask. It doesn’t need to Impersonate to fool a passing glance, and it gains a +4 circumstance bonus to its Deception DC against an active observer Seeking or otherwise studying it.</p>"
        },
        "duration": {
            "expiry": "turn-start",
            "sustained": false,
            "unit": "rounds",
            "value": 0
        },
        "level": {
            "value": 1
        },
        "rarity": {
            "value": "common"
        },
        "rules": [],
        "source": {
            "value": ""
        },
        "start": {
            "initiative": null,
            "value": 0
        },
        "target": null,
        "traits": {
            "custom": "",
            "rarity": {
                "value": "common"
            },
            "value": []
        }
    },
    "effects": [],
    "flags": {},
    "img": "icons/svg/mystery-man.svg",
    "name": "Mask Freeze",
    "permission": {
        "default": 0
    },
    "type": "effect"
}
