{
    "_id": "43xB5UnexISlfRa5",
    "data": {
        "description": {
            "chat": "",
            "unidentified": "",
            "value": "<p>Prequisites @Compendium[pf2e.feats-srd.Leshy Familiar Secrets]{Leshy Familiar Secrets}</p>\n<p>Your familiar recycles air, providing enough oxygen for a Medium creature in areas with stale air, such as a sealed chamber or extradimensional space. If the leshy is within the area of an inhaled poison effect or an effect that relies on smell, creatures within a 15-foot emanation from the leshy gain a +2 circumstance bonus to their saving throws against the effect.</p>"
        },
        "duration": {
            "expiry": "turn-start",
            "sustained": false,
            "unit": "unlimited",
            "value": -1
        },
        "level": {
            "value": 4
        },
        "rarity": {
            "value": "common"
        },
        "rules": [],
        "source": {
            "value": ""
        },
        "start": {
            "initiative": null,
            "value": 0
        },
        "target": null,
        "traits": {
            "custom": "",
            "rarity": {
                "value": "common"
            },
            "value": []
        }
    },
    "effects": [],
    "flags": {},
    "img": "icons/svg/mystery-man.svg",
    "name": "Purify Air",
    "permission": {
        "default": 0
    },
    "type": "effect"
}
