{
    "_id": "FcQQLMAJMgOLjnSv",
    "data": {
        "description": {
            "chat": "",
            "unidentified": "",
            "value": "<p>Choose two of the following: acid, cold, electricity, fire, poison, or sonic. Your familiar gains resistance equal to half your level against the chosen damage types.</p>"
        },
        "level": {
            "value": 1
        },
        "rarity": {
            "value": "common"
        },
        "rules": [],
        "source": {
            "value": ""
        },
        "traits": {
            "custom": "",
            "rarity": {
                "value": "common"
            },
            "value": []
        }
    },
    "effects": [],
    "flags": {},
    "img": "icons/svg/mystery-man.svg",
    "name": "Resistance",
    "permission": {
        "default": 0
    },
    "type": "effect"
}
