{
    "_id": "FlRUb8U13Crj3NaA",
    "data": {
        "description": {
            "chat": "",
            "unidentified": "",
            "value": "<p>It gains scent (imprecise, 30 feet).</p>"
        },
        "level": {
            "value": 1
        },
        "rarity": {
            "value": "common"
        },
        "rules": [
            {
                "acuity": "imprecise",
                "key": "PF2E.RuleElement.Sense",
                "label": "PF2E.SensesScent",
                "range": 30,
                "selector": "scent"
            }
        ],
        "source": {
            "value": ""
        },
        "traits": {
            "custom": "",
            "rarity": {
                "value": "common"
            },
            "value": []
        }
    },
    "effects": [],
    "flags": {},
    "img": "icons/svg/mystery-man.svg",
    "name": "Scent",
    "permission": {
        "default": 0
    },
    "type": "effect"
}
