{
    "_id": "jevzf9JbJJibpqaI",
    "data": {
        "description": {
            "chat": "",
            "unidentified": "",
            "value": "<p>Choose a skill other than Acrobatics or Stealth. Your familiar's modifier for that skill is equal to your level plus your key spellcasting ability modifier, rather than just your level. You can select this ability repeatedly, choosing a different skill each time.</p>"
        },
        "level": {
            "value": 1
        },
        "rarity": {
            "value": "common"
        },
        "rules": [],
        "source": {
            "value": ""
        },
        "traits": {
            "custom": "",
            "rarity": {
                "value": "common"
            },
            "value": []
        }
    },
    "effects": [],
    "flags": {},
    "img": "icons/svg/mystery-man.svg",
    "name": "Skilled",
    "permission": {
        "default": 0
    },
    "type": "effect"
}
