{
    "_id": "kwOtHtmlH69ctK0O",
    "data": {
        "description": {
            "chat": "",
            "unidentified": "",
            "value": "<p>Granted by @Compendium[pf2e.equipment-srd.Sun Orchid Poultice]{Sun Orchid Poultice}</p>\n<hr />\n<p>Automatically applied effects:</p>\n<ul>\n<li>+3 item bonus to saves</li>\n<li>Gain 20 temporary Hit Points</li>\n</ul>\n<p>&nbsp;</p>"
        },
        "duration": {
            "expiry": "turn-start",
            "sustained": false,
            "unit": "hours",
            "value": 1
        },
        "level": {
            "value": 18
        },
        "rarity": {
            "value": "common"
        },
        "rules": [
            {
                "key": "PF2E.RuleElement.TempHP",
                "value": 20
            },
            {
                "key": "PF2E.RuleElement.FlatModifier",
                "selector": "saving-throw",
                "type": "item",
                "value": 3
            },
            {
                "key": "PF2E.RuleElement.TokenEffectIcon"
            }
        ],
        "source": {
            "value": ""
        },
        "start": {
            "initiative": null,
            "value": 0
        },
        "traits": {
            "custom": "",
            "rarity": {
                "value": "common"
            },
            "value": []
        }
    },
    "effects": [],
    "flags": {},
    "img": "systems/pf2e/icons/equipment/alchemical-items/alchemical-tools/sun-orchid-poultice.jpg",
    "name": "Effect: Sun Orchid Poultice",
    "permission": {
        "default": 0
    },
    "type": "effect"
}
