{
    "_id": "4tepFOJLhZSelPoa",
    "data": {
        "description": {
            "chat": "",
            "unidentified": "",
            "value": "<p>Granted by @Compendium[pf2e.equipment-srd.Dragon Turtle Scale]{Dragon Turtle Scale}</p>\n<hr />\n<p>Automatically applied effects:</p>\n<ul>\n<li>Gain a swim speed equal to half your land speed</li>\n</ul>"
        },
        "duration": {
            "expiry": "turn-start",
            "sustained": false,
            "unit": "minutes",
            "value": 1
        },
        "level": {
            "value": 4
        },
        "rarity": {
            "value": "common"
        },
        "rules": [
            {
                "key": "PF2E.RuleElement.BaseSpeed",
                "selector": "swim",
                "value": "@attributes.speed.value*0.5"
            },
            {
                "key": "PF2E.RuleElement.TokenEffectIcon"
            }
        ],
        "source": {
            "value": ""
        },
        "start": {
            "initiative": null,
            "value": 0
        },
        "traits": {
            "custom": "",
            "rarity": {
                "value": "common"
            },
            "value": []
        }
    },
    "effects": [],
    "flags": {},
    "img": "systems/pf2e/icons/equipment/consumables/talismans/dragon-turtle-scale.jpg",
    "name": "Effect: Dragon Turtle Scale",
    "permission": {
        "default": 0
    },
    "type": "effect"
}
