{
    "_id": "BASCKOPvNGgoHGid",
    "data": {
        "actionCategory": {
            "value": ""
        },
        "actionType": {
            "value": "passive"
        },
        "actions": {
            "value": ""
        },
        "description": {
            "chat": "",
            "unidentified": "",
            "value": "<p>You sense if a creature you have slain in the last year has been restored to life, as long as you and that creature are on the same plane. You also gain the @Compendium[pf2e.spells-srd.Achaekek's Clutch]{Achaekek's Clutch} focus spell. If you don't already have one, you gain a focus pool of 1 Focus Point, which you can Refocus by praying to Achaekek or researching your assigned kill.</p>"
        },
        "featType": {
            "value": "archetype"
        },
        "level": {
            "value": "8"
        },
        "prerequisites": {
            "value": [
                "Basic Red Mantis Magic"
            ]
        },
        "rarity": {
            "value": "common"
        },
        "rules": [],
        "source": {
            "value": ""
        },
        "traits": {
            "custom": "",
            "rarity": {
                "value": "rare"
            },
            "selected": {
                "archetype": "Archetype"
            },
            "value": [
                "archetype"
            ]
        }
    },
    "effects": [],
    "flags": {},
    "img": "systems/pf2e/icons/features/feats/feats.jpg",
    "name": "Achaekek's Grip",
    "permission": {
        "default": 0
    },
    "type": "feat"
}
