{
    "_id": "gJDTS7eeIxZws5Lr",
    "data": {
        "actionCategory": {
            "value": ""
        },
        "actionType": {
            "value": "passive"
        },
        "actions": {
            "value": ""
        },
        "description": {
            "chat": "",
            "unidentified": "",
            "value": "<p>You descend from the rare psychic vampires known as vetalaranas. Your forebear gained sustenance from the mental and emotional energy of living creatures, which manifests in you as powerful resistance to such effects. You gain a +1 circumstance bonus to Will saves against effects with the emotion trait, and when you roll a success on a saving throw against such an effect, you get a critical success instead.</p>"
        },
        "featType": {
            "value": "ancestry"
        },
        "level": {
            "value": 1
        },
        "location": "",
        "prerequisites": [],
        "rarity": {
            "value": "common"
        },
        "rules": [],
        "source": {
            "value": ""
        },
        "traits": {
            "custom": "",
            "rarity": {
                "value": "common"
            },
            "value": [
                "dhampir",
                "lineage"
            ]
        },
        "usage": {
            "value": ""
        }
    },
    "effects": [],
    "flags": {},
    "img": "systems/pf2e/icons/features/feats/feats.jpg",
    "name": "Adhyabhau",
    "permission": {
        "default": 0
    },
    "type": "feat"
}
