{
    "_id": "ThqMksZRxNB18ivs",
    "data": {
        "actionCategory": {
            "value": ""
        },
        "actionType": {
            "value": "passive"
        },
        "actions": {
            "value": ""
        },
        "description": {
            "chat": "",
            "unidentified": "",
            "value": "<p>Your ocular processors are augmented with advanced targeting systems, which allow you to more easily pinpoint your enemy and read their movements. You can cast @Compendium[pf2e.spells-srd.True Strike]{True Strike}&nbsp;once per day as a 1st-level arcane innate spell.</p>"
        },
        "featType": {
            "value": "ancestry"
        },
        "level": {
            "value": 5
        },
        "location": "",
        "prerequisites": [],
        "rarity": {
            "value": "common"
        },
        "rules": [],
        "source": {
            "value": ""
        },
        "traits": {
            "custom": "",
            "rarity": {
                "value": "common"
            },
            "value": [
                "android"
            ]
        },
        "usage": {
            "value": ""
        }
    },
    "effects": [],
    "flags": {},
    "img": "systems/pf2e/icons/features/feats/feats.jpg",
    "name": "Advanced Targeting System",
    "permission": {
        "default": 0
    },
    "type": "feat"
}
