{
    "_id": "0FNLI8APwj9NsBDa",
    "data": {
        "actionCategory": {
            "value": ""
        },
        "actionType": {
            "value": "passive"
        },
        "actions": {
            "value": ""
        },
        "description": {
            "chat": "",
            "unidentified": "",
            "value": "<p>You've devoted extra time in the lab to improve your knowledge of alchemy. You learn the formulas for two alchemical items each time you level up instead of one; these must still be elixirs or tools.</p>\n<p>The number of versatile vials you can create each day increases by 1 if you're an expert in Crafting, 2 if you're a master, or 3 if you're legendary.</p>"
        },
        "featType": {
            "value": "class"
        },
        "level": {
            "value": "4"
        },
        "prerequisites": {
            "value": [
                "alchemical sciences methodology"
            ]
        },
        "rarity": {
            "value": "common"
        },
        "rules": [],
        "source": {
            "value": ""
        },
        "traits": {
            "custom": "",
            "rarity": {
                "value": "common"
            },
            "value": [
                "investigator"
            ]
        }
    },
    "effects": [],
    "flags": {},
    "img": "systems/pf2e/icons/features/feats/feats.jpg",
    "name": "Alchemical Discoveries",
    "permission": {
        "default": 0
    },
    "type": "feat"
}
