{
    "_id": "8RppI1i4LfI0CYsX",
    "data": {
        "actionCategory": {
            "value": ""
        },
        "actionType": {
            "value": "passive"
        },
        "actions": {
            "value": ""
        },
        "description": {
            "chat": "",
            "unidentified": "",
            "value": "<p><strong>Requirements</strong> You are benefiting from Aldori Parry.<br /><strong>Trigger</strong> An opponent within your reach critically fails a Strike against you.<br /></p>\n<hr />\n<p>You riposte with your @Compendium[pf2e.equipment-srd.Aldori Dueling Sword]{Aldori Dueling Sword} when your enemy leaves an opening. Make a melee Strike or use a @Compendium[pf2e.actionspf2e.Disarm]{Disarm} action against the triggering opponent using your Aldori dueling sword.</p>"
        },
        "featType": {
            "value": "archetype"
        },
        "level": {
            "value": "6"
        },
        "prerequisites": {
            "value": [
                "Aldori Parry"
            ]
        },
        "rarity": {
            "value": "common"
        },
        "rules": [],
        "source": {
            "value": ""
        },
        "traits": {
            "custom": "",
            "rarity": {
                "value": "common"
            },
            "value": [
                "archetype"
            ]
        }
    },
    "effects": [],
    "flags": {},
    "img": "systems/pf2e/icons/features/feats/feats.jpg",
    "name": "Aldori Riposte",
    "permission": {
        "default": 0
    },
    "type": "feat"
}
