{
    "_id": "OpSHTPkoZDrqR0Mq",
    "data": {
        "actionCategory": {
            "value": ""
        },
        "actionType": {
            "value": "passive"
        },
        "actions": {
            "value": ""
        },
        "description": {
            "chat": "",
            "unidentified": "",
            "value": "<p>You have full control over your shape and can transform into your inherent animal. You can use Change Shape to enter an animal shape. When you gain this feat, choose either @Compendium[pf2e.spells-srd.Aerial Form]{Aerial Form}, @Compendium[pf2e.spells-srd.Animal Form]{Animal Form}, or @Compendium[pf2e.spells-srd.Dinosaur Form]{Dinosaur Form}; after you choose a form, you can’t change the form. While in animal shape, you gain the effects of a 5th-level casting of your chosen form spell, except you always transform into an animal matching your inherent animal and can use your humanoid form’s AC if it’s higher than what the animal form grants. If your inherent animal isn’t among the animals listed in the form, you default to the statistics and abilities of the bird battle form, cat battle form, or deinonychus battle form for <em>aerial form</em>, <em>animal form</em>, and <em>dinosaur form</em>, respectively (at the GM’s discretion, you instead default to a different form that is closest to your inherent animal). You can remain in animal shape indefinitely and can use Change Shape to return to your humanoid or hybrid shape at any time.<br />If you have the Critter Shape feat, you can choose to gain the effects of a 4th-level @Compendium[pf2e.spells-srd.Pest Form]{Pest Form}, can remain in critter shape indefinitely, and can return to your critter shape at any time after leaving the shape, just as you can with Animal Shape.</p>"
        },
        "featType": {
            "value": "ancestry"
        },
        "level": {
            "value": 17
        },
        "location": "",
        "prerequisites": [],
        "rarity": {
            "value": "common"
        },
        "rules": [],
        "source": {
            "value": ""
        },
        "traits": {
            "custom": "",
            "rarity": {
                "value": "common"
            },
            "value": [
                "beastkin"
            ]
        },
        "usage": {
            "value": ""
        }
    },
    "effects": [],
    "flags": {},
    "img": "systems/pf2e/icons/features/feats/feats.jpg",
    "name": "Animal Shape",
    "permission": {
        "default": 0
    },
    "type": "feat"
}
