{
    "_id": "nDNmqez9McmrjBAV",
    "data": {
        "actionCategory": {
            "value": ""
        },
        "actionType": {
            "value": "passive"
        },
        "actions": {
            "value": ""
        },
        "description": {
            "chat": "",
            "unidentified": "",
            "value": "<p>You become attuned to the stone around you. When in contact with a stone surface, you gain tremorsense (imprecise) 5 feet along that surface, and you can activate your <em>ka stone</em> to cast @Compendium[pf2e.spells-srd.Meld into Stone]{Meld into Stone}.</p>"
        },
        "featType": {
            "value": "archetype"
        },
        "level": {
            "value": "10"
        },
        "prerequisites": {
            "value": [
                "Ka Stone Ritual"
            ]
        },
        "rarity": {
            "value": "common"
        },
        "rules": [],
        "source": {
            "value": ""
        },
        "traits": {
            "custom": "",
            "rarity": {
                "value": "common"
            },
            "value": [
                "archetype"
            ]
        }
    },
    "effects": [],
    "flags": {},
    "img": "systems/pf2e/icons/features/feats/feats.jpg",
    "name": "Attunement to Stone",
    "permission": {
        "default": 0
    },
    "type": "feat"
}
