{
    "_id": "AvfswILmh3BwNbyR",
    "data": {
        "actionCategory": {
            "value": ""
        },
        "actionType": {
            "value": "passive"
        },
        "actions": {
            "value": ""
        },
        "description": {
            "chat": "",
            "unidentified": "",
            "value": "<p>You gain the basic spellcasting benefits. Each time you gain a spell slot of a new level from the sorcerer archetype, add a spell of the appropriate spell level to your repertoire: a common spell of your bloodline's tradition, one of your bloodline's granted spells, or another spell you have learned or discovered.</p>"
        },
        "featType": {
            "value": "archetype"
        },
        "level": {
            "value": 4
        },
        "prerequisites": [
            "Sorcerer Dedication"
        ],
        "rarity": {
            "value": "common"
        },
        "rules": [],
        "source": {
            "value": ""
        },
        "traits": {
            "custom": "",
            "rarity": {
                "value": "common"
            },
            "value": [
                "archetype"
            ]
        }
    },
    "effects": [],
    "flags": {},
    "img": "systems/pf2e/icons/features/feats/feats.jpg",
    "name": "Basic Sorcerer Spellcasting",
    "permission": {
        "default": 0
    },
    "type": "feat"
}
