{
    "_id": "NSyzjkDdQU2A75mX",
    "data": {
        "actionCategory": {
            "value": ""
        },
        "actionType": {
            "value": "passive"
        },
        "actions": {
            "value": ""
        },
        "description": {
            "chat": "",
            "unidentified": "",
            "value": "<p>You gain the basic spellcasting benefits (page 219). Each time you gain a spell slot of a new level from the bard archetype, add a common occult spell or another spell you learned or discovered to your repertoire, of the appropriate spell level.</p>"
        },
        "featType": {
            "value": "archetype"
        },
        "level": {
            "value": 4
        },
        "prerequisites": [
            "Bard Dedication"
        ],
        "rarity": {
            "value": "common"
        },
        "rules": [],
        "source": {
            "value": ""
        },
        "traits": {
            "custom": "",
            "rarity": {
                "value": "common"
            },
            "value": [
                "archetype"
            ]
        }
    },
    "effects": [],
    "flags": {},
    "img": "systems/pf2e/icons/features/feats/feats.jpg",
    "name": "Basic Bard Spellcasting",
    "permission": {
        "default": 0
    },
    "type": "feat"
}
