{
    "_id": "XuL3g2ExgadFtWbb",
    "data": {
        "actionCategory": {
            "value": ""
        },
        "actionType": {
            "value": "passive"
        },
        "actions": {
            "value": ""
        },
        "description": {
            "chat": "",
            "unidentified": "",
            "value": "<p>You encase yourself in spiritual dinosaur bones to become a Huge dinosaur. You can cast @Compendium[pf2e.spells-srd.Dinosaur Form]{Dinosaur Form}&nbsp;on yourself as a 5th-level primal innate spell once per day.</p>"
        },
        "featType": {
            "value": "ancestry"
        },
        "level": {
            "value": 13
        },
        "location": "",
        "prerequisites": [],
        "rarity": {
            "value": "common"
        },
        "rules": [],
        "source": {
            "value": ""
        },
        "traits": {
            "custom": "",
            "rarity": {
                "value": "common"
            },
            "value": [
                "lizardfolk"
            ]
        },
        "usage": {
            "value": ""
        }
    },
    "effects": [],
    "flags": {},
    "img": "systems/pf2e/icons/features/feats/feats.jpg",
    "name": "Bone Investiture",
    "permission": {
        "default": 0
    },
    "type": "feat"
}
