{
    "_id": "Sr75bQtqmCM6dyAM",
    "data": {
        "actionCategory": {
            "value": ""
        },
        "actionType": {
            "value": "passive"
        },
        "actions": {
            "value": ""
        },
        "description": {
            "chat": "",
            "unidentified": "",
            "value": "<p>You can use a powerful breath weapon, much like the dragon you emulate. You gain the @Compendium[pf2e.spells-srd.Dragon Breath]{Dragon Breath} sorcerer bloodline spell and a focus pool of 1 Focus Point. If you already have a focus pool, increase your number of Focus Points by 1.</p>"
        },
        "featType": {
            "value": "archetype"
        },
        "level": {
            "value": "8"
        },
        "prerequisites": {
            "value": [
                "Dragon Disciple Dedication"
            ]
        },
        "rarity": {
            "value": "common"
        },
        "rules": [],
        "source": {
            "value": ""
        },
        "traits": {
            "custom": "",
            "rarity": {
                "value": "common"
            },
            "value": [
                "archetype"
            ]
        }
    },
    "effects": [],
    "flags": {},
    "img": "systems/pf2e/icons/features/feats/feats.jpg",
    "name": "Breath Of The Dragon",
    "permission": {
        "default": 0
    },
    "type": "feat"
}
