{
    "_id": "ICLUKJc9P0LgwVyt",
    "data": {
        "actionCategory": {
            "value": ""
        },
        "actionType": {
            "value": "passive"
        },
        "actions": {
            "value": ""
        },
        "description": {
            "chat": "",
            "unidentified": "",
            "value": "<p>The fire inside you asserts itself as beaming, radiant light. Your body is naturally luminescent, glowing with the effects of a primal @Compendium[pf2e.spells-srd.Light]{Light} cantrip. A cantrip is heightened to a spell level equal to half your level rounded up. The light is involuntary and constant; if counteracted, it returns in [[/r 1d4]] rounds. You suffer a –2 circumstance penalty on Stealth checks to Hide or Sneak and gain a +1 circumstance bonus on saves against light effects and effects that inflict the @Compendium[pf2e.conditionitems.Blinded]{Blinded} or @Compendium[pf2e.conditionitems.Dazzled]{Dazzled} conditions.</p>"
        },
        "featType": {
            "value": "ancestry"
        },
        "level": {
            "value": 1
        },
        "location": "",
        "prerequisites": [],
        "rarity": {
            "value": "common"
        },
        "rules": [],
        "source": {
            "value": ""
        },
        "traits": {
            "custom": "",
            "rarity": {
                "value": "common"
            },
            "value": [
                "ifrit",
                "lineage"
            ]
        },
        "usage": {
            "value": ""
        }
    },
    "effects": [],
    "flags": {},
    "img": "systems/pf2e/icons/features/feats/feats.jpg",
    "name": "Brightsoul",
    "permission": {
        "default": 0
    },
    "type": "feat"
}
