{
    "_id": "C5tSxOwDILefw4zq",
    "data": {
        "actionCategory": {
            "value": ""
        },
        "actionType": {
            "value": "passive"
        },
        "actions": {
            "value": ""
        },
        "description": {
            "chat": "",
            "unidentified": "",
            "value": "<p>You've learned a flexible way to position your buckler to provide more protection. When you @Compendium[pf2e.actionspf2e.Raise a Shield]{Raise a Shield} to gain a circumstance bonus to AC from a @Compendium[pf2e.equipment-srd.Buckler]{Buckler}, increase the bonus from +1 to +2.</p>"
        },
        "featType": {
            "value": "class"
        },
        "level": {
            "value": "1"
        },
        "prerequisites": {
            "value": [
                ""
            ]
        },
        "rarity": {
            "value": "common"
        },
        "rules": [],
        "source": {
            "value": ""
        },
        "traits": {
            "custom": "",
            "rarity": {
                "value": "common"
            },
            "value": [
                "swashbuckler"
            ]
        }
    },
    "effects": [],
    "flags": {},
    "img": "systems/pf2e/icons/features/feats/feats.jpg",
    "name": "Buckler Expertise",
    "permission": {
        "default": 0
    },
    "type": "feat"
}
