{
    "_id": "XyQpqznuO5LGFvhz",
    "data": {
        "actionCategory": {
            "value": ""
        },
        "actionType": {
            "value": "action"
        },
        "actions": {
            "value": "1"
        },
        "description": {
            "chat": "",
            "unidentified": "",
            "value": "<p><strong>Access</strong> Help either the Washboard Dogs or the Diobel Sweepers destroy their rival.<br /></p>\n<hr />\n<p>With a sharp whistle or wave of your hands, you distract an opponent from the fact that one of your allies is about to attack them. Choose a target and an ally, both of whom must be within 30 feet. The target is @Compendium[pf2e.conditionitems.Flat-Footed]{Flat-Footed} against the first Strike the ally makes on their next turn; if your ally doesn't Strike that target, the effect is lost. Depending on how you describe your distraction, this action gains either the auditory or visual trait.</p>"
        },
        "featType": {
            "value": "class"
        },
        "level": {
            "value": "12"
        },
        "prerequisites": {
            "value": null
        },
        "rarity": {
            "value": "common"
        },
        "rules": [],
        "source": {
            "value": ""
        },
        "traits": {
            "custom": "",
            "rarity": {
                "value": "uncommon"
            },
            "value": [
                "concentrate",
                "rogue"
            ]
        }
    },
    "effects": [],
    "flags": {},
    "img": "systems/pf2e/icons/features/feats/feats.jpg",
    "name": "Coordinated Distraction",
    "permission": {
        "default": 0
    },
    "type": "feat"
}
