{
    "_id": "4HHw2DjTxdv1jBZd",
    "data": {
        "actionCategory": {
            "value": ""
        },
        "actionType": {
            "value": "passive"
        },
        "actions": {
            "value": ""
        },
        "description": {
            "chat": "",
            "unidentified": "",
            "value": "<p>When you attempt to Demoralize, you can make it harder for the target to flee, in place of the action's normal effects.</p>\n<hr />\n<p><strong>Critical Success</strong> For 1 round, the target takes a -10-foot status penalty to Speed and a -4 status penalty to Stealth.</p>\n<p><strong>Success</strong> For 1 round, the target takes a -5-foot status penalty to Speed and a -2 status penalty to Stealth.</p>"
        },
        "featType": {
            "value": "archetype"
        },
        "level": {
            "value": 4
        },
        "prerequisites": [
            "Zephyr Guard Dedication",
            "trained in Intimidation"
        ],
        "rarity": {
            "value": "common"
        },
        "rules": [],
        "source": {
            "value": ""
        },
        "traits": {
            "custom": "",
            "rarity": {
                "value": "common"
            },
            "value": [
                "archetype"
            ]
        }
    },
    "effects": [],
    "flags": {},
    "img": "systems/pf2e/icons/features/feats/feats.jpg",
    "name": "Decry Thief",
    "permission": {
        "default": 0
    },
    "type": "feat"
}
