{
    "_id": "UHejQS4uCNGRI45t",
    "data": {
        "actionCategory": {
            "value": ""
        },
        "actionType": {
            "value": "passive"
        },
        "actions": {
            "value": ""
        },
        "description": {
            "value": "<p>Your dedication to @Compendium[pf2e.deities.The Godclaw]{The Godclaw} borders on a cleric’s. You gain the cleric’s @Compendium[pf2e.feats-srd.Domain Initiate]{Domain Initiate} feat but must select perfection, protection, tyranny, or zeal as your domain. In addition, you can use any religious symbol of @Compendium[pf2e.deities.Abadar]{Abadar}, @Compendium[pf2e.deities.Asmodeus]{Asmodeus}, @Compendium[pf2e.deities.Iomedae]{Iomedae}, @Compendium[pf2e.deities.Irori]{Irori}, or @Compendium[pf2e.deities.Torag]{Torag} as your divine focus.</p>"
        },
        "featType": {
            "value": "bonus"
        },
        "level": {
            "value": 0
        },
        "location": "",
        "prerequisites": [
            "Order of the Godclaw"
        ],
        "rarity": {
            "value": "common"
        },
        "rules": [],
        "source": {
            "value": ""
        },
        "traits": {
            "custom": "",
            "rarity": {
                "value": "common"
            },
            "value": []
        }
    },
    "effects": [],
    "flags": {},
    "img": "systems/pf2e/icons/default-icons/feat.svg",
    "name": "Dedication to the Five",
    "permission": {
        "default": 0
    },
    "type": "feat"
}
