{
    "_id": "30e9SdbmI3t5OJQE",
    "data": {
        "actionCategory": {
            "value": ""
        },
        "actionType": {
            "value": "reaction"
        },
        "actions": {
            "value": ""
        },
        "description": {
            "chat": "",
            "unidentified": "",
            "value": "<p><strong>Frequency</strong> once per day<br /><strong>Trigger</strong> You are about to gain the dying condition as a result of another creature’s attack or ability, and that creature is within your melee reach.</p>\n<hr />\n<p>Once, you died because someone—murderer or monster, soldier or executioner—chose to strike you down. Just before losing consciousness, make a melee Strike against the triggering creature.</p>\n<hr />\n<p><strong>Special</strong> You can select this feat only at 1st level, and you can’t retrain into or out of this feat.</p>"
        },
        "featType": {
            "value": "ancestry"
        },
        "level": {
            "value": 1
        },
        "location": "",
        "prerequisites": [],
        "rarity": {
            "value": "common"
        },
        "rules": [],
        "source": {
            "value": ""
        },
        "traits": {
            "custom": "",
            "rarity": {
                "value": "common"
            },
            "value": [
                "duskwalker"
            ]
        },
        "usage": {
            "value": ""
        }
    },
    "effects": [],
    "flags": {},
    "img": "systems/pf2e/icons/features/feats/feats.jpg",
    "name": "Deliberate Death",
    "permission": {
        "default": 0
    },
    "type": "feat"
}
