{
    "_id": "I0BhPWqYf1bbzEYg",
    "data": {
        "actionCategory": {
            "value": ""
        },
        "actionType": {
            "value": "passive"
        },
        "actions": {
            "value": ""
        },
        "description": {
            "chat": "",
            "unidentified": "",
            "value": "<p>It takes more to kill you than most. You die from the dying condition at dying 5, rather than dying 4.</p>"
        },
        "featType": {
            "value": "general"
        },
        "level": {
            "value": "1"
        },
        "prerequisites": {
            "value": [
                ""
            ]
        },
        "rarity": {
            "value": "common"
        },
        "rules": [],
        "source": {
            "value": ""
        },
        "traits": {
            "custom": "",
            "rarity": {
                "value": "common"
            },
            "value": [
                "general"
            ]
        }
    },
    "effects": [
        {
            "_id": "r9IFkTGzEqWuheEr",
            "changes": [
                {
                    "key": "data.attributes.dying.max",
                    "mode": 4,
                    "value": 5
                }
            ],
            "disabled": false,
            "duration": {
                "rounds": null,
                "seconds": null,
                "startRound": null,
                "startTime": null,
                "startTurn": null,
                "turns": null
            },
            "flags": {},
            "icon": "icons/svg/aura.svg",
            "label": "Diehard",
            "origin": "",
            "tint": "",
            "transfer": true
        }
    ],
    "flags": {},
    "img": "systems/pf2e/icons/features/feats/feats.jpg",
    "name": "Diehard",
    "permission": {
        "default": 0
    },
    "type": "feat"
}
