{
    "_id": "ot0uyFtnC1Whz5bp",
    "data": {
        "actionCategory": {
            "value": ""
        },
        "actionType": {
            "value": "passive"
        },
        "actions": {
            "value": ""
        },
        "description": {
            "chat": "",
            "unidentified": "",
            "value": "<p>You can shape the area of your composition spells. Whenever you cast a composition spell whose area is an emanation, you can change the spell's area to a cone 10 feet larger, to a maximum of twice the original area.</p>\n<p>For example, you could modify a composition spell that affects a 30-foot emanation to affect a 40-foot cone, but a 5-foot emanation could only become a 10-foot cone.</p>"
        },
        "featType": {
            "value": "class"
        },
        "level": {
            "value": "2"
        },
        "prerequisites": {
            "value": [
                ""
            ]
        },
        "rarity": {
            "value": "common"
        },
        "rules": [],
        "source": {
            "value": ""
        },
        "traits": {
            "custom": "",
            "rarity": {
                "value": "common"
            },
            "value": [
                "bard"
            ]
        }
    },
    "effects": [],
    "flags": {},
    "img": "systems/pf2e/icons/features/feats/feats.jpg",
    "name": "Directed Audience",
    "permission": {
        "default": 0
    },
    "type": "feat"
}
