{
    "_id": "Trj5azJlaOk5jgBi",
    "data": {
        "actionCategory": {
            "value": ""
        },
        "actionType": {
            "value": "free"
        },
        "actions": {
            "value": ""
        },
        "description": {
            "chat": "",
            "unidentified": "",
            "value": "<p><strong>Frequency</strong> once per turn</p>\n<p><strong>Trigger</strong> You finish Casting a Spell using one of your divine spell slots on your turn.</p>\n<hr />\n<p>You siphon residual spell energy into a weapon you're wielding. Until the end of your turn, the weapon deals an additional 1d4 force damage.</p>\n<p>@Compendium[pf2e.feat-effects.Effect: Divine Weapon (Force)]{Effect: Divine Weapon (Force)}</p>\n<p>You can instead deal an additional 1d6 damage of an alignment type that matches one of your deity's alignment components. As usual for aligned damage, this can damage only creatures of the opposite alignment.</p>\n<p>@Compendium[pf2e.feat-effects.Effect: Divine Weapon (Chaotic)]{Effect: Divine Weapon (Chaotic)}</p>\n<p>@Compendium[pf2e.feat-effects.Effect: Divine Weapon (Evil)]{Effect: Divine Weapon (Evil)}</p>\n<p>@Compendium[pf2e.feat-effects.Effect: Divine Weapon (Good)]{Effect: Divine Weapon (Good)}</p>\n<p>@Compendium[pf2e.feat-effects.Effect: Divine Weapon (Lawful)]{Effect: Divine Weapon (Lawful)}</p>"
        },
        "featType": {
            "value": "class"
        },
        "level": {
            "value": 6
        },
        "location": "",
        "prerequisites": [],
        "rarity": {
            "value": "common"
        },
        "rules": [],
        "source": {
            "value": ""
        },
        "traits": {
            "custom": "",
            "rarity": {
                "value": "common"
            },
            "value": [
                "cleric"
            ]
        }
    },
    "effects": [],
    "flags": {},
    "img": "systems/pf2e/icons/features/feats/feats.jpg",
    "name": "Divine Weapon",
    "permission": {
        "default": 0
    },
    "type": "feat"
}
