{
    "_id": "mmYAiK3x0UMcgiNv",
    "data": {
        "actionCategory": {
            "value": ""
        },
        "actionType": {
            "value": "passive"
        },
        "actions": {
            "value": ""
        },
        "description": {
            "chat": "",
            "unidentified": "",
            "value": "<p>Your suli heritage can be traced back to two geniekin ancestors of opposing elements, or to an elemental ancestor that embodied two combined elements. Choose two of the following elements: air, earth, fire, and water. Once made, this choice can’t be changed. You gain resistance equal to half your level (minimum 1) to all damaging effects with the traits of either of your chosen elements.</p>\n<hr />\n<p><strong>Special</strong> If you take the Elemental Assault or Elemental Bulwark ancestry feats, you can use them only with your chosen elements. You can add your resistance from this feat to the resistance you gain from Elemental Bulwark against effects with your elements’ traits, for a total of 5 + half your level, or 10 + half your level with Improved Elemental Bulwark. If you take the Tetraelemental Assault feat, you can choose each of your two elements twice each, instead of choosing each of the four elements once each.</p>"
        },
        "featType": {
            "value": "ancestry"
        },
        "level": {
            "value": 1
        },
        "location": "",
        "prerequisites": [],
        "rarity": {
            "value": "common"
        },
        "rules": [],
        "source": {
            "value": ""
        },
        "traits": {
            "custom": "",
            "rarity": {
                "value": "common"
            },
            "value": [
                "lineage",
                "suli"
            ]
        },
        "usage": {
            "value": ""
        }
    },
    "effects": [],
    "flags": {},
    "img": "systems/pf2e/icons/features/feats/feats.jpg",
    "name": "Dualborn",
    "permission": {
        "default": 0
    },
    "type": "feat"
}
