{
    "_id": "pCVegyXxNibF4ulp",
    "data": {
        "actionCategory": {
            "value": ""
        },
        "actionType": {
            "value": "action"
        },
        "actions": {
            "value": "1"
        },
        "description": {
            "chat": "",
            "unidentified": "",
            "value": "<p>You embellish your spellcasting with entrancing flourishes and grand pronouncements, making it harder to identify or counter.</p>\n<p>If the next action you use is to @Compendium[pf2e.actionspf2e.Cast a Spell]{Cast a Spell}, creatures with the ability to Cast that Spell don't automatically know what the spell is.</p>\n<p>In addition, creatures that witness your spellcasting take a -2 circumstance penalty to checks to identify the spell with @Compendium[pf2e.actionspf2e.Recall Knowledge (Lore)]{Recall Knowledge} and checks to counteract the spell during its casting (such as with @Compendium[pf2e.feats-srd.Counterspell (Prepared)]{Counterspell}).</p>"
        },
        "featType": {
            "value": "class"
        },
        "level": {
            "value": "4"
        },
        "prerequisites": {
            "value": [
                ""
            ]
        },
        "rarity": {
            "value": "common"
        },
        "rules": [],
        "source": {
            "value": ""
        },
        "traits": {
            "custom": "",
            "rarity": {
                "value": "common"
            },
            "value": [
                "concentrate",
                "manipulate",
                "metamagic",
                "sorcerer"
            ]
        }
    },
    "effects": [],
    "flags": {},
    "img": "systems/pf2e/icons/features/feats/feats.jpg",
    "name": "Elaborate Flourish",
    "permission": {
        "default": 0
    },
    "type": "feat"
}
