{
    "_id": "lslR2UfP3ze7TFYu",
    "data": {
        "actionCategory": {
            "value": ""
        },
        "actionType": {
            "value": "passive"
        },
        "actions": {
            "value": ""
        },
        "description": {
            "value": "<p>You gain the ability to cast a single arcane or occult cantrip of your choice (which is heightened to a spell level equal to half your level rounded up). If you weren’t already, you become trained in that tradition’s spell DCs and spell attack rolls with Intelligence as your spellcasting ability.</p>\n<p>Regardless of whether you choose an arcane or occult cantrip, you also become an expert in your choice of either Arcana or Occultism. You also gain a +1 circumstance bonus to checks you attempt with the chosen skill when Investigating or Identifying Magic.</p>\n<hr />\n<p><strong>Special</strong> You can’t select another dedication feat until you’ve gained two other feats from the Eldritch Researcher archetype.</p>"
        },
        "featType": {
            "value": "archetype"
        },
        "level": {
            "value": 2
        },
        "location": "",
        "prerequisites": [
            "trained in Arcana",
            "trained in Occultism"
        ],
        "rarity": {
            "value": "common"
        },
        "rules": [],
        "source": {
            "value": ""
        },
        "traits": {
            "custom": "",
            "rarity": {
                "value": "uncommon"
            },
            "value": [
                "archetype",
                "dedication"
            ]
        }
    },
    "effects": [],
    "flags": {},
    "img": "systems/pf2e/icons/default-icons/feats.jpg",
    "name": "Eldritch Researcher Dedication",
    "permission": {
        "default": 0
    },
    "type": "feat"
}
