{
    "_id": "gyVcJfZTmBytLsXq",
    "data": {
        "actionCategory": {
            "value": ""
        },
        "actionType": {
            "value": "passive"
        },
        "actions": {
            "value": ""
        },
        "description": {
            "chat": "",
            "unidentified": "",
            "value": "<p>The particularly volatile compounds that you brew into your bombs result in them creating especially large and powerful explosions. When you throw an alchemical bomb that has the splash trait, you can add your Intelligence modifier to the bomb's usual splash damage, and it deals splash damage to every creature within 10 feet of the target.</p>"
        },
        "featType": {
            "value": "class"
        },
        "level": {
            "value": 10
        },
        "location": "",
        "prerequisites": [
            "Calculated Splash"
        ],
        "rarity": {
            "value": "common"
        },
        "rules": [
            {
                "key": "PF2E.RuleElement.FlatModifier",
                "label": "Expanded Splash",
                "predicate": {
                    "all": [
                        "alchemical",
                        "splash",
                        "bomb"
                    ]
                },
                "selector": "damage",
                "type": "untyped",
                "value": "@abilities.int.mod"
            },
            {
                "key": "PF2E.RuleElement.Note",
                "predicate": {
                    "all": [
                        "alchemical",
                        "bomb",
                        "splash"
                    ]
                },
                "selector": "damage",
                "text": "<p class='compact-text'><strong>{item|name}</strong> The bomb deals splash damage to every creature within 10 feet of the target.</p>"
            }
        ],
        "source": {
            "value": ""
        },
        "traits": {
            "custom": "",
            "rarity": {
                "value": "common"
            },
            "value": [
                "alchemist"
            ]
        }
    },
    "effects": [],
    "flags": {},
    "img": "systems/pf2e/icons/features/feats/feats.jpg",
    "name": "Expanded Splash",
    "permission": {
        "default": 0
    },
    "type": "feat"
}
