{
    "_id": "4zaU3GlTGMNqLFS8",
    "data": {
        "actionCategory": {
            "value": ""
        },
        "actionType": {
            "value": "passive"
        },
        "actions": {
            "value": ""
        },
        "description": {
            "chat": "",
            "unidentified": "",
            "value": "<p>You have forged a mystical bond with a creature. This might have involved complex rituals and invocations, such as meditating under the moon until something crept out of the forest. Or maybe you just did each other a good turn, such as rescuing the beast from a trap or a foe, and then being rescued in turn.</p>\n<p>Whatever the details, you are now comrades until the end. You gain a familiar (<em>Core Rulebook</em> 198). If you already have a familiar, you gain the @Compendium[pf2e.feats-srd.Enhanced Familiar]{Enhanced Familiar} feat.</p>\n<p><strong>Special</strong> You can't select another dedication feat until you have gained two other feats from the familiar master archetype.</p>"
        },
        "featType": {
            "value": "archetype"
        },
        "level": {
            "value": "2"
        },
        "prerequisites": {
            "value": [
                ""
            ]
        },
        "rarity": {
            "value": "common"
        },
        "rules": [
            {
                "key": "PF2E.RuleElement.FlatModifier",
                "selector": "familiar-abilities",
                "type": "base",
                "value": 2
            }
        ],
        "source": {
            "value": ""
        },
        "traits": {
            "custom": "",
            "rarity": {
                "value": "common"
            },
            "value": [
                "archetype",
                "dedication"
            ]
        }
    },
    "effects": [],
    "flags": {},
    "img": "systems/pf2e/icons/features/feats/feats.jpg",
    "name": "Familiar Master Dedication",
    "permission": {
        "default": 0
    },
    "type": "feat"
}
