{
    "_id": "5g7OFtvYQ7wPPJHC",
    "data": {
        "actionCategory": {
            "value": ""
        },
        "actionType": {
            "value": "passive"
        },
        "actions": {
            "value": ""
        },
        "description": {
            "chat": "",
            "unidentified": "",
            "value": "<p>You were raised by a tiefling or a fiendish relative, or you've devoted yourself to researching the secrets of the fiendish realms.</p>\n<p>You gain the trained proficiency rank in Intimidation and Religion. If you would automatically become trained in one of those skills (from your background or class, for example), you instead become trained in a skill of your choice.</p>\n<p>You also become trained in a Lore skill related to the fiendish plane from which you trace your lineage (usually Abaddon Lore, Abyss Lore, or Hell Lore).</p>"
        },
        "featType": {
            "value": "ancestry"
        },
        "level": {
            "value": "1"
        },
        "prerequisites": {
            "value": [
                ""
            ]
        },
        "rarity": {
            "value": "common"
        },
        "rules": [],
        "source": {
            "value": ""
        },
        "traits": {
            "custom": "",
            "rarity": {
                "value": "common"
            },
            "value": [
                "tiefling"
            ]
        }
    },
    "effects": [],
    "flags": {},
    "img": "systems/pf2e/icons/features/feats/feats.jpg",
    "name": "Fiendish Lore",
    "permission": {
        "default": 0
    },
    "type": "feat"
}
