{
    "_id": "gtXy5gMNU0NDvkBL",
    "data": {
        "actionCategory": {
            "value": ""
        },
        "actionType": {
            "value": "passive"
        },
        "actions": {
            "value": ""
        },
        "description": {
            "chat": "",
            "unidentified": "",
            "value": "<p>Your features reshape into those of a type of fiend who serves your deity; for example, as a demon you might have putrid scales, twisted horns, and red eyes.</p>\n<p>You gain a fly Speed equal to your Speed. You gain @Compendium[pf2e.ancestryfeatures.Darkvision]{Darkvision} if you don't already have it, and you gain the fiend trait and the trait appropriate to the type of servitor you've become (such as daemon, demon, or devil).</p>"
        },
        "featType": {
            "value": "class"
        },
        "level": {
            "value": 18
        },
        "location": "",
        "prerequisites": {
            "value": [
                "tenets of evil"
            ]
        },
        "rarity": {
            "value": "common"
        },
        "rules": [
            {
                "key": "PF2E.RuleElement.BaseSpeed",
                "selector": "fly",
                "value": "@attributes.speed.value"
            },
            {
                "key": "PF2E.RuleElement.Sense",
                "label": "PF2E.SensesDarkvision",
                "selector": "darkvision"
            }
        ],
        "source": {
            "value": ""
        },
        "traits": {
            "custom": "",
            "rarity": {
                "value": "uncommon"
            },
            "value": [
                "champion"
            ]
        }
    },
    "effects": [],
    "flags": {},
    "img": "systems/pf2e/icons/features/feats/feats.jpg",
    "name": "Fiendish Form",
    "permission": {
        "default": 0
    },
    "type": "feat"
}
