{
    "_id": "5GqjEM22n78Vmdpe",
    "data": {
        "actionCategory": {
            "value": ""
        },
        "actionType": {
            "value": "passive"
        },
        "actions": {
            "value": ""
        },
        "description": {
            "chat": "",
            "unidentified": "",
            "value": "<p>When you use Fascinating Performance in a combat encounter, you need only a success, rather than a critical success, to @Compendium[pf2e.conditionitems.Fascinated]{Fascinate} your target. This works only if you're attempting to fascinate one target.</p>\n<p>For example, if you were an expert in Performance, you could choose to target multiple creatures normally or target one creature and fascinate it on a success.</p>"
        },
        "featType": {
            "value": "class"
        },
        "level": {
            "value": "1"
        },
        "prerequisites": {
            "value": [
                "Fascinating Performance"
            ]
        },
        "rarity": {
            "value": "common"
        },
        "rules": [],
        "source": {
            "value": ""
        },
        "traits": {
            "custom": "",
            "rarity": {
                "value": "common"
            },
            "value": [
                "swashbuckler"
            ]
        }
    },
    "effects": [],
    "flags": {},
    "img": "systems/pf2e/icons/features/feats/feats.jpg",
    "name": "Focused Fascination",
    "permission": {
        "default": 0
    },
    "type": "feat"
}
