{
    "_id": "ErKwliHplziJY2BW",
    "data": {
        "actionCategory": {
            "value": ""
        },
        "actionType": {
            "value": "passive"
        },
        "actions": {
            "value": ""
        },
        "description": {
            "chat": "",
            "unidentified": "",
            "value": "<p>You broaden your magical studies, allowing you to find the right path, detect objects, and conceal those objects from unscrupulous rivals.</p>\n<p>You can cast @Compendium[pf2e.spells-srd.Augury]{Augury}, @Compendium[pf2e.spells-srd.Locate]{Locate}, and @Compendium[pf2e.spells-srd.Nondetection]{Nondetection} as occult innate spells, each once per day. You can cast this <em>nondetection</em> spell only on an object, and it is automatically heightened to the same spell level as your cantrips from Magical Scholastics.</p>"
        },
        "featType": {
            "value": "archetype"
        },
        "level": {
            "value": 10
        },
        "prerequisites": [
            "Archaeologist Dedication",
            "Magical Scholastics"
        ],
        "rarity": {
            "value": "common"
        },
        "rules": [],
        "source": {
            "value": ""
        },
        "traits": {
            "custom": "",
            "rarity": {
                "value": "common"
            },
            "value": [
                "archetype"
            ]
        }
    },
    "effects": [],
    "flags": {},
    "img": "systems/pf2e/icons/features/feats/feats.jpg",
    "name": "Greater Magical Scholastics",
    "permission": {
        "default": 0
    },
    "type": "feat"
}
