{
    "_id": "ABXUfGoeBgCyFasg",
    "data": {
        "actionCategory": {
            "value": ""
        },
        "actionType": {
            "value": "passive"
        },
        "actions": {
            "value": ""
        },
        "description": {
            "chat": "",
            "unidentified": "",
            "value": "<p>You take on the imposing form of a large, winged oni.</p>\n<p>Once per day, as part of using Long-Nosed Form, you also gain the benefits of 4th-level @Compendium[pf2e.spells-srd.Enlarge]{Enlarge}and @Compendium[pf2e.spells-srd.Fly]{Fly}.</p>\n<p>This lasts for 5 minutes or until you shift out of your Long-Nosed Form, whichever happens first.</p>"
        },
        "featType": {
            "value": "ancestry"
        },
        "level": {
            "value": "17"
        },
        "prerequisites": {
            "value": [
                "Long-Nosed Form"
            ]
        },
        "rarity": {
            "value": "common"
        },
        "rules": [],
        "source": {
            "value": ""
        },
        "traits": {
            "custom": "",
            "rarity": {
                "value": "common"
            },
            "value": [
                "tengu"
            ]
        }
    },
    "effects": [],
    "flags": {},
    "img": "systems/pf2e/icons/features/feats/feats.jpg",
    "name": "Great Tengu Form",
    "permission": {
        "default": 0
    },
    "type": "feat"
}
