{
    "_id": "Qb25uu1gT5CDMSWb",
    "data": {
        "actionCategory": {
            "value": ""
        },
        "actionType": {
            "value": "passive"
        },
        "actions": {
            "value": ""
        },
        "description": {
            "chat": "",
            "unidentified": "",
            "value": "<p>When you came of age, your fingernails grew long and sharp. You gain a claw unarmed attack that deals <a class=\"inline-roll roll\" data-mode=\"roll\" data-flavor=\"slashing\" data-formula=\"1d4\" title=\"slashing\"><i class=\"fas fa-dice-d20\"></i> 1d4</a> slashing damage. Your claws are in the brawling group and have the agile, finesse, and unarmed traits.</p>\n<p><strong>Special</strong> Hag claws can develop at any point in a changeling's life, allowing you to select this feat anytime you would gain an ancestry feat, but once you've selected it, you can't retrain out of it.</p>"
        },
        "featType": {
            "value": "ancestry"
        },
        "level": {
            "value": "1"
        },
        "prerequisites": {
            "value": [
                ""
            ]
        },
        "rarity": {
            "value": "common"
        },
        "rules": [],
        "source": {
            "value": ""
        },
        "traits": {
            "custom": "",
            "rarity": {
                "value": "common"
            },
            "value": [
                "changeling"
            ]
        }
    },
    "effects": [],
    "flags": {},
    "img": "systems/pf2e/icons/features/feats/feats.jpg",
    "name": "Hag Claws",
    "permission": {
        "default": 0
    },
    "type": "feat"
}
