{
    "_id": "1newzNV5nkLvZ9KE",
    "data": {
        "actionCategory": {
            "value": ""
        },
        "actionType": {
            "value": "passive"
        },
        "actions": {
            "value": ""
        },
        "description": {
            "chat": "",
            "unidentified": "",
            "value": "<p>You gain a +1 circumstance bonus to Crafting checks to @Compendium[pf2e.actionspf2e.Repair]{Repair} non-magical items, and you don't need a @Compendium[pf2e.equipment-srd.Repair Kit]{Repair Kit} for such repairs as long as you have any amount of junk, spare parts, or debris at your disposal.</p>"
        },
        "featType": {
            "value": "ancestry"
        },
        "level": {
            "value": "1"
        },
        "prerequisites": {
            "value": [
                ""
            ]
        },
        "rarity": {
            "value": "common"
        },
        "rules": [],
        "source": {
            "value": ""
        },
        "traits": {
            "custom": "",
            "rarity": {
                "value": "common"
            },
            "value": [
                "shoony"
            ]
        }
    },
    "effects": [],
    "flags": {},
    "img": "systems/pf2e/icons/features/feats/feats.jpg",
    "name": "Handy with your Paws",
    "permission": {
        "default": 0
    },
    "type": "feat"
}
