{
    "_id": "qJdbK8vgIqeHU7bu",
    "data": {
        "actionCategory": {
            "value": ""
        },
        "actionType": {
            "value": "action"
        },
        "actions": {
            "value": "1"
        },
        "description": {
            "chat": "",
            "unidentified": "",
            "value": "<p>With a loud shout, you unleash your ki in a crackling shroud of thunder and lightning that engulfs your body. Until the end of your next turn, your unarmed attacks and weapons you wield that have the monk trait deal additional electricity damage equal to one-half your level and additional sonic damage equal to one-half your level.<br /><br />If you also know the @Compendium[pf2e.spells-srd.Ki Blast]{Ki Blast} ki spell, you can choose to deal either electricity or sonic damage with the spell instead of force while this effect is active (<em>ki blast</em> loses the force trait and gains the electricity or sonic trait instead). Any creature who successfully Grapples you or is successfully Grappled by you also takes this damage immediately after the Grapple check is resolved.</p>"
        },
        "featType": {
            "value": "archetype"
        },
        "level": {
            "value": "6"
        },
        "prerequisites": {
            "value": [
                "Jalmeri Heavenseeker Dedication"
            ]
        },
        "rarity": {
            "value": "common"
        },
        "rules": [],
        "source": {
            "value": ""
        },
        "traits": {
            "custom": "",
            "rarity": {
                "value": "common"
            },
            "selected": {
                "archetype": "Archetype",
                "electricity": "Electricity",
                "evocation": "Evocation",
                "sonic": "Sonic"
            },
            "value": [
                "archetype",
                "electricity",
                "evocation",
                "sonic"
            ]
        }
    },
    "effects": [],
    "flags": {},
    "img": "systems/pf2e/icons/features/feats/feats.jpg",
    "name": "Heaven's Thunder",
    "permission": {
        "default": 0
    },
    "type": "feat"
}
