{
    "_id": "iVwsLYjOJbfvL0Pe",
    "data": {
        "actionCategory": {
            "value": ""
        },
        "actionType": {
            "value": "action"
        },
        "actions": {
            "value": "1"
        },
        "description": {
            "chat": "",
            "unidentified": "",
            "value": "<p><strong>Frequency</strong> once per day</p>\n<hr />\n<p>The blood of heroes courses through your veins, and you inspire your allies to dig deep and find a new level of resolve.</p>\n<p>You grant up to 10 willing creatures within 30 feet the effects of a 6th-level @Compendium[pf2e.spells-srd.Zealous Conviction]{Zealous Conviction}, though the effect automatically ends on a target if you give that target a command they would normally find repugnant.</p>\n<p>This action has the auditory trait or visual trait, depending on how you inspire your allies.</p>"
        },
        "featType": {
            "value": "ancestry"
        },
        "level": {
            "value": "17"
        },
        "prerequisites": {
            "value": [
                ""
            ]
        },
        "rarity": {
            "value": "common"
        },
        "rules": [],
        "source": {
            "value": ""
        },
        "traits": {
            "custom": "",
            "rarity": {
                "value": "common"
            },
            "value": [
                "emotion",
                "human",
                "mental"
            ]
        }
    },
    "effects": [],
    "flags": {},
    "img": "systems/pf2e/icons/features/feats/feats.jpg",
    "name": "Heroic Presence",
    "permission": {
        "default": 0
    },
    "type": "feat"
}
