{
    "_id": "K3Au5071pfvNwGob",
    "data": {
        "actionCategory": {
            "value": ""
        },
        "actionType": {
            "value": "passive"
        },
        "actions": {
            "value": ""
        },
        "description": {
            "chat": "",
            "unidentified": "",
            "value": "<p>You've learned to hide the magical auras of your gear. During your daily preparations, you carefully tweak any or all of your magic items to appear non-magical. Objects adjusted in this way remain so until your next preparations.</p>\n<p>A spellcaster using @Compendium[pf2e.spells-srd.Detect Magic]{Detect Magic} or @Compendium[pf2e.spells-srd.Read Aura]{Read Aura} must succeed at a Perception check against your Deception DC to see through your obfuscations.</p>"
        },
        "featType": {
            "value": "archetype"
        },
        "level": {
            "value": 4
        },
        "prerequisites": [
            "expert in Arcana, Nature, Occultism, or Religion",
            "Vigilante Dedication"
        ],
        "rarity": {
            "value": "common"
        },
        "rules": [],
        "source": {
            "value": ""
        },
        "traits": {
            "custom": "",
            "rarity": {
                "value": "common"
            },
            "value": [
                "archetype",
                "skill"
            ]
        }
    },
    "effects": [],
    "flags": {},
    "img": "systems/pf2e/icons/features/feats/feats.jpg",
    "name": "Hidden Magic",
    "permission": {
        "default": 0
    },
    "type": "feat"
}
