{
    "_id": "iJrjzLnLJkvQgrbS",
    "data": {
        "actionCategory": {
            "value": ""
        },
        "actionType": {
            "value": "reaction"
        },
        "actions": {
            "value": ""
        },
        "description": {
            "chat": "",
            "unidentified": "",
            "value": "<p><strong>Frequency</strong> once per day</p>\n<p><strong>Trigger</strong> You critically hit a foe with a Strike with a slashing weapon.</p>\n<hr />\n<p>Choose either @Compendium[pf2e.spells-srd.Lightning Bolt]{Lightning Bolt} or @Compendium[pf2e.spells-srd.Gust of Wind]{Gust of Wind}. You Cast the chosen Spell as a 6th-level primal innate spell in the direction of the target of the triggering action.</p>"
        },
        "featType": {
            "value": "ancestry"
        },
        "level": {
            "value": 17
        },
        "location": "",
        "prerequisites": [
            "Storm's Lash"
        ],
        "rarity": {
            "value": "common"
        },
        "rules": [],
        "source": {
            "value": ""
        },
        "traits": {
            "custom": "",
            "rarity": {
                "value": "common"
            },
            "value": [
                "tengu"
            ]
        },
        "usage": {
            "value": ""
        }
    },
    "effects": [],
    "flags": {},
    "img": "systems/pf2e/icons/features/feats/feats.jpg",
    "name": "Hurricane Swing",
    "permission": {
        "default": 0
    },
    "type": "feat"
}
