{
    "_id": "YeyOqNFKaeuOTiJr",
    "data": {
        "actionCategory": {
            "value": ""
        },
        "actionType": {
            "value": "action"
        },
        "actions": {
            "value": "1"
        },
        "description": {
            "chat": "",
            "unidentified": "",
            "value": "<p>You refuse to let foes past your guard. As long as you are in this stance, when you critically hit with an @Compendium[pf2e.feats-srd.Attack of Opportunity (Fighter)]{Attack of Opportunity} triggered by a move action, you disrupt that move action.</p>"
        },
        "featType": {
            "value": "class"
        },
        "level": {
            "value": 8
        },
        "location": "",
        "prerequisites": {
            "value": [
                "Attack of Opportunity"
            ]
        },
        "rarity": {
            "value": "common"
        },
        "rules": [],
        "source": {
            "value": ""
        },
        "traits": {
            "custom": "",
            "rarity": {
                "value": "uncommon"
            },
            "value": [
                "champion",
                "fighter"
            ]
        }
    },
    "effects": [],
    "flags": {},
    "img": "systems/pf2e/icons/features/feats/feats.jpg",
    "name": "Impassable Wall Stance",
    "permission": {
        "default": 0
    },
    "type": "feat"
}
