{
    "_id": "Nxke8WzifQafSa4I",
    "data": {
        "actionCategory": {
            "value": ""
        },
        "actionType": {
            "value": "passive"
        },
        "actions": {
            "value": ""
        },
        "description": {
            "chat": "",
            "unidentified": "",
            "value": "<p>You've trained your mount to become a powerful force on the battlefield. The mount you gained through the Cavalier Dedication feat becomes a mature animal companion, granting it additional capabilities. During an encounter, even if you don't use the Command an Animal action, your animal companion can still use 1 action on your turn to @Compendium[pf2e.actionspf2e.Stride]{Stride} or @Compendium[pf2e.actionspf2e.Strike]{Strike}.</p>"
        },
        "featType": {
            "value": "archetype"
        },
        "level": {
            "value": "4"
        },
        "prerequisites": {
            "value": [
                "Cavalier Dedication"
            ]
        },
        "rarity": {
            "value": "common"
        },
        "rules": [],
        "source": {
            "value": ""
        },
        "traits": {
            "custom": "",
            "rarity": {
                "value": "common"
            },
            "value": [
                "archetype"
            ]
        }
    },
    "effects": [],
    "flags": {},
    "img": "systems/pf2e/icons/features/feats/feats.jpg",
    "name": "Impressive Mount",
    "permission": {
        "default": 0
    },
    "type": "feat"
}
