{
    "_id": "E1sjYRb4zsZVrzrN",
    "data": {
        "actionCategory": {
            "value": ""
        },
        "actionType": {
            "value": "passive"
        },
        "actions": {
            "value": ""
        },
        "description": {
            "chat": "",
            "unidentified": "",
            "value": "<p><strong>Access</strong> Jaric ethnicity<br /></p>\n<hr />\n<p>Halflings have been unobtrusive assistants of larger folk for untold ages, and your people count on this assumption of innocence. You gain the trained proficiency rank in Deception (or another skill of your choice, if you're already trained in Deception). If you fail a Deception check to Create a Diversion, humanoid creatures aren't aware that you were trying to trick them unless you get a critical failure on your roll.</p>"
        },
        "featType": {
            "value": "ancestry"
        },
        "level": {
            "value": "1"
        },
        "prerequisites": {
            "value": [
                ""
            ]
        },
        "rarity": {
            "value": "common"
        },
        "rules": [],
        "source": {
            "value": ""
        },
        "traits": {
            "custom": "",
            "rarity": {
                "value": "common"
            },
            "value": [
                "halfling"
            ]
        }
    },
    "effects": [],
    "flags": {},
    "img": "systems/pf2e/icons/features/feats/feats.jpg",
    "name": "Innocuous",
    "permission": {
        "default": 0
    },
    "type": "feat"
}
