{
    "_id": "XgUQ6Tm9LKxcZGHW",
    "data": {
        "actionCategory": {
            "value": ""
        },
        "actionType": {
            "value": "passive"
        },
        "actions": {
            "value": ""
        },
        "description": {
            "chat": "",
            "unidentified": "",
            "value": "<p>As a knight in shining armor, you train daily in the heaviest armor, expanding your expertise to heavy armor. You gain expert proficiency in heavy armor.</p>"
        },
        "featType": {
            "value": "archetype"
        },
        "level": {
            "value": 12
        },
        "prerequisites": [
            "Knight Vigilant",
            "expert in light armor, medium armor, or unarmored defense",
            "trained in heavy armor"
        ],
        "rarity": {
            "value": "common"
        },
        "rules": [],
        "source": {
            "value": ""
        },
        "traits": {
            "custom": "",
            "rarity": {
                "value": "common"
            },
            "value": [
                "archetype"
            ]
        }
    },
    "effects": [],
    "flags": {},
    "img": "systems/pf2e/icons/features/feats/feats.jpg",
    "name": "Knight in Shining Armor",
    "permission": {
        "default": 0
    },
    "type": "feat"
}
