{
    "_id": "OTjRxyCtwPoqNFP2",
    "data": {
        "actionCategory": {
            "value": ""
        },
        "actionType": {
            "value": "passive"
        },
        "actions": {
            "value": ""
        },
        "description": {
            "chat": "",
            "unidentified": "",
            "value": "<p>You’ve trained with weapons ideal for subterranean efficiency. You are trained with the crossbow, greatpick, light pick, pick, and spear. You also gain access to all uncommon kobold weapons. For the purpose of determining your proficiency, martial kobold weapons are simple weapons, and advanced kobold weapons are martial weapons.</p>"
        },
        "featType": {
            "value": "ancestry"
        },
        "level": {
            "value": 1
        },
        "location": "",
        "prerequisites": [],
        "rarity": {
            "value": "common"
        },
        "rules": [],
        "source": {
            "value": ""
        },
        "traits": {
            "custom": "",
            "rarity": {
                "value": "common"
            },
            "value": [
                "kobold"
            ]
        },
        "usage": {
            "value": ""
        }
    },
    "effects": [],
    "flags": {},
    "img": "systems/pf2e/icons/features/feats/feats.jpg",
    "name": "Kobold Weapon Familiarity",
    "permission": {
        "default": 0
    },
    "type": "feat"
}
