{
    "_id": "QXZFvsZDduxwTJYM",
    "data": {
        "actionCategory": {
            "value": ""
        },
        "actionType": {
            "value": "passive"
        },
        "actions": {
            "value": ""
        },
        "description": {
            "chat": "",
            "unidentified": "",
            "value": "<p>Your people used powerful magic to travel between distant worlds, and the remnants of that magic make such transportation easier for you.</p>\n<p>When you are the target of a teleportation spell that transports more than one person, it can affect an additional person beyond the normal limit, chosen by the caster.</p>\n<p>Additionally, when you're the target of a @Compendium[pf2e.spells-srd.Teleport]{Teleport} spell, you and the other targets arrive no farther than 1 mile off target, regardless of distance traveled.</p>"
        },
        "featType": {
            "value": "ancestry"
        },
        "level": {
            "value": "17"
        },
        "prerequisites": {
            "value": [
                ""
            ]
        },
        "rarity": {
            "value": "common"
        },
        "rules": [],
        "source": {
            "value": ""
        },
        "traits": {
            "custom": "",
            "rarity": {
                "value": "common"
            },
            "value": [
                "elf"
            ]
        }
    },
    "effects": [],
    "flags": {},
    "img": "systems/pf2e/icons/features/feats/feats.jpg",
    "name": "Magic Rider",
    "permission": {
        "default": 0
    },
    "type": "feat"
}
