{
    "_id": "hO4sKslTrSQMLbGx",
    "data": {
        "actionCategory": {
            "value": ""
        },
        "actionType": {
            "value": "action"
        },
        "actions": {
            "value": "1"
        },
        "description": {
            "chat": "",
            "unidentified": "",
            "value": "<p><strong>Trigger</strong> You are in Mountain Stance</p>\n<hr />\n<p>You stomp, shaking the earth beneath you. Creatures on the ground within a 20-foot emanation take damage equal to your Strength modifier (minimum 0), which they can resist with a basic Fortitude save. On a failure, they also fall prone. After you use this action, you can't use it again for 1d4 rounds.</p>\n<p><strong>Special</strong> If you have this feat, the Dexterity modifier cap to your AC while using Mountain Stance increases from +1 to +2.</p>"
        },
        "featType": {
            "value": "class"
        },
        "level": {
            "value": 14
        },
        "prerequisites": [
            "Mountain Stronghold"
        ],
        "rarity": {
            "value": "common"
        },
        "rules": [],
        "source": {
            "value": ""
        },
        "traits": {
            "custom": "",
            "rarity": {
                "value": "common"
            },
            "value": [
                "monk"
            ]
        }
    },
    "effects": [],
    "flags": {},
    "img": "systems/pf2e/icons/features/feats/feats.jpg",
    "name": "Mountain Quake",
    "permission": {
        "default": 0
    },
    "type": "feat"
}
