{
    "_id": "hDGosy2ZTwnyctEP",
    "data": {
        "actionCategory": {
            "value": ""
        },
        "actionType": {
            "value": "passive"
        },
        "actions": {
            "value": ""
        },
        "description": {
            "chat": "",
            "unidentified": "",
            "value": "<p>You have a sense for spells that twist minds or reveal secrets. You gain a +2 circumstance bonus to Occultism checks to Identify Magic with the mental, possession, prediction, or scrying traits.</p>"
        },
        "featType": {
            "value": "skill"
        },
        "level": {
            "value": 1
        },
        "location": "",
        "prerequisites": [
            "trained in Occultism"
        ],
        "rarity": {
            "value": "common"
        },
        "rules": [
            {
                "key": "PF2E.RuleElement.FlatModifier",
                "label": "Oddity Identification (identify magic with specific traits)",
                "predicate": {
                    "all": [
                        "action:identify-magic"
                    ],
                    "any": [
                        "mental",
                        "possession",
                        "prediction",
                        "scrying"
                    ]
                },
                "selector": "occultism",
                "type": "circumstance",
                "value": 2
            }
        ],
        "source": {
            "value": ""
        },
        "traits": {
            "custom": "",
            "rarity": {
                "value": "common"
            },
            "value": [
                "general",
                "skill"
            ]
        }
    },
    "effects": [],
    "flags": {},
    "img": "systems/pf2e/icons/features/feats/feats.jpg",
    "name": "Oddity Identification",
    "permission": {
        "default": 0
    },
    "type": "feat"
}
