{
    "_id": "uIL1pbp7jhYMjYLS",
    "data": {
        "actionCategory": {
            "value": ""
        },
        "actionType": {
            "value": "passive"
        },
        "actions": {
            "value": ""
        },
        "description": {
            "chat": "",
            "unidentified": "",
            "value": "<p>Your parries and finishers allow you to riposte with the slightest provocation.</p>\n<p>You can use Opportune Riposte against an enemy who fails at a @Compendium[pf2e.actionspf2e.Strike]{Strike} against you (not just critically fails), provided you have both damaged that creature with a finisher on your last turn and currently have a circumstance bonus to AC from the parry weapon trait, @Compendium[pf2e.feats-srd.Dueling Parry (Swashbuckler)]{Dueling Parry}, or @Compendium[pf2e.feats-srd.Twin Parry]{Twin Parry}.</p>"
        },
        "featType": {
            "value": "class"
        },
        "level": {
            "value": "18"
        },
        "prerequisites": {
            "value": [
                "Opportune Riposte"
            ]
        },
        "rarity": {
            "value": "common"
        },
        "rules": [],
        "source": {
            "value": ""
        },
        "traits": {
            "custom": "",
            "rarity": {
                "value": "common"
            },
            "value": [
                "swashbuckler"
            ]
        }
    },
    "effects": [],
    "flags": {},
    "img": "systems/pf2e/icons/features/feats/feats.jpg",
    "name": "Parry And Riposte",
    "permission": {
        "default": 0
    },
    "type": "feat"
}
