{
    "_id": "eHkMcQQ4ejRAFJAt",
    "data": {
        "actionCategory": {
            "value": ""
        },
        "actionType": {
            "value": "reaction"
        },
        "actions": {
            "value": ""
        },
        "description": {
            "chat": "",
            "unidentified": "",
            "value": "<p><strong>Trigger</strong> A creature adjacent to you hits you with a melee unarmed @Compendium[pf2e.actionspf2e.Strike]{Strike}.</p>\n<p><strong>Requirements</strong> You have prepared your clothing to poison <br />attackers (see below).</p>\n<hr />\n<p>In nature, certain animals are covered in venomous spines, such that even touching them is deadly.</p>\n<p>To use this reaction, you must have brushed poison onto your clothing or woven sharp poisoned needles into the garment's fabric. This takes 10 minutes and uses one dose of contact or injury poison. You can have only one such poison suffused into your clothing at a time.</p>\n<p>When you use this reaction, the triggering creature is exposed to the suffused poison.</p>"
        },
        "featType": {
            "value": "archetype"
        },
        "level": {
            "value": "6"
        },
        "prerequisites": {
            "value": [
                "Poisoner Dedication"
            ]
        },
        "rarity": {
            "value": "common"
        },
        "rules": [],
        "source": {
            "value": ""
        },
        "traits": {
            "custom": "",
            "rarity": {
                "value": "common"
            },
            "value": [
                "archetype"
            ]
        }
    },
    "effects": [],
    "flags": {},
    "img": "systems/pf2e/icons/features/feats/feats.jpg",
    "name": "Poison Coat",
    "permission": {
        "default": 0
    },
    "type": "feat"
}
