{
    "_id": "QSuwyX84U26OLzZI",
    "data": {
        "actionCategory": {
            "value": ""
        },
        "actionType": {
            "value": "passive"
        },
        "actions": {
            "value": ""
        },
        "description": {
            "chat": "",
            "unidentified": "",
            "value": "<p>You have just the thing for the situation. You gain the @Compendium[pf2e.feats-srd.Prescient Planner]{Prescient Planner} and @Compendium[pf2e.feats-srd.Prescient Consumable]{Prescient Consumable} feats.</p>\n<p>When using Prescient Planner, you can pull out the item as a 2-action activity to remove your backpack (or a similar container) and draw the item, rather than taking 1 minute.</p>"
        },
        "featType": {
            "value": "class"
        },
        "level": {
            "value": "6"
        },
        "prerequisites": {
            "value": [
                ""
            ]
        },
        "rarity": {
            "value": "common"
        },
        "rules": [],
        "source": {
            "value": ""
        },
        "traits": {
            "custom": "",
            "rarity": {
                "value": "common"
            },
            "value": [
                "investigator"
            ]
        }
    },
    "effects": [],
    "flags": {},
    "img": "systems/pf2e/icons/features/feats/feats.jpg",
    "name": "Predictive Purchase (Investigator)",
    "permission": {
        "default": 0
    },
    "type": "feat"
}
