{
    "_id": "K3TasgeZLJQ84qtZ",
    "data": {
        "actionCategory": {
            "value": ""
        },
        "actionType": {
            "value": "passive"
        },
        "actions": {
            "value": ""
        },
        "description": {
            "chat": "",
            "unidentified": "",
            "value": "<p>You can call upon the creatures of the wild for aid. You gain an additional spell slot of your highest level, which you can use only to cast summon animal or summon plants and fungi. You can cast either of these spells using that spell slot, even if it they aren't in your spell repertoire.</p>"
        },
        "featType": {
            "value": "class"
        },
        "level": {
            "value": 4
        },
        "prerequisites": [
            "bloodline that grants primal spells"
        ],
        "rarity": {
            "value": "common"
        },
        "rules": [],
        "source": {
            "value": ""
        },
        "traits": {
            "custom": "",
            "rarity": {
                "value": "common"
            },
            "value": [
                "primal",
                "sorcerer"
            ]
        }
    },
    "effects": [],
    "flags": {},
    "img": "systems/pf2e/icons/features/feats/feats.jpg",
    "name": "Primal Evolution",
    "permission": {
        "default": 0
    },
    "type": "feat"
}
