{
    "_id": "TiNlehXIDEnIl95M",
    "data": {
        "actionCategory": {
            "value": ""
        },
        "actionType": {
            "value": "passive"
        },
        "actions": {
            "value": ""
        },
        "description": {
            "chat": "",
            "unidentified": "",
            "value": "<p>You draw the life force out of your enemies to heal your own wounds. When you cast a @Compendium[pf2e.spells-srd.Harm]{Harm} spell and damage at least one living creature, you regain Hit Points equal to the spell level of your <em>harm</em> spell. If you aren't a living creature, you gain no benefit from this feat.</p>"
        },
        "featType": {
            "value": "class"
        },
        "level": {
            "value": 2
        },
        "location": "",
        "prerequisites": [],
        "rarity": {
            "value": "common"
        },
        "rules": [],
        "source": {
            "value": ""
        },
        "traits": {
            "custom": "",
            "rarity": {
                "value": "common"
            },
            "value": [
                "cleric",
                "healing"
            ]
        }
    },
    "effects": [],
    "flags": {},
    "img": "systems/pf2e/icons/features/feats/feats.jpg",
    "name": "Sap Life",
    "permission": {
        "default": 0
    },
    "type": "feat"
}
