{
    "_id": "mZttsiWl1ql5NvrH",
    "data": {
        "actionCategory": {
            "value": ""
        },
        "actionType": {
            "value": "passive"
        },
        "actions": {
            "value": ""
        },
        "description": {
            "chat": "",
            "unidentified": "",
            "value": "<p>You can frighten foes so much, they might die. Attempt an Intimidation check against the Will DC of a living creature within 30 feet of you that you sense or observe and who can sense or observe you. If the target can't hear you or doesn't understand the language you are speaking, you take a -4 circumstance penalty. The creature is temporarily immune for 1 minute.</p>\n<hr />\n<p><strong>Critical Success</strong> The target must succeed at a Fortitude save against your Intimidation DC or die. If the target succeeds at its save, it becomes @Compendium[pf2e.conditionitems.Frightened]{Frightened 2} and is fleeing for 1 round; it suffers no effect on a critical success.</p>\n<p><strong>Success</strong> The target becomes Frightened 2.</p>\n<p><strong>Failure</strong> The target becomes @Compendium[pf2e.conditionitems.Frightened]{Frightened 1}.</p>\n<p><strong>Critical Failure</strong> The target is unaffected.</p>"
        },
        "featType": {
            "value": "skill"
        },
        "level": {
            "value": 15
        },
        "prerequisites": [
            "legendary in Intimidation"
        ],
        "rarity": {
            "value": "common"
        },
        "rules": [],
        "source": {
            "value": ""
        },
        "traits": {
            "custom": "",
            "rarity": {
                "value": "common"
            },
            "value": [
                "death",
                "emotion",
                "fear",
                "general",
                "incapacitation",
                "skill"
            ]
        }
    },
    "effects": [],
    "flags": {},
    "img": "systems/pf2e/icons/features/feats/feats.jpg",
    "name": "Scare to Death",
    "permission": {
        "default": 0
    },
    "type": "feat"
}
