{
    "_id": "g3zmkEVJJIjE32fY",
    "data": {
        "actionCategory": {
            "value": ""
        },
        "actionType": {
            "value": "passive"
        },
        "actions": {
            "value": ""
        },
        "description": {
            "chat": "",
            "unidentified": "",
            "value": "<p>You have the knowledge needed to understand ancient texts and cultural artifacts.</p>\n<p>You can use Society when @Compendium[pf2e.actionspf2e.Decipher Writing]{Deciphering Writing}, no matter the type of writing you are examining.</p>\n<p>You can also use Society to @Compendium[pf2e.actionspf2e.Identify Magic]{Identify Magic} when examining a magic item or location with cultural significance.</p>"
        },
        "featType": {
            "value": "archetype"
        },
        "level": {
            "value": "7"
        },
        "prerequisites": {
            "value": [
                "Archaeologist Dedication, master in Society"
            ]
        },
        "rarity": {
            "value": "common"
        },
        "rules": [],
        "source": {
            "value": ""
        },
        "traits": {
            "custom": "",
            "rarity": {
                "value": "common"
            },
            "value": [
                "archetype",
                "skill"
            ]
        }
    },
    "effects": [],
    "flags": {},
    "img": "systems/pf2e/icons/features/feats/feats.jpg",
    "name": "Scholastic Identification",
    "permission": {
        "default": 0
    },
    "type": "feat"
}
