{
    "_id": "C4m59yjuDmZLnTqu",
    "data": {
        "actionCategory": {
            "value": ""
        },
        "actionType": {
            "value": "passive"
        },
        "actions": {
            "value": ""
        },
        "description": {
            "chat": "",
            "unidentified": "",
            "value": "<p>With an artful eye, you shape shadows into illusory forms. You gain the @Compendium[pf2e.spells-srd.Shadow Illusion]{Shadow Illusion} focus spell. Increase the number of Focus Points in your pool by 1. You become an expert in occult spell attack rolls and DCs.</p>"
        },
        "featType": {
            "value": "archetype"
        },
        "level": {
            "value": "12"
        },
        "prerequisites": {
            "value": [
                "Shadow Magic"
            ]
        },
        "rarity": {
            "value": "common"
        },
        "rules": [],
        "source": {
            "value": ""
        },
        "traits": {
            "custom": "",
            "rarity": {
                "value": "common"
            },
            "value": [
                "archetype"
            ]
        }
    },
    "effects": [],
    "flags": {},
    "img": "systems/pf2e/icons/features/feats/feats.jpg",
    "name": "Shadow Illusion",
    "permission": {
        "default": 0
    },
    "type": "feat"
}
