{
    "_id": "tha0L3Z6608JrUwN",
    "data": {
        "actionCategory": {
            "value": ""
        },
        "actionType": {
            "value": "passive"
        },
        "actions": {
            "value": ""
        },
        "description": {
            "chat": "",
            "unidentified": "",
            "value": "<p>You gain the ability to fuse and play with shadows by using focus spells specific to shadowdancers.</p>\n<p>You learn a shadowdancer focus spell of your choice: @Compendium[pf2e.spells-srd.Dance of Darkness]{Dance of Darkness} or @Compendium[pf2e.spells-srd.Shadow Jump]{Shadow Jump}<em>.</em> If you don't already have one, you gain a focus pool of 1 Focus Point, which you can @Compendium[pf2e.actionspf2e.Refocus]{Refocus}by meditating within an area of dim light or darkness. The rules for focus spells appear on page 300 of the <em>Core Rulebook</em>.</p>\n<p>Shadowdancer focus spells are occult spells. You become trained in occult spell attack rolls and spell DCs, and your spellcasting ability for these spells is Charisma.</p>"
        },
        "featType": {
            "value": "archetype"
        },
        "level": {
            "value": "10"
        },
        "prerequisites": {
            "value": [
                "Shadowdancer Dedication"
            ]
        },
        "rarity": {
            "value": "common"
        },
        "rules": [],
        "source": {
            "value": ""
        },
        "traits": {
            "custom": "",
            "rarity": {
                "value": "common"
            },
            "value": [
                "archetype"
            ]
        }
    },
    "effects": [],
    "flags": {},
    "img": "systems/pf2e/icons/features/feats/feats.jpg",
    "name": "Shadow Magic",
    "permission": {
        "default": 0
    },
    "type": "feat"
}
