{
    "_id": "G8WgbujrrnMQUQ8E",
    "data": {
        "actionCategory": {
            "value": ""
        },
        "actionType": {
            "value": "passive"
        },
        "actions": {
            "value": ""
        },
        "description": {
            "chat": "",
            "unidentified": "",
            "value": "<p>You have an uncanny knack of communicating with other elves without speaking, though this habit that is often uncomfortable to observers. You can cast @Compendium[pf2e.spells-srd.Mindlink]{Mindlink}as an innate occult spell once per day, but you can target only other elves or half-elves.</p>"
        },
        "featType": {
            "value": "ancestry"
        },
        "level": {
            "value": "1"
        },
        "prerequisites": {
            "value": [
                ""
            ]
        },
        "rarity": {
            "value": "common"
        },
        "rules": [],
        "source": {
            "value": ""
        },
        "traits": {
            "custom": "",
            "rarity": {
                "value": "common"
            },
            "value": [
                "elf"
            ]
        }
    },
    "effects": [],
    "flags": {},
    "img": "systems/pf2e/icons/features/feats/feats.jpg",
    "name": "Share Thoughts",
    "permission": {
        "default": 0
    },
    "type": "feat"
}
