{
    "_id": "E1WXnYE2QwhHQxQb",
    "data": {
        "actionCategory": {
            "value": ""
        },
        "actionType": {
            "value": "action"
        },
        "actions": {
            "value": "1"
        },
        "description": {
            "chat": "",
            "unidentified": "",
            "value": "<p><strong>Requirements</strong> You have a creature @Compendium[pf2e.conditionitems.Grabbed]{Grabbed} or @Compendium[pf2e.conditionitems.Restrained]{Restrained}.</p>\n<hr />\n<p>You pinch crucial points of your target's nervous system, impeding its ability to function. Attempt an Athletics check to Grapple the creature, with the following success and critical success effects instead of the usual effects.</p>\n<hr />\n<p><strong>Critical Success:</strong> The target falls @Compendium[pf2e.conditionitems.Unconscious]{Unconscious} for 1 minute, though it remains standing and doesn't drop what it holds.</p>\n<p><strong>Success:</strong> The target is @Compendium[pf2e.conditionitems.Clumsy]{Clumsy 1} until the end of its next turn.</p>"
        },
        "featType": {
            "value": "class"
        },
        "level": {
            "value": 10
        },
        "prerequisites": [],
        "rarity": {
            "value": "common"
        },
        "rules": [],
        "source": {
            "value": ""
        },
        "traits": {
            "custom": "",
            "rarity": {
                "value": "common"
            },
            "value": [
                "monk",
                "incapacitation"
            ]
        }
    },
    "effects": [],
    "flags": {},
    "img": "systems/pf2e/icons/features/feats/feats.jpg",
    "name": "Sleeper Hold",
    "permission": {
        "default": 0
    },
    "type": "feat"
}
