{
    "_id": "eMmdBpbMrpIuGowo",
    "data": {
        "actionCategory": {
            "value": ""
        },
        "actionType": {
            "value": "passive"
        },
        "actions": {
            "value": ""
        },
        "description": {
            "chat": "",
            "unidentified": "",
            "value": "<p>You are adept at the time-honored kobold art of trap making. You gain the trained proficiency in Crafting. If you were already trained in Crafting, you instead become trained in a skill of your choice. You gain access to all uncommon kobold snares.</p>\n<p>You gain the @Compendium[pf2e.feats-srd.Snare Crafting]{Snare Crafting} feat, though when choosing your formulas for that feat, you can also choose from uncommon kobold snares, as well as common snares.</p>"
        },
        "featType": {
            "value": "ancestry"
        },
        "level": {
            "value": "1"
        },
        "prerequisites": {
            "value": [
                "trained in Crafting"
            ]
        },
        "rarity": {
            "value": "common"
        },
        "rules": [],
        "source": {
            "value": ""
        },
        "traits": {
            "custom": "",
            "rarity": {
                "value": "common"
            },
            "value": [
                "kobold"
            ]
        }
    },
    "effects": [],
    "flags": {},
    "img": "systems/pf2e/icons/features/feats/feats.jpg",
    "name": "Snare Setter",
    "permission": {
        "default": 0
    },
    "type": "feat"
}
