{
    "_id": "pP4pbFBg5GAgcOE9",
    "data": {
        "actionCategory": {
            "value": ""
        },
        "actionType": {
            "value": "passive"
        },
        "actions": {
            "value": ""
        },
        "description": {
            "chat": "",
            "unidentified": "",
            "value": "<p>You’re the child of a winter hag, with one blue-white eye and an affinity for rime and snow. When moving over ice or snow in arctic terrain, you always gain the benefits of the Cover Tracks action without needing to use the activity or having to move half your Speed. You don’t treat icy terrain as uneven ground (though it’s still difficult terrain for you), and you ignore difficult terrain caused by snow. Cold precipitation and environmental cold effects don’t alter the time it takes for you to become @Compendium[pf2e.conditionitems.Fatigued]{Fatigued}.</p>"
        },
        "featType": {
            "value": "ancestry"
        },
        "level": {
            "value": 1
        },
        "location": "",
        "prerequisites": [],
        "rarity": {
            "value": "common"
        },
        "rules": [],
        "source": {
            "value": ""
        },
        "traits": {
            "custom": "",
            "rarity": {
                "value": "common"
            },
            "value": [
                "changeling",
                "lineage"
            ]
        },
        "usage": {
            "value": ""
        }
    },
    "effects": [],
    "flags": {},
    "img": "systems/pf2e/icons/features/feats/feats.jpg",
    "name": "Snow May",
    "permission": {
        "default": 0
    },
    "type": "feat"
}
