{
    "_id": "pedHIDAVLFzzjGO1",
    "data": {
        "actionCategory": {
            "value": ""
        },
        "actionType": {
            "value": "passive"
        },
        "actions": {
            "value": ""
        },
        "description": {
            "chat": "",
            "unidentified": "",
            "value": "<p>You don't just resist magic; you devour it. Whenever you succeed at a saving throw against a spell or magical effect, you gain temporary Hit Points equal to double the spell's level, or equal to the level if the magical effect isn't a spell. These temporary Hit Points last until the end of your next turn.</p>"
        },
        "featType": {
            "value": "ancestry"
        },
        "level": {
            "value": "13"
        },
        "prerequisites": {
            "value": [
                "Pervasive Superstition"
            ]
        },
        "rarity": {
            "value": "common"
        },
        "rules": [],
        "source": {
            "value": ""
        },
        "traits": {
            "custom": "",
            "rarity": {
                "value": "common"
            },
            "value": [
                "orc"
            ]
        }
    },
    "effects": [],
    "flags": {},
    "img": "systems/pf2e/icons/features/feats/feats.jpg",
    "name": "Spell Devourer",
    "permission": {
        "default": 0
    },
    "type": "feat"
}
