{
    "_id": "7FRYyKXDKjGoANYj",
    "data": {
        "actionCategory": {
            "value": ""
        },
        "actionType": {
            "value": "action"
        },
        "actions": {
            "value": "1"
        },
        "description": {
            "chat": "",
            "unidentified": "",
            "value": "<p>You enter a seemingly unfocused stance that mimics the movements of the inebriated-bobbing, weaving, leaving false openings, and distracting your enemies from your true movements.</p>\n<p>While in this stance, you gain a +1 circumstance bonus to Deception checks to @Compendium[pf2e.actionspf2e.Feint]{Feint}. The only @Compendium[pf2e.actionspf2e.Strike]{Strikes} you can make are stumbling swing unarmed attacks. These deal [[/r 1d8 #bludgeoning]] bludgeoning damage; are in the brawling group; and have the agile, backstabber, finesse, nonlethal, and unarmed traits.</p>\n<p>If an enemy hits you with a melee Strike while in this stance, it becomes @Compendium[pf2e.conditionitems.Flat-Footed]{Flat-Footed} against the next stumbling swing Strike you make against it before the end of your next turn.</p>\n<p>@Compendium[pf2e.feat-effects.Stance: Stumbling Stance]{Stance: Stumbling Stance}</p>"
        },
        "featType": {
            "value": "class"
        },
        "level": {
            "value": 1
        },
        "prerequisites": {
            "value": [
                "trained in Deception"
            ]
        },
        "rarity": {
            "value": "common"
        },
        "rules": [],
        "source": {
            "value": ""
        },
        "traits": {
            "custom": "",
            "rarity": {
                "value": "common"
            },
            "value": [
                "monk",
                "stance"
            ]
        }
    },
    "effects": [],
    "flags": {},
    "img": "systems/pf2e/icons/features/feats/feats.jpg",
    "name": "Stumbling Stance",
    "permission": {
        "default": 0
    },
    "type": "feat"
}
