{
    "_id": "jkBzlMB4TS1sS2Fm",
    "data": {
        "actionCategory": {
            "value": ""
        },
        "actionType": {
            "value": "action"
        },
        "actions": {
            "value": "1"
        },
        "description": {
            "chat": "",
            "unidentified": "",
            "value": "<p>You attempt a dizzying blow. Make a melee @Compendium[pf2e.actionspf2e.Strike]{Strike}. If you hit, your foe must attempt a Fortitude save against your class DC with the following results; the save has the incapacitation trait.</p>\n<p><strong>Critical Success</strong> The target is unaffected.</p>\n<p><strong>Success</strong> The target can't use reactions until its next turn.</p>\n<p><strong>Failure</strong> The target is @Compendium[pf2e.conditionitems.Stunned]{Stunned} 1.</p>\n<p><strong>Critical Failure</strong> The target is stunned 3.</p>"
        },
        "featType": {
            "value": "class"
        },
        "level": {
            "value": "8"
        },
        "prerequisites": {
            "value": [
                ""
            ]
        },
        "rarity": {
            "value": "common"
        },
        "rules": [],
        "source": {
            "value": ""
        },
        "traits": {
            "custom": "",
            "rarity": {
                "value": "common"
            },
            "value": [
                "finisher",
                "swashbuckler"
            ]
        }
    },
    "effects": [],
    "flags": {},
    "img": "systems/pf2e/icons/features/feats/feats.jpg",
    "name": "Stunning Finisher",
    "permission": {
        "default": 0
    },
    "type": "feat"
}
