{
    "_id": "04RgXKFVC2A6Ryn6",
    "data": {
        "actionCategory": {
            "value": ""
        },
        "actionType": {
            "value": "passive"
        },
        "actions": {
            "value": ""
        },
        "description": {
            "chat": "",
            "unidentified": "",
            "value": "<p>Whenever you make a @Compendium[pf2e.actionspf2e.Strike]{Strike} with an improvised weapon against a creature that hasn't seen you make a Strike using an improvised weapon or that is otherwise ignorant of your skill with improvised weapons, the creature is @Compendium[pf2e.conditionitems.Flat-Footed]{Flat-Footed} against you for that Strike.</p>"
        },
        "featType": {
            "value": "archetype"
        },
        "level": {
            "value": "6"
        },
        "prerequisites": {
            "value": [
                "Weapon Improviser Dedication"
            ]
        },
        "rarity": {
            "value": "common"
        },
        "rules": [],
        "source": {
            "value": ""
        },
        "traits": {
            "custom": "",
            "rarity": {
                "value": "common"
            },
            "value": [
                "archetype"
            ]
        }
    },
    "effects": [],
    "flags": {},
    "img": "systems/pf2e/icons/features/feats/feats.jpg",
    "name": "Surprise Strike",
    "permission": {
        "default": 0
    },
    "type": "feat"
}
