{
    "_id": "P1dk0LTWkQ1LT1ai",
    "data": {
        "actionCategory": {
            "value": ""
        },
        "actionType": {
            "value": "passive"
        },
        "actions": {
            "value": ""
        },
        "description": {
            "chat": "",
            "unidentified": "",
            "value": "<p>You were born to one of the moroi, the most common vampires, and you share their supernatural fortitude and power of persuasion.</p>\n<p>When you have the @Compendium[pf2e.conditionitems.Drained]{Drained} condition, calculate the penalty to your Fortitude saves and your Hit Point reduction as though the condition value were 1 lower.</p>\n<p>You are trained Diplomacy. If you would automatically be trained in it, you instead become trained in a skill of your choice.</p>"
        },
        "featType": {
            "value": "ancestry"
        },
        "level": {
            "value": "1"
        },
        "prerequisites": {
            "value": [
                ""
            ]
        },
        "rarity": {
            "value": "common"
        },
        "rules": [],
        "source": {
            "value": ""
        },
        "traits": {
            "custom": "",
            "rarity": {
                "value": "common"
            },
            "value": [
                "dhampir",
                "lineage"
            ]
        }
    },
    "effects": [],
    "flags": {},
    "img": "systems/pf2e/icons/features/feats/feats.jpg",
    "name": "Svetocher",
    "permission": {
        "default": 0
    },
    "type": "feat"
}
