{
    "_id": "sfxLo9kz2WkCQiy4",
    "data": {
        "actionCategory": {
            "value": ""
        },
        "actionType": {
            "value": "passive"
        },
        "actions": {
            "value": ""
        },
        "description": {
            "chat": "",
            "unidentified": "",
            "value": "<p>You are able to weave countless performances together into a solo symphony. You are no longer limited to a single composition each turn or a single composition at a time; when you use a new composition, all previous compositions' effects continue for their remaining duration.</p>"
        },
        "featType": {
            "value": "class"
        },
        "level": {
            "value": 20
        },
        "prerequisites": [
            "Harmonize"
        ],
        "rarity": {
            "value": "common"
        },
        "rules": [],
        "source": {
            "value": ""
        },
        "traits": {
            "custom": "",
            "rarity": {
                "value": "common"
            },
            "value": [
                "bard"
            ]
        }
    },
    "effects": [],
    "flags": {},
    "img": "systems/pf2e/icons/features/feats/feats.jpg",
    "name": "Symphony of the Muse",
    "permission": {
        "default": 0
    },
    "type": "feat"
}
