{
    "_id": "ADDOwO0QWOXAV85x",
    "data": {
        "actionCategory": {
            "value": ""
        },
        "actionType": {
            "value": "passive"
        },
        "actions": {
            "value": ""
        },
        "description": {
            "chat": "",
            "unidentified": "",
            "value": "<p>You channel strength from the earth beneath your feet to pummel your enemies. When making a melee @Compendium[pf2e.actionspf2e.Strike]{Strike} against a target who is standing on the same earth or stone surface as you are, you gain a circumstance bonus to the damage roll equal to the number of weapon damage dice.</p>"
        },
        "featType": {
            "value": "ancestry"
        },
        "level": {
            "value": "13"
        },
        "prerequisites": {
            "value": [
                ""
            ]
        },
        "rarity": {
            "value": "common"
        },
        "rules": [],
        "source": {
            "value": ""
        },
        "traits": {
            "custom": "",
            "rarity": {
                "value": "common"
            },
            "value": [
                "dwarf"
            ]
        }
    },
    "effects": [],
    "flags": {},
    "img": "systems/pf2e/icons/features/feats/feats.jpg",
    "name": "Telluric Power",
    "permission": {
        "default": 0
    },
    "type": "feat"
}
