{
    "_id": "MXkklchuimVSHZyd",
    "data": {
        "actionCategory": {
            "value": ""
        },
        "actionType": {
            "value": "free"
        },
        "actions": {
            "value": ""
        },
        "description": {
            "chat": "",
            "unidentified": "",
            "value": "<p><strong>Frequency</strong> once per day<br /><strong>Trigger</strong> You succeed at a skill check to @Compendium[pf2e.actionspf2e.Recall Knowledge (Arcana)]{Recall Knowledge} to identify a creature.<br /></p>\n<hr />\n<p>You study a creature's form and behavior to hypothesize likely means of overcoming its strengths. Once before the end of your next turn, you can use the skill modifier from the triggering check in place of your saving throw modifier against one of the creature's abilities, in place of your Perception modifier to Seek the creature, in place of your Deception modifier to Feint against the creature, or in place of your Intimidation modifier to Demoralize the creature. Alternatively, against one of the creature's attacks, you can use your DC for the skill used in the triggering check in place of your AC.</p>"
        },
        "featType": {
            "value": "ancestry"
        },
        "level": {
            "value": "1"
        },
        "prerequisites": {
            "value": [
                ""
            ]
        },
        "rarity": {
            "value": "common"
        },
        "rules": [],
        "source": {
            "value": ""
        },
        "traits": {
            "custom": "",
            "rarity": {
                "value": "common"
            },
            "value": [
                "gnome"
            ]
        }
    },
    "effects": [],
    "flags": {},
    "img": "systems/pf2e/icons/features/feats/feats.jpg",
    "name": "Theoretical Acumen",
    "permission": {
        "default": 0
    },
    "type": "feat"
}
