{
    "_id": "rpxFVUp8BuF31DYg",
    "data": {
        "actionCategory": {
            "value": ""
        },
        "actionType": {
            "value": "passive"
        },
        "actions": {
            "value": ""
        },
        "description": {
            "chat": "",
            "unidentified": "",
            "value": "<p>You can access the fundamental abilities of any school of magic. During your daily preparations, choose one of the eight school spells gained by 1st-level specialist wizards. You can use that school spell until your next daily preparations. When you Refocus, you can choose a different school spell from among those eight school spells, replacing the previous one. Increase the number of Focus Points in your focus pool by 1.</p>"
        },
        "featType": {
            "value": "class"
        },
        "level": {
            "value": 8
        },
        "prerequisites": [
            "universalist wizard",
            "Hand of the Apprentice"
        ],
        "rarity": {
            "value": "common"
        },
        "rules": [],
        "source": {
            "value": ""
        },
        "traits": {
            "custom": "",
            "rarity": {
                "value": "common"
            },
            "value": [
                "wizard"
            ]
        }
    },
    "effects": [],
    "flags": {},
    "img": "systems/pf2e/icons/features/feats/feats.jpg",
    "name": "Universal Versatility",
    "permission": {
        "default": 0
    },
    "type": "feat"
}
