{
    "_id": "2Tla5D1vpGioh42x",
    "data": {
        "actionCategory": {
            "value": ""
        },
        "actionType": {
            "value": "passive"
        },
        "actions": {
            "value": ""
        },
        "description": {
            "chat": "",
            "unidentified": "",
            "value": "<p>You can understand the true meaning of texts quickly, and even when you get lost or hit a dead end, you aren't discouraged from making further attempts to get to the bottom of things. When you Decipher Writing, you need only half as long as usual (reducing the time from about 1 minute to about half a minute per page), and if you fail, you don't take the usual -2 circumstance penalty to further checks to decipher that text.</p>"
        },
        "featType": {
            "value": "archetype"
        },
        "level": {
            "value": 8
        },
        "prerequisites": [
            "master in a Decipher Writing skill",
            "Scrollmaster Dedication"
        ],
        "rarity": {
            "value": "common"
        },
        "rules": [],
        "source": {
            "value": ""
        },
        "traits": {
            "custom": "",
            "rarity": {
                "value": "common"
            },
            "value": [
                "skill",
                "archetype"
            ]
        }
    },
    "effects": [],
    "flags": {},
    "img": "systems/pf2e/icons/features/feats/feats.jpg",
    "name": "Unravel Mysteries",
    "permission": {
        "default": 0
    },
    "type": "feat"
}
