{
    "_id": "cppQZwnuoXqX8mgF",
    "data": {
        "actionCategory": {
            "value": ""
        },
        "actionType": {
            "value": "passive"
        },
        "actions": {
            "value": ""
        },
        "description": {
            "chat": "",
            "unidentified": "",
            "value": "<p>To resurrect a creature you've slain, a spellcaster must counteract your influence on its death. The DC of this check is equal to your class DC or spell DC, whichever is higher.</p>\n<p>In addition, add two 5th-level spells to your Red Mantis assassin spellbook-both spells must be chosen from the following options:</p>\n<ul>\n<li>@Compendium[pf2e.spells-srd.Death Ward]{Death Ward},</li>\n<li>@Compendium[pf2e.spells-srd.Drop Dead]{Drop Dead},</li>\n<li>@Compendium[pf2e.spells-srd.False Vision]{False Vision},</li>\n<li>@Compendium[pf2e.spells-srd.Hallucination]{Hallucination},</li>\n<li>@Compendium[pf2e.spells-srd.Illusory Scene]{Illusory Scene},</li>\n<li>@Compendium[pf2e.spells-srd.Mind Probe]{Mind Probe}, or</li>\n<li>@Compendium[pf2e.spells-srd.Sending]{Sending}.</li>\n</ul>\n<p>You gain a 5th-level spell slot that you can use to prepare a spell from your Red Mantis assassin spellbook.</p>"
        },
        "featType": {
            "value": "archetype"
        },
        "level": {
            "value": 12
        },
        "prerequisites": [
            "Achaekek's Grip",
            "Advanced Red Mantis Magic"
        ],
        "rarity": {
            "value": "common"
        },
        "rules": [],
        "source": {
            "value": ""
        },
        "traits": {
            "custom": "",
            "rarity": {
                "value": "rare"
            },
            "selected": {
                "archetype": "Archetype"
            },
            "value": [
                "archetype"
            ]
        }
    },
    "effects": [],
    "flags": {},
    "img": "systems/pf2e/icons/features/feats/feats.jpg",
    "name": "Vernai Training",
    "permission": {
        "default": 0
    },
    "type": "feat"
}
