{
    "_id": "yZ7EcM9CLddZz8Hl",
    "data": {
        "actionCategory": {
            "value": ""
        },
        "actionType": {
            "value": "passive"
        },
        "actions": {
            "value": ""
        },
        "description": {
            "chat": "",
            "unidentified": "",
            "value": "<p>As you explore your deity's aspects, you move beyond restrictions on healing or harming. You can prepare either @Compendium[pf2e.spells-srd.Harm]{Harm} or @Compendium[pf2e.spells-srd.Heal]{Heal}in the spell slots gained from the harmful font or healing font.</p>"
        },
        "featType": {
            "value": "class"
        },
        "level": {
            "value": 2
        },
        "location": "",
        "prerequisites": [
            "harmful font or healing font",
            "deity that allows clerics to have both fonts"
        ],
        "rarity": {
            "value": "common"
        },
        "rules": [],
        "source": {
            "value": ""
        },
        "traits": {
            "custom": "",
            "rarity": {
                "value": "common"
            },
            "value": [
                "cleric"
            ]
        }
    },
    "effects": [],
    "flags": {},
    "img": "systems/pf2e/icons/features/feats/feats.jpg",
    "name": "Versatile Font",
    "permission": {
        "default": 0
    },
    "type": "feat"
}
