{
    "_id": "JuEUNrvsxOYdXeYL",
    "data": {
        "actionCategory": {
            "value": ""
        },
        "actionType": {
            "value": "passive"
        },
        "actions": {
            "value": ""
        },
        "description": {
            "chat": "",
            "unidentified": "",
            "value": "<p>Vikings spend long periods of time at sea, only to leap from their boats at a moment's notice, charge through the surf, and take their enemies by storm. You're trained in Sailing Lore. When moving through water using your land Speed, you ignore difficult terrain resulting from shallow water, such as in bogs or on beaches. In addition, if you roll a success for your Athletics check to @Compendium[pf2e.actionspf2e.Swim]{Swim}, you get a critical success instead.</p>\n<p><strong>Special</strong> You can't select another dedication feat until you have gained two other feats from the viking archetype.</p>"
        },
        "featType": {
            "value": "archetype"
        },
        "level": {
            "value": "2"
        },
        "prerequisites": {
            "value": [
                "trained in Athletics"
            ]
        },
        "rarity": {
            "value": "common"
        },
        "rules": [],
        "source": {
            "value": ""
        },
        "traits": {
            "custom": "",
            "rarity": {
                "value": "common"
            },
            "value": [
                "archetype",
                "dedication"
            ]
        }
    },
    "effects": [],
    "flags": {},
    "img": "systems/pf2e/icons/features/feats/feats.jpg",
    "name": "Viking Dedication",
    "permission": {
        "default": 0
    },
    "type": "feat"
}
