{
    "_id": "J1MURfqf0kbxrKG9",
    "data": {
        "actionCategory": {
            "value": ""
        },
        "actionType": {
            "value": "passive"
        },
        "actions": {
            "value": ""
        },
        "description": {
            "chat": "",
            "unidentified": "",
            "value": "<p>You gain a tattoo that serves as a special ward to defend you against Walkena's forces.</p>\n<p>The tattoo allows you to cast the @Compendium[pf2e.spells-srd.Light]{Light} cantrip as a divine innate spell at will. The cantrip is heightened to a spell level equal to half your level rounded up. If you die, the tattoo immediately casts @Compendium[pf2e.spells-srd.Gentle Repose]{Gentle Repose} on your corpse, heightened to the same spell level.</p>"
        },
        "featType": {
            "value": "archetype"
        },
        "level": {
            "value": "4"
        },
        "prerequisites": {
            "value": [
                "Bright Lion Dedication"
            ]
        },
        "rarity": {
            "value": "common"
        },
        "rules": [],
        "source": {
            "value": ""
        },
        "traits": {
            "custom": "",
            "rarity": {
                "value": "common"
            },
            "selected": {
                "archetype": "Archetype"
            },
            "value": [
                "archetype"
            ]
        }
    },
    "effects": [],
    "flags": {},
    "img": "systems/pf2e/icons/features/feats/feats.jpg",
    "name": "Warding Light",
    "permission": {
        "default": 0
    },
    "type": "feat"
}
