{
    "_id": "QUaSGUmRnlMbzw1P",
    "data": {
        "actionCategory": {
            "value": ""
        },
        "actionType": {
            "value": "passive"
        },
        "actions": {
            "value": ""
        },
        "description": {
            "chat": "",
            "unidentified": "",
            "value": "<p>Your fan can stir up even more powerful winds. You can Activate your tengu feather fan one additional time per day. Add the 3rd-level @Compendium[pf2e.spells-srd.Wall of Wind]{Wall of Wind} spell to the spells contained within your fan.</p>"
        },
        "featType": {
            "value": "ancestry"
        },
        "level": {
            "value": 9
        },
        "location": "",
        "prerequisites": [
            "Tengu Feather Fan"
        ],
        "rarity": {
            "value": "common"
        },
        "rules": [],
        "source": {
            "value": ""
        },
        "traits": {
            "custom": "",
            "rarity": {
                "value": "common"
            },
            "value": [
                "tengu"
            ]
        },
        "usage": {
            "value": ""
        }
    },
    "effects": [],
    "flags": {},
    "img": "systems/pf2e/icons/features/feats/feats.jpg",
    "name": "Wind God’s Fan",
    "permission": {
        "default": 0
    },
    "type": "feat"
}
