{
    "_id": "La6t4fVId26PkmYk",
    "data": {
        "actionCategory": {
            "value": ""
        },
        "actionType": {
            "value": "passive"
        },
        "actions": {
            "value": ""
        },
        "description": {
            "chat": "",
            "unidentified": "",
            "value": "<p><strong>Minor Boon</strong>: Cayden Cailean helps you recover from nights of carousing.</p>\n<p>While you still get drunk and otherwise experience the effects of alcohol normally, you are never hung over the next morning.</p>"
        },
        "featType": {
            "value": "deityboon"
        },
        "level": {
            "value": "0"
        },
        "prerequisites": {
            "value": ""
        },
        "rarity": {
            "value": "common"
        },
        "rules": [],
        "source": {
            "value": ""
        },
        "traits": {
            "custom": "",
            "rarity": {
                "value": "common"
            },
            "selected": {},
            "value": []
        }
    },
    "effects": [],
    "flags": {},
    "img": "systems/pf2e/icons/deity/Cayden%20Cailean.png",
    "name": "Cayden Cailean - Minor Boon",
    "permission": {
        "default": 0
    },
    "type": "feat"
}
