{
    "_id": "x1QrKuvZ2TbTvLUY",
    "data": {
        "actionCategory": {
            "value": ""
        },
        "actionType": {
            "value": "passive"
        },
        "actions": {
            "value": ""
        },
        "description": {
            "chat": "",
            "unidentified": "",
            "value": "<p><strong>Moderate Curse</strong>: Cayden has afflicted you with cowardice. Whenever you roll a critical success on a saving throw against a fear effect, you get a success instead, and each time you roll a failure on a saving throw against a fear effect, you get a critical failure instead.</p>"
        },
        "featType": {
            "value": "curse"
        },
        "level": {
            "value": "0"
        },
        "prerequisites": {
            "value": ""
        },
        "rarity": {
            "value": "common"
        },
        "rules": [],
        "source": {
            "value": ""
        },
        "traits": {
            "custom": "",
            "rarity": {
                "value": "common"
            },
            "selected": {},
            "value": []
        }
    },
    "effects": [],
    "flags": {},
    "img": "systems/pf2e/icons/deity/Cayden%20Cailean.png",
    "name": "Cayden Cailean - Moderate Curse",
    "permission": {
        "default": 0
    },
    "type": "feat"
}
