{
    "_id": "lR9KS3pQ4gGKNspP",
    "data": {
        "actionCategory": {
            "value": ""
        },
        "actionType": {
            "value": "passive"
        },
        "actions": {
            "value": ""
        },
        "description": {
            "chat": "",
            "unidentified": "",
            "value": "<p><strong>Moderate Curse</strong>: You've lost the glory of slaying a worthy opponent.</p>\n<p>All of your weapon and unarmed attacks decrease their damage dice by one step, and all your attacks are nonlethal.</p>"
        },
        "featType": {
            "value": "curse"
        },
        "level": {
            "value": "0"
        },
        "prerequisites": {
            "value": ""
        },
        "rarity": {
            "value": "common"
        },
        "rules": [],
        "source": {
            "value": ""
        },
        "traits": {
            "custom": "",
            "rarity": {
                "value": "common"
            },
            "selected": {},
            "value": []
        }
    },
    "effects": [],
    "flags": {},
    "img": "systems/pf2e/icons/deity/Gorum.png",
    "name": "Gorum - Moderate Curse",
    "permission": {
        "default": 0
    },
    "type": "feat"
}
