{
    "_id": "8ZNtiMxoJIP1DJ9Q",
    "data": {
        "actionCategory": {
            "value": ""
        },
        "actionType": {
            "value": "passive"
        },
        "actions": {
            "value": ""
        },
        "description": {
            "chat": "",
            "unidentified": "",
            "value": "<p><strong>Major Boon</strong>: You are granted supreme magical knowledge and mastery.</p>\n<p>If you are a prepared spellcaster, you can switch one of your prepared spells for another spell you could have prepared in that slot; if you are a spontaneous spellcaster, you can switch one of the spells in your spell repertoire for another spell you could have chosen for your repertoire instead.</p>\n<p>In either case, you make this switch by using a single action, which has the concentrate trait. (If you are neither a prepared nor a spontaneous spellcaster, Nethys won't grant you his major boon.)</p>"
        },
        "featType": {
            "value": "deityboon"
        },
        "level": {
            "value": "0"
        },
        "prerequisites": {
            "value": ""
        },
        "rarity": {
            "value": "common"
        },
        "rules": [],
        "source": {
            "value": ""
        },
        "traits": {
            "custom": "",
            "rarity": {
                "value": "common"
            },
            "selected": {},
            "value": []
        }
    },
    "effects": [],
    "flags": {},
    "img": "systems/pf2e/icons/deity/Nethys.png",
    "name": "Nethys - Major Boon",
    "permission": {
        "default": 0
    },
    "type": "feat"
}
