{
    "_id": "GgZAHbrjnzWOZy2v",
    "data": {
        "additionalLanguages": {
            "count": 0,
            "custom": "",
            "value": [
                "dwarven",
                "elven",
                "gnomish",
                "goblin"
            ]
        },
        "boosts": {
            "0": {
                "value": [
                    "dex"
                ]
            },
            "1": {
                "value": [
                    "wis"
                ]
            },
            "2": {
                "value": [
                    "str",
                    "dex",
                    "con",
                    "int",
                    "wis",
                    "cha"
                ]
            }
        },
        "description": {
            "chat": "",
            "unidentified": "",
            "value": "<p><em>Claiming no place as their own, halflings control few settlements larger than villages. Instead, they frequently live among humans within the walls of larger cities, carving out small communities alongside taller folk. Many halflings lead perfectly fulfilling lives in the shadows of their larger neighbors, while others prefer a nomadic existence, traveling the world and taking advantage of opportunities and adventures as they come.</em></p>\n<hr />\n<p>Optimistic and cheerful, blessed with uncanny luck, and driven by powerful wanderlust, halflings make up for their short stature with an abundance of bravado and curiosity. At once excitable and easygoing, they are the best kind of opportunists, and their passions favor joy over violence. Even in the jaws of danger, halflings rarely lose their sense of humor.</p>\n<p>Many taller people dismiss halflings due to their size or, worse, treat them like children. Halflings use these prejudices and misconceptions to their advantage, gaining access to opportunities and performing deeds of daring mischief or heroism. A halfling's curiosity is tempered by wisdom and caution, leading to calculated risks and narrow escapes.</p>\n<p>While their wanderlust and curiosity sometimes drive them toward adventure, halflings also carry strong ties to house and home, often spending above their means to achieve comfort in their homelife.</p>\n<p>If you want to play a character who must contend with these opposing drives toward adventure and comfort, you should play a halfling.</p>\n<h2>You Might...</h2>\n<ul>\n<li>Get along well with a wide variety of people and enjoy meeting new friends.</li>\n<li>Find it difficult to resist indulging your curiosity, even when you know it's going to lead to trouble.</li>\n<li>Hold a deep and personal hatred of the practice of slavery and devote yourself to freeing those who still labor against their will.</li>\n</ul>\n<h2>Others Probably...</h2>\n<ul>\n<li>Appreciate your ability to always find a silver lining or something to laugh about, no matter how dire the situation.</li>\n<li>Think you bring good luck with you.</li>\n<li>Underestimate your strength, endurance, and fighting prowess.</li>\n</ul>\n<h2>Physical Description</h2>\n<p>Halflings are short humanoids who look vaguely like smaller humans. They rarely grow to be more than 3 feet in height. Halfling proportions vary, with some looking like shorter adult humans with slightly larger heads and others having proportions closer to those of a human child.</p>\n<p>Most halflings prefer to walk barefoot rather than wearing shoes, and those who do so develop roughly calloused soles on their feet over time. Tufts of thick, often-curly hair warm the tops of their broad, tanned feet. Halfling skin tones tend toward rich, tawny shades like amber or oak, and their hair color ranges from a light golden blond to raven black.</p>\n<p>Halflings reach physical adulthood around the age of 20. A typical halfling can live to be around 150 years old.</p>\n<h2>Society</h2>\n<p>Despite their jovial and friendly nature, halflings don't usually tend to congregate. They have no cultural homeland in the Inner Sea region, and they instead weave themselves throughout the societies of the world. Halflings eke out whatever living they can manage, many performing menial labor or holding simple service jobs. Some halflings reject city life, instead turning to the open road and traveling from place to place in search of fortune and fame. These nomadic halflings often travel in small groups, sharing hardships and simple pleasures among close friends and family.</p>\n<p>Wherever halflings go, they seamlessly blend into the society they find themselves in, adapting to the culture of the predominant ancestry around them and adding their uniquely halfling twists, creating a blend of cultural diffusion that enriches both cultures.</p>\n<h2>Alignment and Religion</h2>\n<p>Halflings are loyal to their friends and their family, but they aren't afraid to do what needs to be done in order to survive. Halfling alignments vary, typically closely in keeping with the alignment of the other ancestries that live around them. Halflings favor gods that either grant luck, like Desna, or encourage guile, like Norgorber, and many appreciate Cayden Cailean's role as a liberator, as well as any religions common among other ancestries around them.</p>\n<h2>Adventurers</h2>\n<p>Halflings' natural wanderlust and opportunistic nature make them ideal adventurers. Many people put up with their vivacious attitudes in return for the natural talents they provide and the popular superstition that traveling with a halfling is good luck.</p>\n<p>Typical backgrounds for halflings include acrobat, criminal, emissary, entertainer, laborer, and street urchin. Halflings make great clerics and rogues, but many also become monks or rangers.</p>\n<h2>Names</h2>\n<p>Halfling names are usually two to three syllables, with a gentle sound that avoids hard consonants. Preferring their names to sound humble, halflings see overly long or complex names as a sign of arrogance. This goes only for their own people, however—halflings have names that suit them, and they understand that elves and humans might have longer names to suit their own aesthetics. Humans in particular have a tendency to refer to halflings by nicknames, with 'Lucky' being common to the point of absurdity.</p>\n<h3><span style=\"text-decoration: underline;\">Sample Names</span></h3>\n<p>Anafa, Antal, Bellis, Boram, Etune, Filiu, Jamir, Kaleb, Linna, Marra, Miro, Rillka, Sistra, Sumak, Yamyra</p>"
        },
        "flaws": {
            "0": {
                "value": [
                    "str"
                ]
            }
        },
        "hp": 6,
        "items": {
            "3084v": {
                "id": "y1EmCv2cEb5hXBwx",
                "img": "systems/pf2e/icons/features/ancestry/keen-eyes.jpg",
                "level": "0",
                "name": "Keen Eyes",
                "pack": "pf2e.ancestryfeatures"
            }
        },
        "languages": {
            "custom": "",
            "value": [
                "common",
                "halfling"
            ]
        },
        "rarity": {
            "value": "common"
        },
        "reach": 5,
        "rules": [],
        "size": "sm",
        "source": {
            "value": ""
        },
        "speed": 25,
        "traits": {
            "custom": "",
            "rarity": {
                "value": "common"
            },
            "value": [
                "halfling",
                "humanoid"
            ]
        },
        "vision": "normal"
    },
    "effects": [],
    "flags": {},
    "img": "icons/svg/mystery-man.svg",
    "name": "Halfling",
    "permission": {
        "default": 0
    },
    "type": "ancestry"
}
