{
    "_id": "6embuvXCpS3YOD5u",
    "data": {
        "description": {
            "value": "<p>Granted by @Compendium[pf2e.spells-srd.Lay on Hands]{Lay on Hands} if you have @Compendium[pf2e.feats-srd.Resilient Touch]{Resilient Touch}.</p>\n<p>If the target is one of your allies, they also gain a +2 status bonus to AC and a +1 status bonus to their saving throws until the end of their next turn.</p>\n<p>&nbsp;</p>"
        },
        "duration": {
            "expiry": "turn-start",
            "sustained": false,
            "unit": "rounds",
            "value": 1
        },
        "level": {
            "value": 1
        },
        "rarity": {
            "value": "common"
        },
        "rules": [
            {
                "key": "PF2E.RuleElement.FlatModifier",
                "label": "Lay on Hands",
                "selector": "ac",
                "type": "status",
                "value": 2
            },
            {
                "key": "PF2E.RuleElement.TokenEffectIcon"
            },
            {
                "key": "PF2E.RuleElement.FlatModifier",
                "label": "Resilient Touch",
                "selector": "saving-throw",
                "type": "status",
                "value": 1
            }
        ],
        "source": {
            "value": ""
        },
        "start": {
            "initiative": null,
            "value": 0
        },
        "target": null,
        "traits": {
            "custom": "",
            "rarity": {
                "value": "common"
            },
            "value": []
        }
    },
    "effects": [],
    "flags": {},
    "img": "systems/pf2e/icons/spells/lay-on-hands.jpg",
    "name": "Spell Effect: Resilient Touch",
    "permission": {
        "default": 0
    },
    "type": "effect"
}
