{
    "_id": "hqe0hdGH1hvhcZyz",
    "data": {
        "description": {
            "value": "<p>Granted by @Compendium[pf2e.spells-srd.Wild Morph]{Wild Morph} if you have @Compendium[pf2e.feats-srd.Soaring Shape]{Soaring Shape}.</p>\n<p>You grow wings from your back. These wings allow you to fly with a fly Speed of 30 feet.</p>"
        },
        "duration": {
            "expiry": "turn-start",
            "sustained": false,
            "unit": "minutes",
            "value": 1
        },
        "level": {
            "value": 1
        },
        "rarity": {
            "value": "common"
        },
        "rules": [
            {
                "key": "PF2E.RuleElement.TokenEffectIcon"
            },
            {
                "key": "PF2E.RuleElement.BaseSpeed",
                "selector": "fly",
                "value": 30
            }
        ],
        "source": {
            "value": ""
        },
        "start": {
            "initiative": null,
            "value": 0
        },
        "target": null,
        "traits": {
            "custom": "",
            "rarity": {
                "value": "common"
            },
            "value": []
        }
    },
    "effects": [],
    "flags": {},
    "img": "systems/pf2e/icons/spells/wild-morph.jpg",
    "name": "Spell Effect: Wild Morph (Wings)",
    "permission": {
        "default": 0
    },
    "type": "effect"
}
