{
    "_id": "4ocPy4O0OCLY0XCM",
    "data": {
        "actionCategory": {
            "value": ""
        },
        "actionType": {
            "value": "passive"
        },
        "actions": {
            "value": ""
        },
        "description": {
            "chat": "",
            "unidentified": "",
            "value": "<p>You've trained to more effectively wield the weapons you find in your lab. Your proficiency ranks for simple weapons, unarmed attacks, and alchemical bombs increase to expert.</p>"
        },
        "featType": {
            "value": "classfeature"
        },
        "level": {
            "value": 7
        },
        "location": "",
        "prerequisites": {
            "value": ""
        },
        "rarity": {
            "value": "common"
        },
        "rules": [],
        "source": {
            "value": ""
        },
        "traits": {
            "custom": "",
            "rarity": {
                "value": "common"
            },
            "value": [
                "alchemist"
            ]
        }
    },
    "effects": [
        {
            "_id": "YwWGilUrVTFI0MdS",
            "changes": [
                {
                    "key": "data.martial.unarmed.rank",
                    "mode": 4,
                    "value": 2
                },
                {
                    "key": "data.martial.simple.rank",
                    "mode": 4,
                    "value": 2
                },
                {
                    "key": "data.martial.weapon-base-alchemical-bomb.rank",
                    "mode": 4,
                    "value": 2
                }
            ],
            "disabled": false,
            "duration": {
                "rounds": null,
                "seconds": null,
                "startRound": null,
                "startTime": null,
                "startTurn": null,
                "turns": null
            },
            "flags": {},
            "icon": "systems/pf2e/icons/features/classes/alchemical-weapon-expertise.jpg",
            "label": "Alchemical Weapon Expertise",
            "origin": "",
            "tint": "",
            "transfer": true
        }
    ],
    "flags": {},
    "img": "systems/pf2e/icons/features/classes/alchemical-weapon-expertise.jpg",
    "name": "Alchemical Weapon Expertise",
    "permission": {
        "default": 0
    },
    "type": "feat"
}
