{
    "_id": "SNZ46g3u7U6x0XJj",
    "data": {
        "actionCategory": {
            "value": ""
        },
        "actionType": {
            "value": "passive"
        },
        "actions": {
            "value": ""
        },
        "description": {
            "chat": "",
            "unidentified": "",
            "value": "<p><span>You've long held that fine-tuning the magic that bonds wizard and familiar can improve the mystic connection, compared to the safe yet generic bond most wizards currently use. You've formed such a pact with your familiar, gaining more advantages from it than most wizards. You gain the @Compendium[pf2e.feats-srd.Familiar]{Familiar} wizard feat as a bonus feat. Your familiar gains an extra ability, and it gains an additional extra ability when you reach 6th, 12th, and 18th levels. Your connection with your familiar alters your arcane bond class feature so that you store your magical energy in your familiar, rather than an item you own; you also gain the Drain Familiar free action instead of Drain Bonded Item. Drain Familiar can be used any time an ability would allow you to use Drain Bonded Item and functions identically, except that you draw magic from your familiar instead of an item.</span></p>"
        },
        "featType": {
            "value": "classfeature"
        },
        "level": {
            "value": "1"
        },
        "prerequisites": {
            "value": ""
        },
        "rarity": {
            "value": "common"
        },
        "rules": [
            {
                "key": "PF2E.RuleElement.FlatModifier",
                "selector": "familiar-abilities",
                "type": "untyped",
                "value": {
                    "brackets": [
                        {
                            "end": 5,
                            "value": 1
                        },
                        {
                            "end": 11,
                            "start": 6,
                            "value": 2
                        },
                        {
                            "end": 17,
                            "start": 12,
                            "value": 3
                        },
                        {
                            "start": 18,
                            "value": 4
                        }
                    ]
                }
            }
        ],
        "source": {
            "value": ""
        },
        "traits": {
            "custom": "",
            "rarity": {
                "value": "common"
            },
            "value": [
                "wizard"
            ]
        }
    },
    "effects": [],
    "flags": {},
    "img": "systems/pf2e/icons/features/classes/improved-familiar-attunement.jpg",
    "name": "Arcane Thesis: Improved Familiar Attunement",
    "permission": {
        "default": 0
    },
    "type": "feat"
}
