{
    "_id": "5LOARurr4qWkfS9K",
    "data": {
        "actionCategory": {
            "value": ""
        },
        "actionType": {
            "value": "passive"
        },
        "actions": {
            "value": ""
        },
        "description": {
            "chat": "",
            "unidentified": "",
            "value": "<p>Your unbelievable training grants you mental resiliency. Your proficiency rank for Will saves increases to legendary. When you roll a success at a Will save, you get a critical success. When you roll a critical failure at a Will save, you get a failure instead. When you roll a failure on a Will save against a damaging effect, you take half damage.</p>"
        },
        "featType": {
            "value": "classfeature"
        },
        "level": {
            "value": 17
        },
        "location": "",
        "prerequisites": [],
        "rarity": {
            "value": "common"
        },
        "rules": [
            {
                "key": "PF2E.RuleElement.Note",
                "selector": "will",
                "text": "<p class='compact-text'><strong>{item|name}</strong> When you roll a critical failure at a Will save, you get a failure instead. When you fail a Will save against a damaging effect, you take half damage.</p>"
            }
        ],
        "source": {
            "value": ""
        },
        "traits": {
            "custom": "",
            "rarity": {
                "value": "common"
            },
            "value": [
                "bard",
                "investigator",
                "oracle"
            ]
        }
    },
    "effects": [
        {
            "_id": "CPgQw1JHKZpxgMqB",
            "changes": [
                {
                    "key": "data.saves.will.rank",
                    "mode": 4,
                    "value": 4
                }
            ],
            "disabled": false,
            "duration": {
                "rounds": null,
                "seconds": null,
                "startRound": null,
                "startTime": null,
                "startTurn": null,
                "turns": null
            },
            "flags": {},
            "icon": "systems/pf2e/icons/features/classes/greater-resolve.jpg",
            "label": "Greater Resolve (Level 17)",
            "origin": "",
            "tint": "",
            "transfer": true
        }
    ],
    "flags": {},
    "img": "systems/pf2e/icons/features/classes/greater-resolve.jpg",
    "name": "Greater Resolve (Level 17)",
    "permission": {
        "default": 0
    },
    "type": "feat"
}
