{
    "_id": "TuL0UfqH14MtqYVh",
    "data": {
        "actionCategory": {
            "value": ""
        },
        "actionType": {
            "value": "passive"
        },
        "actions": {
            "value": ""
        },
        "description": {
            "chat": "",
            "unidentified": "",
            "value": "<p>You have a stalwart physiology. Your proficiency rank for Fortitude saves increases to legendary. When you roll a critical failure on a Fortitude save, you get a failure instead. When you roll a failure on a Fortitude save against an effect that deals damage, you halve the damage you take.</p>"
        },
        "featType": {
            "value": "classfeature"
        },
        "level": {
            "value": 13
        },
        "location": "",
        "prerequisites": {
            "value": ""
        },
        "rarity": {
            "value": "common"
        },
        "rules": [
            {
                "key": "PF2E.RuleElement.Note",
                "selector": "fortitude",
                "text": "<p class='compact-text'><strong>{item|name}</strong> When you roll a critical failure on a Fortitude save, you get a failure instead. When you fail a Fortitude save against an effect that deals damage, you halve the damage you take.</p>"
            }
        ],
        "source": {
            "value": ""
        },
        "traits": {
            "custom": "",
            "rarity": {
                "value": "common"
            },
            "value": [
                "barbarian"
            ]
        }
    },
    "effects": [
        {
            "_id": "IG36QNXB6r0qCibg",
            "changes": [
                {
                    "key": "data.saves.fortitude.rank",
                    "mode": 4,
                    "value": 4
                }
            ],
            "disabled": false,
            "duration": {
                "rounds": null,
                "seconds": null,
                "startRound": null,
                "startTime": null,
                "startTurn": null,
                "turns": null
            },
            "flags": {},
            "icon": "systems/pf2e/icons/features/classes/greater-juggernaut.jpg",
            "label": "Greater Juggernaut",
            "origin": "",
            "tint": "",
            "transfer": true
        }
    ],
    "flags": {},
    "img": "systems/pf2e/icons/features/classes/greater-juggernaut.jpg",
    "name": "Greater Juggernaut",
    "permission": {
        "default": 0
    },
    "type": "feat"
}
