{
    "_id": "25GSAotUcDwInYgG",
    "data": {
        "actionCategory": {
            "value": ""
        },
        "actionType": {
            "value": "passive"
        },
        "actions": {
            "value": ""
        },
        "description": {
            "chat": "",
            "unidentified": "",
            "value": "<p>Your physique is incredibly hardy. Your proficiency rank for Fortitude saves increases to expert.</p>"
        },
        "featType": {
            "value": "classfeature"
        },
        "level": {
            "value": 9
        },
        "location": "",
        "prerequisites": [],
        "rarity": {
            "value": "common"
        },
        "rules": [],
        "source": {
            "value": ""
        },
        "traits": {
            "custom": "",
            "rarity": {
                "value": "common"
            },
            "value": [
                "bard",
                "investigator",
                "rogue"
            ]
        }
    },
    "effects": [
        {
            "_id": "BUIWhKCfD24kuAzT",
            "changes": [
                {
                    "key": "data.saves.fortitude.rank",
                    "mode": 4,
                    "value": 2
                }
            ],
            "disabled": false,
            "duration": {
                "rounds": null,
                "seconds": null,
                "startRound": null,
                "startTime": null,
                "startTurn": null,
                "turns": null
            },
            "flags": {},
            "icon": "systems/pf2e/icons/features/classes/great-fortitude.jpg",
            "label": "Great Fortitude (Level 9)",
            "origin": "",
            "tint": "",
            "transfer": true
        }
    ],
    "flags": {},
    "img": "systems/pf2e/icons/features/classes/great-fortitude.jpg",
    "name": "Great Fortitude (Level 9)",
    "permission": {
        "default": 0
    },
    "type": "feat"
}
