{
    "_id": "LzB6X9vOaq3wq1FZ",
    "data": {
        "actionCategory": {
            "value": ""
        },
        "actionType": {
            "value": "passive"
        },
        "actions": {
            "value": ""
        },
        "description": {
            "chat": "",
            "unidentified": "",
            "value": "<p>You can defy fate and continue fighting as long as you have divine energy. You gain the @Compendium[pf2e.spells-srd.Hero's Defiance]{Hero's Defiance} devotion spell.</p>"
        },
        "featType": {
            "value": "classfeature"
        },
        "level": {
            "value": 19
        },
        "location": "",
        "prerequisites": {
            "value": ""
        },
        "rarity": {
            "value": "common"
        },
        "rules": [],
        "source": {
            "value": ""
        },
        "traits": {
            "custom": "",
            "rarity": {
                "value": "common"
            },
            "value": [
                "champion"
            ]
        }
    },
    "effects": [],
    "flags": {},
    "img": "systems/pf2e/icons/features/classes/heros-defiance.jpg",
    "name": "Hero's Defiance",
    "permission": {
        "default": 0
    },
    "type": "feat"
}
