{
    "_id": "UIHUNNYZyQ3p4Vmo",
    "data": {
        "actionCategory": {
            "value": ""
        },
        "actionType": {
            "value": "passive"
        },
        "actions": {
            "value": ""
        },
        "description": {
            "chat": "",
            "unidentified": "",
            "value": "<p>People can't help but trust you, whether through your inherent likableness or your firm insistence on sticking to the truth. You have a way about you that gets others talking, and you've developed interrogative techniques to help you get to the truth of your investigations.</p>\n<p>You are trained in Diplomacy. You gain the @Compendium[pf2e.feats-srd.No Cause For Alarm]{No Cause For Alarm} skill feat. You can also @Compendium[pf2e.actionspf2e.Pursue a Lead]{Pursue a Lead} over the course of a conversation rather than spending dedicated time looking into the lead, provided the conversation lasts 1 minute or longer. For example, while trying to @Compendium[pf2e.actionspf2e.Make an Impression]{Make an Impression}, you could pursue the creature you're conversing with as a lead, and you could Pursue a Lead about an object while someone is telling you information about that object. You also gain the @Compendium[pf2e.actionspf2e.Pointed Question]{Pointed Question} action.</p>"
        },
        "featType": {
            "value": "classfeature"
        },
        "level": {
            "value": 1
        },
        "location": "",
        "prerequisites": {
            "value": ""
        },
        "rarity": {
            "value": "common"
        },
        "rules": [],
        "source": {
            "value": ""
        },
        "traits": {
            "custom": "",
            "rarity": {
                "value": "common"
            },
            "value": [
                "investigator"
            ]
        }
    },
    "effects": [
        {
            "_id": "o7HmGTL9greus73D",
            "changes": [
                {
                    "key": "data.skills.dip.rank",
                    "mode": 4,
                    "value": 1
                }
            ],
            "disabled": false,
            "duration": {
                "rounds": null,
                "seconds": null,
                "startRound": null,
                "startTime": null,
                "startTurn": null,
                "turns": null
            },
            "flags": {},
            "icon": "systems/pf2e/icons/features/classes/interrogation-methodology.jpg",
            "label": "Interrogation Methodology",
            "origin": "",
            "tint": "",
            "transfer": true
        }
    ],
    "flags": {},
    "img": "systems/pf2e/icons/features/classes/interrogation-methodology.jpg",
    "name": "Interrogation Methodology",
    "permission": {
        "default": 0
    },
    "type": "feat"
}
