{
    "_id": "igMHwREgpM9GsvLs",
    "data": {
        "actionCategory": {
            "value": ""
        },
        "actionType": {
            "value": "passive"
        },
        "actions": {
            "value": ""
        },
        "description": {
            "value": "<p><strong>Favored Weapon</strong>: @Compendium[pf2e.equipment-srd.Dagger]{Dagger}</p>\n<p>The Hellknight signifers of the Order of the Gate seek to prevent lawlessness of all types through the use of their considerable spellcasting prowess and command of fiendish outsiders.</p>\n<hr />\n<p><strong>Lesser Benefit</strong>: @Compendium[pf2e.feats-srd.Locate Lawbreakers]{Locate Lawbreakers}</p>\n<p><strong>Greater Benefit</strong>: @Compendium[pf2e.feats-srd.Devil Allies]{Devil Allies}</p>"
        },
        "featType": {
            "value": "bonus"
        },
        "level": {
            "value": 0
        },
        "location": "",
        "prerequisites": {
            "value": []
        },
        "rarity": {
            "value": "common"
        },
        "rules": [],
        "source": {
            "value": ""
        },
        "traits": {
            "custom": "",
            "rarity": {
                "value": "common"
            },
            "value": []
        }
    },
    "effects": [],
    "flags": {},
    "img": "systems/pf2e/icons/default-icons/feat.svg",
    "name": "Order of the Gate",
    "permission": {
        "default": 0
    },
    "type": "feat"
}
