{
    "_id": "LzYi0OuOoypNb6jd",
    "data": {
        "actionCategory": {
            "value": ""
        },
        "actionType": {
            "value": "passive"
        },
        "actions": {
            "value": ""
        },
        "description": {
            "chat": "",
            "unidentified": "",
            "value": "<p>You care as much about the way you accomplish something as whether you actually accomplish it in the first place. When you perform an action with particular bravado, you can leverage this moment of verve to perform spectacular, deadly maneuvers. This state of flair is called panache, and you are either in a state of panache or you are not.</p>\n<p>@Compendium[pf2e.feature-effects.Effect: Panache]{Effect: Panache}</p>\n<p>You gain panache by successfully performing the skill check associated with specific actions that have a bit of flair, including @Compendium[pf2e.actionspf2e.Tumble Through]{Tumble Through} and additional actions determined by your swashbuckler's style (see below). At the GM's discretion, after succeeding at a check to perform a particularly daring action, such as swinging on a chandelier or sliding down a drapery, you also gain panache if your result is high enough (typically the very hard DC for your level, but the GM can choose a different threshold).</p>\n<p>While you have panache, you gain a +5-foot status bonus to your Speeds and gain a +1 circumstance bonus to checks to Tumble Through or to take any actions that give you panache due to your style. The precise strike class feature (page 85) also causes you to deal extra precision damage while you have panache. Powerful finisher actions, including Confident Finisher (page 85), can be used only while you have panache and cause you to lose your panache.</p>\n<p>Normally, you gain and use panache only in combat encounters; when an encounter ends, you lose panache</p>"
        },
        "featType": {
            "value": "classfeature"
        },
        "level": {
            "value": 1
        },
        "location": "",
        "prerequisites": {
            "value": ""
        },
        "rarity": {
            "value": "common"
        },
        "rules": [
            {
                "key": "PF2E.RuleElement.ToggleProperty",
                "property": "flags.pf2e.rollOptions.all.panache"
            },
            {
                "key": "PF2E.RuleElement.FlatModifier",
                "predicate": {
                    "all": [
                        "panache"
                    ],
                    "any": [
                        "action:tumble-through"
                    ]
                },
                "selector": "acrobatics",
                "type": "circumstance",
                "value": 1
            },
            {
                "key": "PF2E.RuleElement.FlatModifier",
                "predicate": {
                    "all": [
                        "panache"
                    ]
                },
                "roll-options": [
                    "speed",
                    "all"
                ],
                "selector": "speed",
                "type": "status",
                "value": 5
            }
        ],
        "source": {
            "value": ""
        },
        "traits": {
            "custom": "",
            "rarity": {
                "value": "common"
            },
            "value": [
                "swashbuckler"
            ]
        }
    },
    "effects": [],
    "flags": {},
    "img": "systems/pf2e/icons/features/classes/panache.jpg",
    "name": "Panache",
    "permission": {
        "default": 0
    },
    "type": "feat"
}
