{
    "_id": "QhoW8ivPvYmWzyEZ",
    "data": {
        "actionCategory": {
            "value": ""
        },
        "actionType": {
            "value": "passive"
        },
        "actions": {
            "value": ""
        },
        "description": {
            "chat": "",
            "unidentified": "",
            "value": "<p>You've dedicated yourself to learning the intricacies of your weapons. Your proficiency ranks for simple and martial weapons and unarmed attacks increases to expert. You gain access to the critical specialization effects of all simple and martial weapons and unarmed attacks when attacking your hunted prey.</p>"
        },
        "featType": {
            "value": "classfeature"
        },
        "level": {
            "value": 5
        },
        "location": "",
        "prerequisites": {
            "value": ""
        },
        "rarity": {
            "value": "common"
        },
        "rules": [],
        "source": {
            "value": ""
        },
        "traits": {
            "custom": "",
            "rarity": {
                "value": "common"
            },
            "value": [
                "ranger"
            ]
        }
    },
    "effects": [
        {
            "_id": "r0YG3sfMMLDQUYXu",
            "changes": [
                {
                    "key": "data.martial.simple.rank",
                    "mode": 4,
                    "value": 2
                },
                {
                    "key": "data.martial.martial.rank",
                    "mode": 4,
                    "value": 2
                },
                {
                    "key": "data.martial.unarmed.rank",
                    "mode": 4,
                    "value": 2
                }
            ],
            "disabled": false,
            "duration": {
                "rounds": null,
                "seconds": null,
                "startRound": null,
                "startTime": null,
                "startTurn": null,
                "turns": null
            },
            "flags": {},
            "icon": "systems/pf2e/icons/features/classes/ranger-weapon-expertise.jpg",
            "label": "Ranger Weapon Expertise",
            "origin": "",
            "tint": "",
            "transfer": true
        }
    ],
    "flags": {},
    "img": "systems/pf2e/icons/features/classes/ranger-weapon-expertise.jpg",
    "name": "Ranger Weapon Expertise",
    "permission": {
        "default": 0
    },
    "type": "feat"
}
