{
    "_id": "2Fe4YZCvAr9Yf6w7",
    "data": {
        "actionCategory": {
            "value": ""
        },
        "actionType": {
            "value": "passive"
        },
        "actions": {
            "value": ""
        },
        "description": {
            "chat": "",
            "unidentified": "",
            "value": "<p>When you strike carefully and with forethought, you deal a telling blow. When making a Strike that adds your Intelligence modifier on your attack roll due to @Compendium[pf2e.classfeatures.Devise a Stratagem]{Devising a Stratagem}, you deal an additional 1d6 precision damage.</p>\n<p>As your investigator level increases, so too does the deadliness of your strategic strike. Increase the number of dice by one at 5th, 9th, 13th, and 17th levels.</p>"
        },
        "featType": {
            "value": "classfeature"
        },
        "level": {
            "value": 1
        },
        "location": "",
        "prerequisites": {
            "value": ""
        },
        "rarity": {
            "value": "common"
        },
        "rules": [
            {
                "category": "precision",
                "dieSize": "d6",
                "key": "PF2E.RuleElement.DamageDice",
                "predicate": {
                    "all": [
                        "devise-a-stratagem"
                    ]
                },
                "selector": "damage",
                "value": {
                    "brackets": [
                        {
                            "end": 4,
                            "value": {
                                "diceNumber": 1
                            }
                        },
                        {
                            "end": 8,
                            "start": 5,
                            "value": {
                                "diceNumber": 2
                            }
                        },
                        {
                            "end": 12,
                            "start": 9,
                            "value": {
                                "diceNumber": 3
                            }
                        },
                        {
                            "end": 16,
                            "start": 13,
                            "value": {
                                "diceNumber": 4
                            }
                        },
                        {
                            "start": 17,
                            "value": {
                                "diceNumber": 5
                            }
                        }
                    ]
                }
            }
        ],
        "source": {
            "value": ""
        },
        "traits": {
            "custom": "",
            "rarity": {
                "value": "common"
            },
            "value": [
                "investigator"
            ]
        }
    },
    "effects": [],
    "flags": {},
    "img": "systems/pf2e/icons/features/classes/strategic-strike.jpg",
    "name": "Strategic Strike",
    "permission": {
        "default": 0
    },
    "type": "feat"
}
