{
    "_id": "uBJsxCzNhje8m8jj",
    "data": {
        "description": {
            "chat": "",
            "unidentified": "",
            "value": "<p>You care as much about the way you accomplish something as whether you actually accomplish it in the first place. When you perform an action with particular bravado, you can leverage this moment of verve to perform spectacular, deadly maneuvers. This state of flair is called panache, and you are either in a state of panache or you are not.</p>\n<p>Granted by @Compendium[pf2e.classfeatures.Panache]{Panache}</p>\n<p>Implemented Effects:</p>\n<ul>\n<li>Enables panache property for panache effects</li>\n<li>Sets token effect</li>\n</ul>"
        },
        "duration": {
            "expiry": "turn-start",
            "sustained": false,
            "unit": "unlimited",
            "value": -1
        },
        "level": {
            "value": 1
        },
        "rarity": {
            "value": "common"
        },
        "rules": [
            {
                "key": "PF2E.RuleElement.TokenEffectIcon"
            },
            {
                "key": "PF2E.RuleElement.SetProperty",
                "on": {
                    "added": true,
                    "removed": false
                },
                "property": "flags.pf2e.rollOptions.all.panache"
            }
        ],
        "source": {
            "value": ""
        },
        "start": {
            "initiative": null,
            "value": 0
        },
        "traits": {
            "custom": "",
            "rarity": {
                "value": "common"
            },
            "value": []
        }
    },
    "effects": [],
    "flags": {},
    "img": "systems/pf2e/icons/features/classes/panache.jpg",
    "name": "Effect: Panache",
    "permission": {
        "default": 0
    },
    "type": "effect"
}
