{
    "_id": "EgkypvUZIZkx1UlQ",
    "data": {
        "ability": {
            "value": ""
        },
        "area": {
            "areaType": "",
            "value": null
        },
        "areasize": {
            "value": "15-foot cone"
        },
        "components": {
            "value": "somatic, verbal"
        },
        "cost": {
            "value": ""
        },
        "damage": {
            "applyMod": false,
            "value": "4d6"
        },
        "damageType": {
            "value": "poison"
        },
        "description": {
            "chat": "",
            "unidentified": "",
            "value": "<p>You channel a blast of powerful blightburn radiation from your hands. You deal 4d6 poison damage to creatures in the area. Creatures who fail their save are afflicted with stage 1 of blightburn sickness (on a critical failure, the creature moves immediately to stage 2). The level of blightburn sickness caused by this spell is equal to twice the spell's level, and the disease's save DC uses the caster's DC.</p>\n<hr />\n<p><strong>Blightburn Sickness</strong> (uncommon, disease) <strong>Level 15</strong></p>\n<p>The ceiling of the vault of the Black Desert is studded with deadly crystals that glimmer like stars above the dark sands. These crystals are radioactive and flood the vault with lethal energy. Creatures other than those native to the vault or who have survived there for a long time develop a disease called blightburn sickness.</p>\n<p>Creatures native to the Black Desert are immune, as are creatures who are affected by blightburn sickness but recover from it. The target can't recover from the disease's drained or sickened condition except by magic.</p>\n<p>The surest way to avoid contracting blightburn sickness is by wearing a blightburn ward, a piece of protective jewelry often found among urdefhans' gear or for sale in Shraen.</p>\n<p><strong>Saving Throw</strong> DC 32 Fortitude</p>\n<p><strong>Onset</strong> [[/r 1d4 #days]] days</p>\n<p><strong>Stage 1</strong> @Compendium[pf2e.conditionitems.Drained]{Drained 1} (1 day)</p>\n<p><strong>Stage 2</strong> @Compendium[pf2e.conditionitems.Drained]{Drained 1} and @Compendium[pf2e.conditionitems.Sickened]{Sickened 1} (1 day)</p>\n<p><strong>Stage 3</strong> @Compendium[pf2e.conditionitems.Drained]{Drained 2} and @Compendium[pf2e.conditionitems.Sickened]{Sickened 2} (1 week)</p>\n<p><strong>Stage 4</strong> @Compendium[pf2e.conditionitems.Drained]{Drained 3} and @Compendium[pf2e.conditionitems.Sickened]{Sickened 3} (1 month)</p>\n<p><strong>Stage 5</strong> Drained increases by 1 (1 year)</p>"
        },
        "duration": {
            "value": ""
        },
        "hasCounteractCheck": {
            "value": false
        },
        "level": {
            "value": 7
        },
        "location": {
            "value": 147
        },
        "materials": {
            "value": ""
        },
        "prepared": {
            "value": ""
        },
        "primarycheck": {
            "value": ""
        },
        "range": {
            "value": ""
        },
        "rarity": {
            "value": "common"
        },
        "rules": [],
        "save": {
            "basic": "basic",
            "value": "fortitude"
        },
        "scaling": {
            "formula": "",
            "mode": "none"
        },
        "school": {
            "value": "evo"
        },
        "secondarycasters": {
            "value": ""
        },
        "secondarycheck": {
            "value": ""
        },
        "source": {
            "value": ""
        },
        "spellCategorie": {
            "value": "spell"
        },
        "spellCategory": {
            "value": ""
        },
        "spellType": {
            "value": "save"
        },
        "sustained": {
            "value": false
        },
        "target": {
            "value": ""
        },
        "time": {
            "value": "2"
        },
        "traditions": {
            "custom": "",
            "value": [
                "arcane",
                "primal"
            ]
        },
        "traits": {
            "custom": "",
            "rarity": {
                "value": "uncommon"
            },
            "value": [
                "arcane",
                "disease",
                "evocation",
                "occult",
                "primal"
            ]
        }
    },
    "effects": [],
    "flags": {},
    "img": "systems/pf2e/icons/spells/blightburn-blast.jpg",
    "name": "Blightburn Blast",
    "permission": {
        "default": 0
    },
    "type": "spell"
}
