{
    "_id": "wLIvH0AT1u7oa64N",
    "data": {
        "ability": {
            "value": ""
        },
        "area": {
            "areaType": "",
            "value": null
        },
        "areasize": {
            "value": "60-foot burst"
        },
        "components": {
            "value": "somatic, verbal"
        },
        "cost": {
            "value": ""
        },
        "damage": {
            "applyMod": false,
            "value": "3d10"
        },
        "damageType": {
            "value": "acid"
        },
        "description": {
            "chat": "",
            "unidentified": "",
            "value": "<p><span>You call upon the unimaginable power of world-ending cataclysms, ripping a small piece of each cataclysm and combining them together into one horrifically powerful attack. The following effects come down upon all creatures in the area. Treat the resistances of creatures in the area as if they were 10 lower for the purpose of determining the cataclysm's damage. Each creature attempts one basic Reflex save that applies to all six types of damage. </span></p>\n<ul>\n<li>Flesh-dissolving acid rain deals 3d10 acid damage.</li>\n<li>A roaring earthquake shakes and bludgeons creatures on the ground, dealing 3d10 bludgeoning damage.</li>\n<li>A blast of freezing wind deals 3d10 cold damage.</li>\n<li>Incredible lightning lashes the area, dealing 3d10 electricity damage.</li>\n<li>Beating winds churn across the sky, dealing 3d10 bludgeoning damage to creatures flying in the area.</li>\n<li>An instant tsunami sweeps over creatures in the area, dealing 3d10 bludgeoning damage with the water trait (doubled for creatures swimming in the area).</li>\n<li>A massive wildfire burns in a sudden inferno, dealing 3d10 fire damage. </li>\n</ul>"
        },
        "duration": {
            "value": ""
        },
        "hasCounteractCheck": {
            "value": false
        },
        "level": {
            "value": 10
        },
        "location": {
            "value": ""
        },
        "materials": {
            "value": ""
        },
        "prepared": {
            "value": ""
        },
        "primarycheck": {
            "value": ""
        },
        "range": {
            "value": "1,000 feet"
        },
        "rarity": {
            "value": "common"
        },
        "rules": [],
        "save": {
            "basic": "basic",
            "value": "reflex"
        },
        "scaling": {
            "formula": "",
            "mode": "none"
        },
        "school": {
            "value": "evo"
        },
        "secondarycasters": {
            "value": ""
        },
        "secondarycheck": {
            "value": ""
        },
        "source": {
            "value": ""
        },
        "spellCategorie": {
            "value": "spell"
        },
        "spellCategory": {
            "value": ""
        },
        "spellType": {
            "value": "save"
        },
        "sustained": {
            "value": false
        },
        "target": {
            "value": ""
        },
        "time": {
            "value": "2"
        },
        "traditions": {
            "value": [
                "arcane",
                "primal"
            ]
        },
        "traits": {
            "custom": "",
            "rarity": {
                "value": "common"
            },
            "value": [
                "acid",
                "cold",
                "earth",
                "electricity",
                "evocation",
                "fire",
                "water"
            ]
        }
    },
    "effects": [],
    "flags": {},
    "img": "systems/pf2e/icons/spells/cataclysm.jpg",
    "name": "Cataclysm",
    "permission": {
        "default": 0
    },
    "type": "spell"
}
