{
    "_id": "FrKPwgFxWIGMGgs4",
    "data": {
        "ability": {
            "value": ""
        },
        "area": {
            "value": ""
        },
        "areasize": {
            "value": ""
        },
        "components": {
            "value": "somatic, verbal"
        },
        "cost": {
            "value": ""
        },
        "damage": {
            "applyMod": false,
            "value": ""
        },
        "damageType": {
            "value": ""
        },
        "description": {
            "chat": "",
            "unidentified": "",
            "value": "<p>You wrap yourself in a cloak of illusion, appearing as another creature of the same body shape with roughly similar height and weight as yourself. This has the effects of a 3rd-level @Compendium[pf2e.spells-srd.Illusory Disguise]{Illusory Disguise}.</p>\n<hr />\n<p><strong>Heightened (6th)</strong> You can appear as any creature of the same size, even with a completely different body shape.</p>"
        },
        "duration": {
            "value": "Sustained"
        },
        "hasCounteractCheck": {
            "value": false
        },
        "level": {
            "value": 3
        },
        "location": {
            "value": "gj8uSdGt5Fbk1fGz"
        },
        "materials": {
            "value": ""
        },
        "prepared": {
            "value": ""
        },
        "primarycheck": {
            "value": ""
        },
        "range": {
            "value": ""
        },
        "rarity": {
            "value": "common"
        },
        "rules": [],
        "save": {
            "basic": "",
            "value": ""
        },
        "scaling": {
            "formula": "",
            "mode": "none"
        },
        "school": {
            "value": "ill"
        },
        "secondarycasters": {
            "value": ""
        },
        "secondarycheck": {
            "value": ""
        },
        "source": {
            "value": ""
        },
        "spellCategorie": {
            "value": "focus"
        },
        "spellCategory": {
            "value": ""
        },
        "spellType": {
            "value": "attack"
        },
        "sustained": {
            "value": false
        },
        "target": {
            "value": ""
        },
        "time": {
            "value": "2"
        },
        "traditions": {
            "value": []
        },
        "traits": {
            "custom": "hex",
            "rarity": {
                "value": "uncommon"
            },
            "selected": {
                "custom": "",
                "illusion": "Illusion",
                "witch": "Witch"
            },
            "value": [
                "illusion",
                "witch",
                "hex"
            ]
        }
    },
    "effects": [],
    "flags": {},
    "img": "systems/pf2e/icons/spells/deceivers-cloak.jpg",
    "name": "Deceiver's Cloak",
    "permission": {
        "default": 0
    },
    "type": "spell"
}
