{
    "_id": "S6Kkk15MWGqzC00a",
    "data": {
        "ability": {
            "value": ""
        },
        "area": {
            "areaType": "",
            "value": null
        },
        "areasize": {
            "value": ""
        },
        "components": {
            "value": "somatic, verbal"
        },
        "cost": {
            "value": ""
        },
        "damage": {
            "applyMod": true,
            "value": "1d6"
        },
        "damageType": {
            "value": ""
        },
        "description": {
            "chat": "",
            "unidentified": "",
            "value": "<p>You shape energy into one incorporeal tiny dragon (or serpentine creature) that flits around you. The specific dragon is random; roll [[/r 1d6 #dragon]] on the table below for each dragon evoked to determine which type of dragon you create. While the spell persists, you can command one of your dragons to spit a missile of energy at a creature within 60 feet by using a single action, which has the concentrate trait. This is a ranged Strike that uses your spell attack bonus and deals 1d6 damage plus your spellcasting ability modifier, with the damage type depending on the dragon. A dragon's breath Strike uses and contributes to your multiple attack penalty. Once a dragon has used its breath Strike, it winks out of existence; when you have no dragons remaining, the spell ends.</p>\n<h2>Draconic Barrage</h2>\n<table style=\"user-select: text; width: 367px; color: #191813; height: 121px;\" border=\"1\">\n<tbody style=\"box-sizing: border-box; user-select: text;\">\n<tr style=\"box-sizing: border-box; user-select: text; height: 17px;\">\n<td style=\"box-sizing: border-box; user-select: text; color: white; height: 17px; width: 23px; text-align: center; background-color: #522e2c;\"><strong style=\"box-sizing: border-box; user-select: text;\">d6</strong></td>\n<td style=\"box-sizing: border-box; user-select: text; color: white; height: 17px; width: 174px; text-align: center; background-color: #522e2c;\"><strong style=\"box-sizing: border-box; user-select: text;\">Dragon</strong></td>\n<td style=\"box-sizing: border-box; user-select: text; color: white; width: 169px; text-align: center; background-color: #522e2c; height: 17px;\"><strong style=\"box-sizing: border-box; user-select: text;\">Breath Strike type</strong></td>\n</tr>\n<tr style=\"box-sizing: border-box; user-select: text; height: 17px;\">\n<td style=\"box-sizing: border-box; user-select: text; height: 17px; width: 23px; text-align: center; background-color: #f6f1e1;\">1</td>\n<td style=\"box-sizing: border-box; user-select: text; height: 17px; width: 174px; text-align: center; background-color: #f6f1e1;\">Copper or Black</td>\n<td style=\"box-sizing: border-box; user-select: text; width: 169px; text-align: center; background-color: #f6f1e1; height: 17px;\">Acid</td>\n</tr>\n<tr style=\"box-sizing: border-box; user-select: text; height: 17px;\">\n<td style=\"box-sizing: border-box; user-select: text; height: 17px; width: 23px; text-align: center; background-color: #eee5c8;\">2</td>\n<td style=\"box-sizing: border-box; user-select: text; height: 17px; width: 174px; text-align: center; background-color: #eee5c8;\">Silver or White</td>\n<td style=\"box-sizing: border-box; user-select: text; width: 169px; text-align: center; background-color: #eee5c8; height: 17px;\">Cold</td>\n</tr>\n<tr style=\"box-sizing: border-box; user-select: text; height: 17px;\">\n<td style=\"box-sizing: border-box; user-select: text; height: 17px; width: 23px; text-align: center; background-color: #f6f1e1;\">3</td>\n<td style=\"box-sizing: border-box; user-select: text; height: 17px; width: 174px; text-align: center; background-color: #f6f1e1;\">Bronze or Blue</td>\n<td style=\"box-sizing: border-box; user-select: text; width: 169px; text-align: center; background-color: #f6f1e1; height: 17px;\">Electricity</td>\n</tr>\n<tr style=\"box-sizing: border-box; user-select: text; height: 19px;\">\n<td style=\"box-sizing: border-box; user-select: text; height: 19px; width: 23px; text-align: center; background-color: #eee5c8;\">4</td>\n<td style=\"box-sizing: border-box; user-select: text; height: 19px; width: 174px; text-align: center; background-color: #eee5c8;\">Brass, Gold, or Red</td>\n<td style=\"box-sizing: border-box; user-select: text; width: 169px; text-align: center; background-color: #eee5c8; height: 19px;\">Fire</td>\n</tr>\n<tr style=\"box-sizing: border-box; user-select: text; height: 17px;\">\n<td style=\"box-sizing: border-box; user-select: text; height: 17px; width: 23px; text-align: center; background-color: #f6f1e1;\">5</td>\n<td style=\"box-sizing: border-box; user-select: text; height: 17px; width: 174px; text-align: center; background-color: #f6f1e1;\">Green</td>\n<td style=\"box-sizing: border-box; user-select: text; width: 169px; text-align: center; background-color: #f6f1e1; height: 17px;\">Poison</td>\n</tr>\n<tr style=\"box-sizing: border-box; user-select: text; height: 17px;\">\n<td style=\"box-sizing: border-box; user-select: text; height: 17px; width: 23px; text-align: center; background-color: #eee5c8;\">6</td>\n<td style=\"box-sizing: border-box; user-select: text; height: 17px; width: 174px; text-align: center; background-color: #eee5c8;\">Your choice of dragon</td>\n<td style=\"box-sizing: border-box; user-select: text; width: 169px; text-align: center; background-color: #eee5c8; height: 17px;\">As the dragon</td>\n</tr>\n</tbody>\n</table>\n<hr />\n<p><strong>Heightened (+1)</strong> You shape 1 additional dragon, and the Strike damage increases by 1d6.</p>"
        },
        "duration": {
            "value": "1 minute"
        },
        "hasCounteractCheck": {
            "value": false
        },
        "level": {
            "value": 1
        },
        "location": {
            "value": ""
        },
        "materials": {
            "value": ""
        },
        "prepared": {
            "value": ""
        },
        "primarycheck": {
            "value": ""
        },
        "range": {
            "value": ""
        },
        "rarity": {
            "value": "common"
        },
        "rules": [],
        "save": {
            "basic": "",
            "value": ""
        },
        "scaling": {
            "formula": "1d6",
            "mode": "level1"
        },
        "school": {
            "value": "evo"
        },
        "secondarycasters": {
            "value": ""
        },
        "secondarycheck": {
            "value": ""
        },
        "source": {
            "value": ""
        },
        "spellCategorie": {
            "value": "focus"
        },
        "spellCategory": {
            "value": ""
        },
        "spellType": {
            "value": "attack"
        },
        "sustained": {
            "value": false
        },
        "target": {
            "value": ""
        },
        "time": {
            "value": "2"
        },
        "traditions": {
            "custom": "",
            "value": [
                "focus"
            ]
        },
        "traits": {
            "custom": "",
            "rarity": {
                "value": "uncommon"
            },
            "value": [
                "cleric",
                "evocation"
            ]
        }
    },
    "effects": [],
    "flags": {},
    "img": "systems/pf2e/icons/spells/draconic-barrage.jpg",
    "name": "Draconic Barrage",
    "permission": {
        "default": 0
    },
    "type": "spell"
}
