{
    "_id": "4j0FQ1mkidBAXuQV",
    "data": {
        "ability": {
            "value": ""
        },
        "area": {
            "value": ""
        },
        "areasize": {
            "value": ""
        },
        "components": {
            "value": "somatic verbal"
        },
        "cost": {
            "value": ""
        },
        "damage": {
            "applyMod": false,
            "value": ""
        },
        "damageType": {
            "value": ""
        },
        "description": {
            "chat": "",
            "unidentified": "",
            "value": "<p id=\"docs-internal-guid-3e0c0ab4-7fff-869a-cf23-f4e2024eb196\" dir=\"ltr\">You gain the ability to perform a specialized combat technique from the vast wealth of martial knowledge your mystery provides. When you @Compendium[pf2e.actionspf2e.Cast a Spell]{Cast this Spell}, you use the action granted by one common fighter feat. If you Cast this Spell using 2 actions, the granted action must be a single action, and if you Cast this Spell using 3 actions, you can instead choose a feat that grants a 2-action activity. The chosen feat's level can be no higher than heroic feat's spell level. The feat can't have a Frequency entry, and you must meet its prerequisites and requirements in order to select it.</p>"
        },
        "duration": {
            "value": ""
        },
        "hasCounteractCheck": {
            "value": false
        },
        "level": {
            "value": 6
        },
        "location": {
            "value": ""
        },
        "materials": {
            "value": ""
        },
        "prepared": {
            "value": ""
        },
        "primarycheck": {
            "value": ""
        },
        "range": {
            "value": ""
        },
        "rarity": {
            "value": "common"
        },
        "rules": [],
        "save": {
            "basic": "",
            "value": ""
        },
        "scaling": {
            "formula": "",
            "mode": "none"
        },
        "school": {
            "value": "div"
        },
        "secondarycasters": {
            "value": ""
        },
        "secondarycheck": {
            "value": ""
        },
        "source": {
            "value": ""
        },
        "spellCategorie": {
            "value": "focus"
        },
        "spellCategory": {
            "value": ""
        },
        "spellType": {
            "value": "utility"
        },
        "sustained": {
            "value": false
        },
        "target": {
            "value": ""
        },
        "time": {
            "value": "2 or 3"
        },
        "traditions": {
            "value": []
        },
        "traits": {
            "custom": "",
            "rarity": {
                "value": "common"
            },
            "value": [
                "divination",
                "mental",
                "oracle"
            ]
        }
    },
    "effects": [],
    "flags": {},
    "img": "systems/pf2e/icons/spells/heroic-feat.jpg",
    "name": "Heroic Feat",
    "permission": {
        "default": 0
    },
    "type": "spell"
}
