{
    "_id": "JyT346VmGtRLsDnV",
    "data": {
        "ability": {
            "value": ""
        },
        "area": {
            "areaType": "burst",
            "value": 5
        },
        "areasize": {
            "value": "5-foot burst"
        },
        "components": {
            "value": "material, somatic, verbal"
        },
        "cost": {
            "value": ""
        },
        "damage": {
            "applyMod": false,
            "value": "4d12"
        },
        "damageType": {
            "value": "electricity"
        },
        "description": {
            "chat": "",
            "unidentified": "",
            "value": "<p>You create a black, rumbling storm cloud and call down one lightning bolt. The bolt is a vertical line from the storm cloud to the ground below, dealing <a class=\"inline-roll roll\" data-mode=\"roll\" data-flavor=\"electricity\" data-formula=\"4d12\" title=\"electricity\"><i class=\"fas fa-dice-d20\"></i> 4d12</a> electricity damage to creatures in the spell's area (basic Reflex save). The first time you @Compendium[pf2e.actionspf2e.Sustain a Spell]{Sustain the Spell} each round, you can call another lightning bolt within the area. If you @Compendium[pf2e.actionspf2e.Cast a Spell]{Cast this Spell} outdoors, you can create two non-overlapping clouds instead of one, though you can still call down only one bolt per turn.</p>\n<hr />\n<p><strong>Heightened (+1)</strong> The damage of each bolt increases by <a class=\"inline-roll roll\" data-mode=\"roll\" data-flavor=\"electric\" data-formula=\"1d12\" title=\"electric\"><i class=\"fas fa-dice-d20\"></i> 1d12</a>.</p>"
        },
        "duration": {
            "value": "sustained up to 1 minute"
        },
        "hasCounteractCheck": {
            "value": false
        },
        "level": {
            "value": 5
        },
        "location": {
            "value": ""
        },
        "materials": {
            "value": ""
        },
        "prepared": {
            "value": false
        },
        "primarycheck": {
            "value": ""
        },
        "range": {
            "value": "120 feet"
        },
        "rarity": {
            "value": "common"
        },
        "rules": [],
        "save": {
            "basic": "basic",
            "value": "reflex"
        },
        "scaling": {
            "formula": "1d12",
            "mode": "level1"
        },
        "school": {
            "value": "evo"
        },
        "secondarycasters": {
            "value": ""
        },
        "secondarycheck": {
            "value": ""
        },
        "source": {
            "value": ""
        },
        "spellCategorie": {
            "value": "spell"
        },
        "spellCategory": {
            "value": ""
        },
        "spellType": {
            "value": "attack"
        },
        "sustained": {
            "value": false
        },
        "target": {
            "value": ""
        },
        "time": {
            "value": "3"
        },
        "traditions": {
            "value": [
                "primal"
            ]
        },
        "traits": {
            "custom": "",
            "rarity": {
                "value": "common"
            },
            "value": [
                "electricity",
                "evocation"
            ]
        }
    },
    "effects": [],
    "flags": {},
    "img": "systems/pf2e/icons/spells/lightning-storm.jpg",
    "name": "Lightning Storm",
    "permission": {
        "default": 0
    },
    "type": "spell"
}
