{
    "_id": "07xYlmGX32XtHGEt",
    "data": {
        "ability": {
            "value": ""
        },
        "area": {
            "value": ""
        },
        "areasize": {
            "value": ""
        },
        "components": {
            "value": "somatic, verbal"
        },
        "cost": {
            "value": ""
        },
        "damage": {
            "applyMod": false,
            "value": "4d4 + 4d4"
        },
        "damageType": {
            "value": "piercing"
        },
        "description": {
            "chat": "",
            "unidentified": "",
            "value": "<p>A ghostly iron maiden snaps shut on the target and drains its vitality for your gain. This deals [[/r 4d4 #piercing]] piercing damage and [[/r 4d4 #negative]] negative damage, and the target must attempt a Fortitude save. You gain temporary HP equal to the negative damage the target takes (after applying resistances, weaknesses, and the like). You lose any remaining temporary HP after 1 minute.</p>\n<hr />\n<p><strong>Critical Success</strong>: The target is unaffected.</p>\n<p><strong>Success</strong>: The target takes half damage.</p>\n<p><strong>Failure</strong> The target is briefly trapped within the vampiric maiden. The target takes full damage and is @Compendium[pf2e.conditionitems.Immobilized]{Immobilized} by the iron maiden for 1 round or until it uses an @Compendium[pf2e.actionspf2e.Interact]{Interact} action to extricate itself, whichever comes first.</p>\n<p><strong>Critical Failure</strong>: The target takes double damage and is Immobilized by the vampiric maiden for 1 round or until it @Compendium[pf2e.actionspf2e.Escape]{Escapes}(the DC is your spell DC), whichever comes first.</p>\n<hr />\n<p><strong>Heightened (+1)</strong> The piercing and negative damage increase by [[/r 1d4]] each.</p>"
        },
        "duration": {
            "value": ""
        },
        "hasCounteractCheck": {
            "value": false
        },
        "level": {
            "value": 4
        },
        "location": {
            "value": ""
        },
        "materials": {
            "value": ""
        },
        "prepared": {
            "value": false
        },
        "primarycheck": {
            "value": ""
        },
        "range": {
            "value": "30 feet"
        },
        "rarity": {
            "value": "common"
        },
        "rules": [],
        "save": {
            "basic": "",
            "value": "fortitude"
        },
        "scaling": {
            "formula": "1d4+1d4",
            "mode": "level1"
        },
        "school": {
            "value": "nec"
        },
        "secondarycasters": {
            "value": ""
        },
        "secondarycheck": {
            "value": ""
        },
        "source": {
            "value": ""
        },
        "spellCategorie": {
            "value": "spell"
        },
        "spellCategory": {
            "value": ""
        },
        "spellType": {
            "value": "save"
        },
        "sustained": {
            "value": false
        },
        "target": {
            "value": "1 creature"
        },
        "time": {
            "value": "2"
        },
        "traditions": {
            "value": [
                "arcane",
                "divine",
                "occult"
            ]
        },
        "traits": {
            "custom": "",
            "rarity": {
                "value": "common"
            },
            "value": [
                "necromancy",
                "negative"
            ]
        }
    },
    "effects": [],
    "flags": {},
    "img": "systems/pf2e/icons/spells/vampiric-maiden.jpg",
    "name": "Vampiric Maiden",
    "permission": {
        "default": 0
    },
    "type": "spell"
}
