{
    "_id": "6rIIsZg3tOyIU3g3",
    "data": {
        "actionCategory": {
            "value": ""
        },
        "actionType": {
            "value": "passive"
        },
        "actions": {
            "value": ""
        },
        "description": {
            "chat": "",
            "unidentified": "",
            "value": "<p>You can flare your neck frill and flex your dorsal spines, Demoralizing your foes. When you do, Demoralize loses the auditory trait and gains the visual trait, and you don't take a penalty when you attempt to Demoralize a creature that doesn't understand your language. You also gain the @Compendium[pf2e.actionspf2e.Threatening Approach]{Threatening Approach} action.</p>"
        },
        "featType": {
            "value": "ancestryfeature"
        },
        "level": {
            "value": 1
        },
        "prerequisites": [],
        "rarity": {
            "value": "common"
        },
        "rules": [],
        "source": {
            "value": ""
        },
        "traits": {
            "custom": "",
            "rarity": {
                "value": "common"
            },
            "selected": {
                "lizardfolk": "Lizardfolk"
            },
            "value": [
                "heritage",
                "lizardfolk"
            ]
        }
    },
    "effects": [],
    "flags": {},
    "img": "systems/pf2e/icons/features/ancestry/frilled-lizardfolk.jpg",
    "name": "Frilled Lizardfolk",
    "permission": {
        "default": 0
    },
    "type": "feat"
}
