{
    "_id": "mnhpCk9dIwMuFegM",
    "data": {
        "actionCategory": {
            "value": ""
        },
        "actionType": {
            "value": "passive"
        },
        "actions": {
            "value": ""
        },
        "description": {
            "chat": "",
            "unidentified": "",
            "value": "<p>You hail from shoonies who have lived long and successfully among the reeds and cattails of swamps and marshes, and have adapted to the challenges of living near waterlogged areas. You ignore difficult terrain and greater difficult terrain from bogs. When you roll a success to @Compendium[pf2e.actionspf2e.Swim]{Swim}, you get a critical success instead.</p>"
        },
        "featType": {
            "value": "ancestryfeature"
        },
        "level": {
            "value": 1
        },
        "location": "",
        "prerequisites": [],
        "rarity": {
            "value": "common"
        },
        "rules": [
            {
                "key": "PF2E.RuleElement.Note",
                "predicate": {
                    "all": [
                        "action:swim"
                    ]
                },
                "selector": "athletics",
                "text": "<p class='compact-text'><strong>{item|name}</strong> When you roll a success to Swim, you get a critical success instead.</p>"
            }
        ],
        "source": {
            "value": ""
        },
        "traits": {
            "custom": "",
            "rarity": {
                "value": "common"
            },
            "value": [
                "heritage",
                "shoony"
            ]
        }
    },
    "effects": [],
    "flags": {},
    "img": "systems/pf2e/icons/features/ancestry/paddler-shoony.jpg",
    "name": "Paddler Shoony",
    "permission": {
        "default": 0
    },
    "type": "feat"
}
