{
    "_id": "NWsZ0cIeghyzk9bU",
    "data": {
        "actionCategory": {
            "value": ""
        },
        "actionType": {
            "value": "passive"
        },
        "actions": {
            "value": ""
        },
        "description": {
            "value": "<p>You were born with big, expressive ears that move with your moods and perk up at any unexpected sound. You gain a +2 circumstance bonus to locate undetected creatures that you could hear within 30 feet with a Seek action. As long as you’re aware of a creature via sound, once per round, your ears can help you Point Out the creature to all allies as a free action.</p>"
        },
        "featType": {
            "value": "ancestryfeature"
        },
        "level": {
            "value": 1
        },
        "location": "",
        "prerequisites": [],
        "rarity": {
            "value": "common"
        },
        "rules": [],
        "source": {
            "value": ""
        },
        "traits": {
            "custom": "",
            "rarity": {
                "value": "common"
            },
            "value": [
                "catfolk",
                "heritage"
            ]
        }
    },
    "effects": [],
    "flags": {},
    "img": "systems/pf2e/icons/default-icons/feat.svg",
    "name": "Sharp-Eared Catfolk",
    "permission": {
        "default": 0
    },
    "type": "feat"
}
