{
    "_id": "RxNBBMFZwPA3Vlg3",
    "data": {
        "actionCategory": {
            "value": ""
        },
        "actionType": {
            "value": "passive"
        },
        "actions": {
            "value": ""
        },
        "description": {
            "value": "<p>You’re the descendant of strix who traveled to the coasts. Your feathers are especially water-repellent and sleekly angled for diving, allowing you to catch fish and other prey in the shallows. You are trained in Athletics, and you gain the @Compendium[pf2e.feats-srd.Underwater Marauder]{Underwater Marauder}&nbsp;skill feat as a bonus skill feat.</p>"
        },
        "featType": {
            "value": "ancestryfeature"
        },
        "level": {
            "value": 1
        },
        "location": "",
        "prerequisites": [],
        "rarity": {
            "value": "common"
        },
        "rules": [],
        "source": {
            "value": ""
        },
        "traits": {
            "custom": "",
            "rarity": {
                "value": "common"
            },
            "value": [
                "heritage",
                "strix"
            ]
        }
    },
    "effects": [],
    "flags": {},
    "img": "systems/pf2e/icons/default-icons/feat.svg",
    "name": "Shoreline Strix",
    "permission": {
        "default": 0
    },
    "type": "feat"
}
