{
    "_id": "U882U2NUUGL6u3rL",
    "data": {
        "actionCategory": {
            "value": ""
        },
        "actionType": {
            "value": "passive"
        },
        "actions": {
            "value": ""
        },
        "description": {
            "value": "<p>Your incredibly small bones allow you to easily compress your body and squeeze through gaps. You gain the @Compendium[pf2e.feats-srd.Quick Squeeze]{Quick Squeeze} feat as a bonus feat, even if you aren’t trained in Acrobatics. Tight spaces not tight enough to require the Squeeze action aren’t difficult terrain for you.</p>"
        },
        "featType": {
            "value": "ancestryfeature"
        },
        "level": {
            "value": 1
        },
        "location": "",
        "prerequisites": [],
        "rarity": {
            "value": "common"
        },
        "rules": [],
        "source": {
            "value": ""
        },
        "traits": {
            "custom": "",
            "rarity": {
                "value": "common"
            },
            "value": [
                "heritage",
                "ratfolk"
            ]
        }
    },
    "effects": [],
    "flags": {},
    "img": "systems/pf2e/icons/default-icons/feat.svg",
    "name": "Tunnel Rat",
    "permission": {
        "default": 0
    },
    "type": "feat"
}
