{
    "_id": "TQFE10VFvh9wb8zb",
    "data": {
        "actionCategory": {
            "value": ""
        },
        "actionType": {
            "value": "passive"
        },
        "actions": {
            "value": ""
        },
        "description": {
            "value": "<p>You move easily through thick forest and jungle, using every branch or bush. You can always use the Take Cover action when in forest or jungle terrain to gain cover, even if you’re not next to an obstacle you would normally be able to Take Cover behind. You gain the @Compendium[pf2e.feats-srd.Terrain Stalker]{Terrain Stalker}&nbsp;feat, even if you’re not trained in Stealth, and you must choose underbrush as your chosen terrain.</p>"
        },
        "featType": {
            "value": "ancestryfeature"
        },
        "level": {
            "value": 1
        },
        "location": "",
        "prerequisites": [],
        "rarity": {
            "value": "common"
        },
        "rules": [],
        "source": {
            "value": ""
        },
        "traits": {
            "custom": "",
            "rarity": {
                "value": "common"
            },
            "value": [
                "heritage",
                "lizardfolk"
            ]
        }
    },
    "effects": [],
    "flags": {},
    "img": "systems/pf2e/icons/default-icons/feat.svg",
    "name": "Woodstalker Lizardfolk",
    "permission": {
        "default": 0
    },
    "type": "feat"
}
