{
    "_id": "RGSw5tAc4ALp97Qe",
    "data": {
        "actionCategory": {
            "value": ""
        },
        "actionType": {
            "value": "passive"
        },
        "actions": {
            "value": ""
        },
        "description": {
            "chat": "",
            "unidentified": "",
            "value": "<p><strong>[Generic]</strong></p>\n<p><strong>Effect</strong>: Stella Fane knows you, though she's not particularly impressed by you. Maybe you can improve her opinion of you next time around. This boon has special benefits when slotted during scenarios and quests that feature Stella Fane.</p>"
        },
        "featType": {
            "value": "pfsboon"
        },
        "level": {
            "value": "0"
        },
        "prerequisites": {
            "value": ""
        },
        "rarity": {
            "value": "common"
        },
        "rules": [],
        "source": {
            "value": ""
        },
        "traits": {
            "custom": "",
            "rarity": {
                "value": "common"
            },
            "selected": {},
            "value": []
        }
    },
    "effects": [],
    "flags": {},
    "img": "systems/pf2e/icons/default-icons/mystery-man.png",
    "name": "S1-Q04 - Stella's Associate",
    "permission": {
        "default": 0
    },
    "type": "feat"
}
