{
    "_id": "gWwG7MNAesJgpmRW",
    "data": {
        "description": {
            "value": "<p>Granted by @Compendium[pf2e.feats-srd.Cut From The Air]{Cut From The Air}.</p>\n<p>You gain a +4 circumstance bonus to AC against the triggering attack.</p>"
        },
        "duration": {
            "expiry": "turn-start",
            "sustained": false,
            "unit": "rounds",
            "value": 0
        },
        "level": {
            "value": 10
        },
        "rarity": {
            "value": "common"
        },
        "rules": [
            {
                "key": "PF2E.RuleElement.TokenEffectIcon"
            },
            {
                "key": "PF2E.RuleElement.FlatModifier",
                "selector": "ac",
                "type": "circumstance",
                "value": 4
            }
        ],
        "source": {
            "value": ""
        },
        "start": {
            "initiative": null,
            "value": 0
        },
        "target": null,
        "traits": {
            "custom": "",
            "rarity": {
                "value": "common"
            },
            "value": []
        }
    },
    "effects": [],
    "flags": {},
    "img": "systems/pf2e/icons/equipment/consumables/ammunition/viper-arrow.jpg",
    "name": "Effect: Cut from the Air",
    "permission": {
        "default": 0
    },
    "type": "effect"
}
