{
    "_id": "RcxDIOa68SUGyMun",
    "data": {
        "description": {
            "value": ""
        },
        "duration": {
            "expiry": "turn-start",
            "sustained": false,
            "unit": "unlimited",
            "value": -1
        },
        "level": {
            "value": 1
        },
        "rarity": {
            "value": "common"
        },
        "rules": [
            {
                "key": "PF2E.RuleElement.TokenSize",
                "value": "huge"
            },
            {
                "key": "PF2E.RuleElement.FlatModifier",
                "label": "Giant's Stature",
                "selector": "dex-based",
                "type": "status",
                "value": -1
            }
        ],
        "source": {
            "value": ""
        },
        "start": {
            "initiative": null,
            "value": 0
        },
        "target": null,
        "traits": {
            "custom": "",
            "rarity": {
                "value": "common"
            },
            "value": []
        }
    },
    "effects": [],
    "flags": {},
    "img": "systems/pf2e/icons/spells/summon-giant.jpg",
    "name": "Effect: Titan's Stature",
    "permission": {
        "default": 0
    },
    "type": "effect"
}
