{
    "_id": "qJHpitixORsKJsBj",
    "data": {
        "description": {
            "value": "<p>Granted by @Compendium[pf2e.feats-srd.Fiendsbane Oath]{Fiendsbane Oath} if you are a paladin.</p>\n<p>Your Retributive Strike gains a +4 circumstance bonus to damage against an fiend, or +6 if you have master proficiency with the weapon you used.</p>"
        },
        "duration": {
            "expiry": "turn-start",
            "sustained": false,
            "unit": "unlimited",
            "value": -1
        },
        "level": {
            "value": 2
        },
        "rarity": {
            "value": "common"
        },
        "rules": [
            {
                "key": "PF2E.RuleElement.ToggleProperty",
                "label": "Retributive Strike against a fiend",
                "property": "flags.pf2e.rollOptions.damage-roll.fiendsbane-oath"
            },
            {
                "key": "PF2E.RuleElement.FlatModifier",
                "label": "Fiendsbane Oath",
                "name": "fiendsbane-not-master",
                "predicate": {
                    "all": [
                        "fiendsbane-oath"
                    ],
                    "not": [
                        "proficiency:master",
                        "proficiency:legendary"
                    ]
                },
                "selector": "damage",
                "value": 4
            },
            {
                "key": "PF2E.RuleElement.FlatModifier",
                "label": "Fiendsbane Oath",
                "name": "fiendsbane-master",
                "predicate": {
                    "all": [
                        "fiendsbane-oath"
                    ],
                    "any": [
                        "proficiency:master",
                        "proficiency:legendary"
                    ]
                },
                "selector": "damage",
                "value": 6
            }
        ],
        "source": {
            "value": ""
        },
        "start": {
            "initiative": null,
            "value": 0
        },
        "target": null,
        "traits": {
            "custom": "",
            "rarity": {
                "value": "common"
            },
            "value": []
        }
    },
    "effects": [],
    "flags": {},
    "img": "systems/pf2e/icons/spells/summon-fiend.jpg",
    "name": "Fiendsbane Oath (Paladin)",
    "permission": {
        "default": 0
    },
    "type": "effect"
}
